<svg width="233" height="57" viewBox="0 0 233 57" fill="none" xmlns="http://www.w3.org/2000/svg">
<path d="M17.4002 38.5001C16.9002 38.2001 16.3002 38.1001 15.8002 38.3001L5.00018 41.9001C4.30018 42.1001 3.80017 42.8001 3.80017 43.6001V49.0001C1.80017 49.0001 0.200195 50.6001 0.200195 52.6001C0.200195 54.6001 1.80017 56.2001 3.80017 56.2001C5.80017 56.2001 7.40021 54.6001 7.40021 52.6001V44.8001L14.6002 42.4001V47.1001C12.6002 47.1001 11.0002 48.7001 11.0002 50.7001C11.0002 52.7001 12.6002 54.3001 14.6002 54.3001C16.6002 54.3001 18.2002 52.7001 18.2002 50.7001V39.9001C18.1002 39.3001 17.9002 38.8001 17.4002 38.5001Z" fill="#FFADFB"/>
<path d="M65.8997 45.6001C66.4997 37.8001 60.8996 30.8001 53.0996 29.6001C59.5996 25.2001 61.5996 16.4001 57.6996 9.60007C65.1996 11.9001 73.2996 8.00007 76.0996 0.700073C78.9996 8.00007 86.9996 11.9001 94.5996 9.60007C90.5996 16.4001 92.5996 25.2001 99.0996 29.6001C91.2996 30.8001 85.7996 37.8001 86.2996 45.6001C80.5996 40.2001 71.6997 40.2001 65.8997 45.6001Z" fill="#FFCFF9"/>
<path opacity="0.6" d="M69.8 37.4C70.1 32.6 66.7 28.3 62 27.6C66 24.9 67.2 19.5 64.8 15.4C69.4 16.8 74.3 14.4 76.1 9.90002C77.9 14.4 82.8 16.8 87.4 15.4C85 19.6 86.2 24.9 90.2 27.6C85.4 28.3 82 32.6 82.4 37.4C78.9 34.1 73.4 34.1 69.8 37.4Z" fill="white"/>
<path d="M84.8998 34.9001H67.2998C64.4998 34.9001 62.2998 32.7001 62.2998 29.9001V19.8C62.2998 17 64.4998 14.8 67.2998 14.8H84.8998C87.6998 14.8 89.8998 17 89.8998 19.8V29.9001C89.9998 32.6001 87.6998 34.9001 84.8998 34.9001ZM67.2998 15.7001C65.0998 15.7001 63.2998 17.5001 63.2998 19.7001V29.8C63.2998 32 65.0998 33.8 67.2998 33.8H84.8998C87.0998 33.8 88.8998 32 88.8998 29.8V19.8C88.8998 17.6 87.0998 15.8 84.8998 15.8L67.2998 15.7001Z" fill="#5176EE"/>
<path d="M85.4 29.4001C86.8 28.6001 87.5999 27.2001 87.5999 25.6001C87.5999 23.2001 85.7 21.3001 83.3 21.3001H82.0999C83.0999 15.8001 83 11.5001 81.7 11.2001C80.4 10.9001 77.9 15.0001 76.2 21.0001C76.2 21.1001 76.0999 21.1001 76.0999 21.1001C76.0999 21.1001 76 21.1001 76 21.0001C74.5 15.1001 72.3 10.8001 70.9 11.1001C69.5 11.4001 69.2999 15.7001 70.0999 21.3001H69.0999C66.6999 21.3001 64.8 23.2001 64.8 25.6001C64.8 27.2001 65.7 28.6001 67 29.4001C65.1 29.9001 63.7 31.6001 63.8 33.6001C63.9 36.0001 65.8 37.8001 68.2 37.8001H84.3C86.7 37.8001 88.6 36.0001 88.7 33.6001C88.7 31.7001 87.4 29.9001 85.4 29.4001Z" fill="#FF6DBA"/>
<path d="M74.6997 24.7C73.7997 24 72.4997 24.2 71.7997 25.1L71.5996 25.3L71.1997 25C70.6997 24.1 69.4996 23.8 68.5996 24.4C67.6996 24.9 67.3997 26.1 67.9997 27C68.1997 27.3 68.3996 27.5 68.5996 27.6L68.7997 27.8L70.2997 29.3C70.8997 29.9 71.8997 29.9 72.4997 29.3L74.0996 28L74.3997 27.7C75.1997 26.9 75.3997 25.6 74.6997 24.7Z" fill="#FEC928"/>
<path d="M84.2003 24.7C83.3003 24 82.0002 24.2 81.3002 25.1L81.1002 25.3L80.8002 25C80.3002 24.1 79.1003 23.8 78.2003 24.4C77.3003 25 77.0002 26.1 77.6002 27C77.8002 27.3 78.0003 27.5 78.2003 27.6L78.4003 27.8L79.9003 29.3C80.5003 29.9 81.5002 29.9 82.1002 29.3L83.6002 27.8L83.9003 27.5C84.8003 26.8 84.9002 25.5 84.3002 24.6L84.2003 24.7Z" fill="#FEC928"/>
<path d="M73.7004 32.4C73.4004 32.3 73.0004 32.5 72.9004 32.8C72.9004 32.9 72.9004 33 72.9004 33.2C73.5004 35 75.4004 35.9 77.2004 35.3C78.2004 35 79.0004 34.2 79.3004 33.2C79.4004 32.9 79.2004 32.5 78.9004 32.4C78.8004 32.4 78.7004 32.4 78.5004 32.4C77.0004 32.9 75.3004 32.9 73.7004 32.4Z" fill="#25272A"/>
<path d="M217.6 39.9001C209.4 39.9001 202.8 33.3001 202.8 25.1001C202.8 18.4001 207.3 12.5001 213.8 10.8001C221.7 8.7001 229.8 13.4001 232 21.3001C234.1 29.2001 229.4 37.3001 221.5 39.5001C220.2 39.7001 218.9 39.9001 217.6 39.9001ZM217.6 11.3001C216.4 11.3001 215.2 11.5001 214 11.8001C206.6 13.8001 202.3 21.4001 204.2 28.7001C206.1 36.0001 213.8 40.4001 221.1 38.5001C228.5 36.5001 232.9 29.0001 230.9 21.6001C229.4 15.4001 223.9 11.2001 217.6 11.3001Z" fill="white"/>
<path d="M226.9 32.7C226 33.4 224.9 33.8 223.8 33.8H211.5C208.7 33.8 206.5 31.6 206.5 28.8C206.5 28.5 206.5 28.1 206.6 27.8L207.4 23.4C210.2 26.2 214 27.7 218 27.7C221.8 27.8 225.4 26.4 228.2 23.8L228.9 27.8C229 29.6 228.3 31.5 226.9 32.7Z" fill="#BAF6E6"/>
<path d="M228 23.7C222.1 29.1 213 28.9 207.2 23.3L207.8 20C208.2 17.9 210 16.4 212.1 16.4C214 16.4 215.6 17.9 215.6 19.8H219.7C219.7 18.9 220.1 18 220.7 17.4C221.3 16.8 222.2 16.4 223.2 16.4C225.3 16.4 227.1 17.9 227.5 20L228 23.7Z" fill="#95E0CB"/>
<path d="M216.6 25.4C216.4 25.4 216.2 25.3 216.1 25.1L215.7 23.9C215.6 23.6 215.7 23.4 216 23.3C216.3 23.2 216.5 23.4 216.6 23.6L217 24.8C217.1 25.1 216.9 25.3 216.7 25.4C216.7 25.4 216.7 25.4 216.6 25.4Z" fill="#24272A"/>
<path d="M218.6 25.4001C218.5 25.4001 218.5 25.4001 218.4 25.4001C218.1 25.3001 218 25.0001 218.1 24.8001L218.5 23.6001C218.6 23.3001 218.9 23.2001 219.1 23.3001C219.4 23.4001 219.5 23.7001 219.4 23.9001L219 25.1001C219 25.3001 218.8 25.4001 218.6 25.4001Z" fill="#24272A"/>
<path d="M212.7 20.6001C212.4 20.6001 212.2 20.4001 212.2 20.1001C212.2 19.4001 211.9 19.0001 211.5 19.0001C211.1 19.0001 210.9 19.5001 210.9 20.1001C210.9 20.4001 210.7 20.6001 210.4 20.6001C210.1 20.6001 209.9 20.4001 209.9 20.1001C209.7 19.2001 210.2 18.3001 211.1 18.0001C212 17.8001 212.9 18.3001 213.2 19.2001C213.3 19.5001 213.3 19.8001 213.2 20.1001C213.2 20.4001 213 20.6001 212.7 20.6001Z" fill="#24272A"/>
<path d="M224.8 20.6C224.5 20.6 224.3 20.4 224.3 20.1C224.3 19.4 224 19.0001 223.6 19.0001C223.2 19.0001 222.9 19.5 222.9 20.1C222.9 20.4 222.7 20.6 222.4 20.6C222.1 20.6 221.9 20.4 221.9 20.1C221.7 19.2 222.2 18.3 223.1 18.1C224 17.9 224.9 18.4 225.1 19.3C225.2 19.6 225.2 19.8 225.1 20.1C225.3 20.4 225 20.6 224.8 20.6Z" fill="#24272A"/>
<path d="M217.8 28.1001C213.7 28.1001 209.8 26.5001 206.9 23.7001C206.7 23.5001 206.7 23.2001 206.9 23.0001C207.1 22.8001 207.4 22.8001 207.6 23.0001C210.3 25.7001 214 27.2001 217.8 27.2001C221.4 27.3001 225 25.9001 227.6 23.4001C227.8 23.2001 228.1 23.2001 228.3 23.4001C228.5 23.6001 228.5 23.9001 228.3 24.1001C225.5 26.7001 221.7 28.2001 217.8 28.1001Z" fill="#24272A"/>
<path d="M227.6 26.3001C229.146 26.3001 230.4 25.3599 230.4 24.2001C230.4 23.0403 229.146 22.1001 227.6 22.1001C226.053 22.1001 224.8 23.0403 224.8 24.2001C224.8 25.3599 226.053 26.3001 227.6 26.3001Z" fill="#E655D4"/>
<path d="M207.6 26.3001C209.146 26.3001 210.4 25.3599 210.4 24.2001C210.4 23.0403 209.146 22.1001 207.6 22.1001C206.053 22.1001 204.8 23.0403 204.8 24.2001C204.8 25.3599 206.053 26.3001 207.6 26.3001Z" fill="#E655D4"/>
<path d="M220 9.40006C219.8 9.50006 219.6 9.50006 219.4 9.30006L217.8 7.00006C217.7 6.90006 217.5 6.80006 217.4 6.90006C217.4 6.90006 217.3 6.90006 217.3 7.00006L215.7 9.30006C215.6 9.50006 215.3 9.50006 215.1 9.40006L213.4 8.10006V12.0001C213.4 12.3001 213.6 12.5001 213.9 12.5001H221.1C221.4 12.5001 221.6 12.3001 221.6 12.0001V8.10006L220 9.40006Z" fill="#FEC928"/>
<path d="M217.6 8.80005L216.8 9.60005V10.7001L217.6 11.5L218.4 10.7001V9.60005L217.6 8.80005Z" fill="#FA6EF6"/>
<path d="M37.2002 39.3L35.1002 40.3C34.8002 40.4 34.5002 40.3 34.3002 40C34.3002 39.8 34.3002 39.6 34.3002 39.5L35.3002 37.4001C35.4002 37.2001 35.4002 37.0001 35.3002 36.9001L34.3002 34.8C34.2002 34.5 34.3002 34.2 34.6002 34C34.8002 33.9 34.9002 33.9 35.1002 34L37.2002 35C37.4002 35.1 37.6002 35.1 37.7002 35L39.8002 34C40.1002 33.9 40.4002 34 40.6002 34.3C40.7002 34.5 40.7002 34.6 40.6002 34.8L39.6002 36.9001C39.5002 37.1001 39.5002 37.3001 39.6002 37.4001L40.6002 39.5C40.7002 39.8 40.6002 40.1 40.3002 40.3C40.1002 40.4 39.9002 40.4 39.8002 40.3L37.7002 39.3C37.5002 39.2 37.3002 39.2 37.2002 39.3Z" fill="#FFCFF9"/>
<path d="M182.6 44.5001L180.4 43.7001C180.1 43.6001 179.9 43.3001 180 43.0001C180.1 42.8001 180.2 42.7001 180.4 42.6001L182.6 41.8001C182.8 41.8001 182.9 41.6001 183 41.4001L183.8 39.2001C183.9 38.9001 184.2 38.7001 184.5 38.8001C184.6 38.9001 184.8 39.0001 184.8 39.1001L185.6 41.3001C185.6 41.5001 185.8 41.6001 186 41.7001L188.2 42.5001C188.5 42.6001 188.7 42.9001 188.6 43.2001C188.5 43.3001 188.4 43.5001 188.3 43.5001L186.1 44.3001C185.9 44.3001 185.8 44.5001 185.7 44.7001L184.9 46.9001C184.8 47.2001 184.5 47.4001 184.2 47.3001C184 47.2001 183.9 47.1001 183.8 46.9001L183.1 44.7001C182.9 44.6001 182.8 44.5001 182.6 44.5001Z" fill="white"/>
<path d="M116.9 32.9001L115.9 30.8C115.8 30.5 115.9 30.2 116.2 30C116.4 29.9 116.6 29.9 116.7 30L118.8 31C119 31.1 119.2 31.1 119.3 31L121.4 30C121.7 29.9 122 30 122.2 30.3C122.2 30.5 122.2 30.6 122.2 30.8L121.2 32.9001C121.1 33.1001 121.1 33.3001 121.2 33.4001L122.2 35.5C122.3 35.8 122.2 36.1 121.9 36.3C121.7 36.3 121.6 36.3 121.4 36.3L119.3 35.3C119.1 35.2 118.9 35.2 118.8 35.3L116.7 36.3C116.4 36.4 116.1 36.3 115.9 36C115.9 35.8 115.9 35.6 115.9 35.5L116.9 33.4001C117 33.2001 117 33.0001 116.9 32.9001Z" fill="#FFADFB"/>
<path d="M157.1 53.8C156.3 52.4 156.7 50.5 158.2 49.7C158.6 49.5 159.1 49.3 159.6 49.3C162.3 49.2 165.2 48.3 166.6 45.3C169.8 38.9 164.5 32.6 159.2 31.5C153.9 30.4 147.5 31.5 143.3 37.8C139.5 43.5 142.5 53.3 154.4 56.9C155.6 57.2 156.9 56.5 157.2 55.3C157.4 54.9 157.3 54.3 157.1 53.8Z" fill="#FFADFB"/>
<path d="M150.7 37.9001C151.859 37.9001 152.8 36.9599 152.8 35.8001C152.8 34.6403 151.859 33.7001 150.7 33.7001C149.54 33.7001 148.6 34.6403 148.6 35.8001C148.6 36.9599 149.54 37.9001 150.7 37.9001Z" fill="#FFE1FD"/>
<path d="M159.2 37.9001C160.359 37.9001 161.3 36.9599 161.3 35.8001C161.3 34.6403 160.359 33.7001 159.2 33.7001C158.04 33.7001 157.1 34.6403 157.1 35.8001C157.1 36.9599 158.04 37.9001 159.2 37.9001Z" fill="#FA6EF6"/>
<path d="M163.5 44.2C164.66 44.2 165.6 43.2598 165.6 42.1C165.6 40.9402 164.66 40 163.5 40C162.341 40 161.4 40.9402 161.4 42.1C161.4 43.2598 162.341 44.2 163.5 44.2Z" fill="#E655D4"/>
<path d="M146.5 44.2C147.66 44.2 148.6 43.2598 148.6 42.1C148.6 40.9402 147.66 40 146.5 40C145.341 40 144.4 40.9402 144.4 42.1C144.4 43.2598 145.341 44.2 146.5 44.2Z" fill="white"/>
<path d="M148.3 48.6001C147.9 48.9001 147.4 49.3001 146.9 49.8001C144.8 51.8001 143.2 54.2001 142.3 57.0001C145 55.9001 147.3 54.2001 149.2 52.0001C149.6 51.5001 150 51.0001 150.3 50.5001C149.4 50.2001 148.6 49.5001 148.3 48.6001Z" fill="white"/>
<path d="M152.4 46.6001C152.4 46.5001 152.5 46.4001 152.5 46.3001H152.4V46.2001L152.1 46.3001L151.7 46.5001C150.5 47.1001 149.4 47.8001 148.4 48.6001C148.6 49.5001 149.4 50.3001 150.4 50.4001C151.2 49.4001 151.8 48.3001 152.3 47.1001L152.4 46.6001Z" fill="#FFE1FD"/>
<path d="M156.7 42.3C156.7 42.3 151.4 43 151.3 46.3C151.3 46.9 151.8 47.5 152.4 47.5C153.8 47.5 156 46.8 156.7 42.3Z" fill="white"/>
</svg>
