<svg width="17" height="12" viewBox="0 0 17 12" fill="none" xmlns="http://www.w3.org/2000/svg">
<path fill-rule="evenodd" clip-rule="evenodd" d="M3.75 0.75C3.75 0.335786 4.08579 0 4.5 0H10.5C13.8137 0 16.5 2.68629 16.5 6C16.5 9.31371 13.8137 12 10.5 12C7.70424 12 5.35509 10.0878 4.68903 7.5H3.75C3.33579 7.5 3 7.16421 3 6.75C3 6.33579 3.33579 6 3.75 6H4.5H5.25C5.66421 6 6 5.66421 6 5.25C6 4.83579 5.66421 4.5 5.25 4.5L4.68903 4.5L3.75 4.5L3.74915 4.5H3.375C2.96079 4.5 2.625 4.16421 2.625 3.75C2.625 3.33579 2.96079 3 3.375 3H5.30269L6.75 3C7.16421 3 7.5 2.66421 7.5 2.25C7.5 1.83579 7.16421 1.5 6.75 1.5L6.53126 1.5L4.5 1.5C4.08579 1.5 3.75 1.16421 3.75 0.75ZM1.125 4.5C1.53921 4.5 1.875 4.16421 1.875 3.75C1.875 3.33579 1.53921 3 1.125 3H0.75C0.335786 3 0 3.33579 0 3.75C0 4.16421 0.335786 4.5 0.75 4.5H1.125Z" fill="#5865F2"/>
<path fill-rule="evenodd" clip-rule="evenodd" d="M14.2803 3.71967C14.5732 4.01256 14.5732 4.48744 14.2803 4.78033L10.2803 8.78033C9.98744 9.07322 9.51256 9.07322 9.21967 8.78033L7.21967 6.78033C6.92678 6.48744 6.92678 6.01256 7.21967 5.71967C7.51256 5.42678 7.98744 5.42678 8.28033 5.71967L9.75 7.18934L13.2197 3.71967C13.5126 3.42678 13.9874 3.42678 14.2803 3.71967Z" fill="white"/>
</svg>
