<svg width="285" height="126" viewBox="0 0 285 126" fill="none" xmlns="http://www.w3.org/2000/svg">
<g clip-path="url(#clip0_606_24069)">
<path d="M285 0H0V128H285V0Z" fill="#B400C4"/>
<path d="M263.07 11.3301H215.18C214.225 11.3301 213.45 12.1046 213.45 13.0601V33.4201C213.45 34.3755 214.225 35.1501 215.18 35.1501H263.07C264.026 35.1501 264.8 34.3755 264.8 33.4201V13.0601C264.8 12.1046 264.026 11.3301 263.07 11.3301Z" fill="#EBA3DB"/>
<path d="M208.01 11.3301H160.12C159.165 11.3301 158.39 12.1046 158.39 13.0601V33.4201C158.39 34.3755 159.165 35.1501 160.12 35.1501H208.01C208.966 35.1501 209.74 34.3755 209.74 33.4201V13.0601C209.74 12.1046 208.966 11.3301 208.01 11.3301Z" fill="#EBA3DB"/>
<path d="M152.95 11.3301H105.06C104.105 11.3301 103.33 12.1046 103.33 13.0601V33.4201C103.33 34.3755 104.105 35.1501 105.06 35.1501H152.95C153.906 35.1501 154.68 34.3755 154.68 33.4201V13.0601C154.68 12.1046 153.906 11.3301 152.95 11.3301Z" fill="#EBA3DB"/>
<path d="M97.8998 11.3301H50.0098C49.0543 11.3301 48.2798 12.1046 48.2798 13.0601V33.4201C48.2798 34.3755 49.0543 35.1501 50.0098 35.1501H97.8998C98.8552 35.1501 99.6298 34.3755 99.6298 33.4201V13.0601C99.6298 12.1046 98.8552 11.3301 97.8998 11.3301Z" fill="#EBA3DB"/>
<path d="M44.57 13.0701V33.4201C44.57 34.3801 43.79 35.1601 42.83 35.1601H0V11.3301H42.84C43.32 11.3301 43.75 11.5201 44.06 11.8401C44.22 12.0001 44.34 12.1801 44.43 12.3901C44.52 12.6001 44.57 12.8301 44.57 13.0701Z" fill="#EBA3DB"/>
<path d="M180.48 38.8604H160.12C159.165 38.8604 158.39 39.6349 158.39 40.5904V60.9504C158.39 61.9058 159.165 62.6804 160.12 62.6804H180.48C181.436 62.6804 182.21 61.9058 182.21 60.9504V40.5904C182.21 39.6349 181.436 38.8604 180.48 38.8604Z" fill="#EBA3DB"/>
<path d="M152.94 38.8604H105.07C104.109 38.8604 103.33 39.6394 103.33 40.6003V60.9403C103.33 61.9013 104.109 62.6804 105.07 62.6804H152.94C153.901 62.6804 154.68 61.9013 154.68 60.9403V40.6003C154.68 39.6394 153.901 38.8604 152.94 38.8604Z" fill="#EBA3DB"/>
<path d="M97.9 38.8604H22.48C21.5245 38.8604 20.75 39.6349 20.75 40.5904V88.4804C20.75 89.4358 21.5245 90.2104 22.48 90.2104H97.9C98.8555 90.2104 99.63 89.4358 99.63 88.4804V40.5904C99.63 39.6349 98.8555 38.8604 97.9 38.8604Z" fill="#EBA3DB"/>
<path d="M17.04 40.6104V116C17.04 116.96 16.27 117.74 15.31 117.74H0V38.8604H15.31C15.43 38.8604 15.55 38.8704 15.66 38.9004C15.77 38.9304 15.88 38.9604 15.99 39.0004C16.2 39.0904 16.38 39.2204 16.54 39.3804C16.85 39.7004 17.04 40.1304 17.04 40.6104Z" fill="#EBA3DB"/>
<path d="M285 11.3301V62.6801H270.24C269.28 62.6801 268.51 61.9101 268.51 60.9501V13.0701C268.51 12.1101 269.28 11.3301 270.24 11.3301H285Z" fill="#EBA3DB"/>
<path d="M263.07 93.8604H187.65C186.694 93.8604 185.92 94.6349 185.92 95.5903V116C185.92 116.956 186.694 117.73 187.65 117.73H263.07C264.025 117.73 264.8 116.956 264.8 116V95.5903C264.8 94.6349 264.025 93.8604 263.07 93.8604Z" fill="#EBA3DB"/>
<path d="M152.95 93.9102H105.06C104.105 93.9102 103.33 94.6847 103.33 95.6402V116C103.33 116.956 104.105 117.73 105.06 117.73H152.95C153.906 117.73 154.68 116.956 154.68 116V95.6402C154.68 94.6847 153.906 93.9102 152.95 93.9102Z" fill="#EBA3DB"/>
<path d="M97.9001 93.9102H77.5401C76.5846 93.9102 75.8101 94.6847 75.8101 95.6402V116C75.8101 116.956 76.5846 117.73 77.5401 117.73H97.9001C98.8555 117.73 99.6301 116.956 99.6301 116V95.6402C99.6301 94.6847 98.8555 93.9102 97.9001 93.9102Z" fill="#EBA3DB"/>
<path d="M70.3698 93.9102H50.0098C49.0543 93.9102 48.2798 94.6847 48.2798 95.6402V116C48.2798 116.956 49.0543 117.73 50.0098 117.73H70.3698C71.3252 117.73 72.0998 116.956 72.0998 116V95.6402C72.0998 94.6847 71.3252 93.9102 70.3698 93.9102Z" fill="#EBA3DB"/>
<path d="M42.84 93.9102H22.48C21.5245 93.9102 20.75 94.6847 20.75 95.6402V116C20.75 116.956 21.5245 117.73 22.48 117.73H42.84C43.7955 117.73 44.57 116.956 44.57 116V95.6402C44.57 94.6847 43.7955 93.9102 42.84 93.9102Z" fill="#EBA3DB"/>
<path d="M285 66.3896V117.74H270.24C269.28 117.74 268.51 116.96 268.51 116V68.1197C268.51 67.1597 269.28 66.3896 270.24 66.3896H285Z" fill="#EBA3DB"/>
<path d="M263.07 38.8604H187.65C186.694 38.8604 185.92 39.6349 185.92 40.5904V88.4804C185.92 89.4358 186.694 90.2104 187.65 90.2104H263.07C264.025 90.2104 264.8 89.4358 264.8 88.4804V40.5904C264.8 39.6349 264.025 38.8604 263.07 38.8604Z" fill="#EBA3DB"/>
<path d="M180.49 66.3896H160.13C159.174 66.3896 158.4 67.1642 158.4 68.1197V116.01C158.4 116.965 159.174 117.74 160.13 117.74H180.49C181.445 117.74 182.22 116.965 182.22 116.01V68.1197C182.22 67.1642 181.445 66.3896 180.49 66.3896Z" fill="#EBA3DB"/>
<path d="M152.94 66.3896H105.07C104.109 66.3896 103.33 67.1687 103.33 68.1296V88.4697C103.33 89.4306 104.109 90.2096 105.07 90.2096H152.94C153.901 90.2096 154.68 89.4306 154.68 88.4697V68.1296C154.68 67.1687 153.901 66.3896 152.94 66.3896Z" fill="#EBA3DB"/>
<path d="M160.13 38.8604H180.48C181.44 38.8604 182.22 39.6403 182.22 40.6003V43.0303H158.4V40.6003C158.4 39.6403 159.18 38.8703 160.13 38.8703V38.8604Z" fill="#CF72E0"/>
<path d="M77.5401 93.9102H97.8901C98.8501 93.9102 99.6301 94.6902 99.6301 95.6502V98.0802H75.8101V95.6502C75.8101 94.6902 76.5901 93.9202 77.5401 93.9202V93.9102Z" fill="#CF72E0"/>
<path d="M50.0098 93.9102H70.3598C71.3198 93.9102 72.0998 94.6902 72.0998 95.6502V98.0802H48.2798V95.6502C48.2798 94.6902 49.0598 93.9202 50.0098 93.9202V93.9102Z" fill="#CF72E0"/>
<path d="M22.48 93.9102H42.83C43.79 93.9102 44.57 94.6902 44.57 95.6502V98.0802H20.75V95.6502C20.75 94.6902 21.53 93.9102 22.49 93.9102H22.48Z" fill="#CF72E0"/>
<path d="M17.04 40.6101V43.0401H0V38.8701H15.31C15.43 38.8701 15.55 38.8701 15.66 38.9001C15.77 38.9301 15.88 38.9601 15.99 39.0001C16.2 39.0901 16.38 39.2201 16.54 39.3801C16.85 39.7001 17.04 40.1301 17.04 40.6101Z" fill="#CF72E0"/>
<path d="M160.13 66.3896H180.48C181.44 66.3896 182.22 67.1696 182.22 68.1296V70.5596H158.4V68.1296C158.4 67.1696 159.18 66.3997 160.13 66.3997V66.3896Z" fill="#CF72E0"/>
<path d="M160.13 11.3301H208.01C208.97 11.3301 209.75 12.1101 209.75 13.0701V15.5001H158.4V13.0701C158.4 12.1101 159.18 11.3401 160.13 11.3401V11.3301Z" fill="#CF72E0"/>
<path d="M105.07 11.3301H152.95C153.91 11.3301 154.69 12.1101 154.69 13.0701V15.5001H103.34V13.0701C103.34 12.1101 104.12 11.3401 105.07 11.3401V11.3301Z" fill="#CF72E0"/>
<path d="M50.0098 11.3604H97.8898C98.8498 11.3604 99.6298 12.1404 99.6298 13.1004V15.5304H48.2798V13.1004C48.2798 12.1404 49.0598 11.3704 50.0098 11.3704V11.3604Z" fill="#CF72E0"/>
<path d="M44.57 13.0701V15.5001H0V11.3301H42.84C43.32 11.3301 43.75 11.5201 44.06 11.8401C44.22 12.0001 44.35 12.1801 44.43 12.3901C44.52 12.6001 44.57 12.8301 44.57 13.0701Z" fill="#CF72E0"/>
<path d="M105.07 38.8604H152.95C153.91 38.8604 154.69 39.6403 154.69 40.6003V43.0303H103.34V40.6003C103.34 39.6403 104.12 38.8703 105.07 38.8703V38.8604Z" fill="#CF72E0"/>
<path d="M105.07 66.3896H152.95C153.91 66.3896 154.69 67.1696 154.69 68.1296V70.5596H103.34V68.1296C103.34 67.1696 104.12 66.3997 105.07 66.3997V66.3896Z" fill="#CF72E0"/>
<path d="M105.07 93.9102H152.95C153.91 93.9102 154.69 94.6902 154.69 95.6502V98.0802H103.34V95.6502C103.34 94.6902 104.12 93.9202 105.07 93.9202V93.9102Z" fill="#CF72E0"/>
<path d="M215.18 11.3301H263.06C264.02 11.3301 264.8 12.1101 264.8 13.0701V15.5001H213.45V13.0701C213.45 12.1101 214.23 11.3401 215.18 11.3401V11.3301Z" fill="#CF72E0"/>
<path d="M285 11.3301V15.5001H268.51V13.0701C268.51 12.1101 269.28 11.3301 270.24 11.3301H285Z" fill="#CF72E0"/>
<path d="M285 66.3896V70.5497H268.51V68.1197C268.51 67.1597 269.28 66.3896 270.24 66.3896H285Z" fill="#CF72E0"/>
<path d="M187.66 38.8604H263.07C264.03 38.8604 264.81 39.6403 264.81 40.6003V43.0303H185.93V40.6003C185.93 39.6403 186.71 38.8703 187.66 38.8703V38.8604Z" fill="#CF72E0"/>
<path d="M22.49 38.8701H97.9C98.86 38.8701 99.64 39.6501 99.64 40.6101V43.0401H20.75V40.6101C20.75 39.6501 21.53 38.8801 22.48 38.8801L22.49 38.8701Z" fill="#CF72E0"/>
<path d="M187.66 93.8604H263.07C264.03 93.8604 264.81 94.6403 264.81 95.6003V98.0303H185.93V95.6003C185.93 94.6403 186.71 93.8704 187.66 93.8704V93.8604Z" fill="#CF72E0"/>
<path d="M42.3902 14.4698C42.9093 14.4698 43.3302 14.049 43.3302 13.5298C43.3302 13.0107 42.9093 12.5898 42.3902 12.5898C41.871 12.5898 41.4502 13.0107 41.4502 13.5298C41.4502 14.049 41.871 14.4698 42.3902 14.4698Z" fill="#C11CD4"/>
<path d="M97.4502 14.4503C97.9694 14.4503 98.3903 14.0295 98.3903 13.5103C98.3903 12.9912 97.9694 12.5703 97.4502 12.5703C96.9311 12.5703 96.5103 12.9912 96.5103 13.5103C96.5103 14.0295 96.9311 14.4503 97.4502 14.4503Z" fill="#C11CD4"/>
<path d="M152.51 14.4503C153.029 14.4503 153.45 14.0295 153.45 13.5103C153.45 12.9912 153.029 12.5703 152.51 12.5703C151.991 12.5703 151.57 12.9912 151.57 13.5103C151.57 14.0295 151.991 14.4503 152.51 14.4503Z" fill="#C11CD4"/>
<path d="M207.57 14.4503C208.09 14.4503 208.51 14.0295 208.51 13.5103C208.51 12.9912 208.09 12.5703 207.57 12.5703C207.051 12.5703 206.63 12.9912 206.63 13.5103C206.63 14.0295 207.051 14.4503 207.57 14.4503Z" fill="#C11CD4"/>
<path d="M262.63 14.4503C263.15 14.4503 263.57 14.0295 263.57 13.5103C263.57 12.9912 263.15 12.5703 262.63 12.5703C262.111 12.5703 261.69 12.9912 261.69 13.5103C261.69 14.0295 262.111 14.4503 262.63 14.4503Z" fill="#C11CD4"/>
<path d="M262.63 41.9698C263.15 41.9698 263.57 41.549 263.57 41.0298C263.57 40.5107 263.15 40.0898 262.63 40.0898C262.111 40.0898 261.69 40.5107 261.69 41.0298C261.69 41.549 262.111 41.9698 262.63 41.9698Z" fill="#C11CD4"/>
<path d="M262.63 96.9806C263.15 96.9806 263.57 96.5597 263.57 96.0406C263.57 95.5214 263.15 95.1006 262.63 95.1006C262.111 95.1006 261.69 95.5214 261.69 96.0406C261.69 96.5597 262.111 96.9806 262.63 96.9806Z" fill="#C11CD4"/>
<path d="M180.04 69.5001C180.559 69.5001 180.98 69.0793 180.98 68.5601C180.98 68.041 180.559 67.6201 180.04 67.6201C179.521 67.6201 179.1 68.041 179.1 68.5601C179.1 69.0793 179.521 69.5001 180.04 69.5001Z" fill="#C11CD4"/>
<path d="M152.51 69.5001C153.029 69.5001 153.45 69.0793 153.45 68.5601C153.45 68.041 153.029 67.6201 152.51 67.6201C151.991 67.6201 151.57 68.041 151.57 68.5601C151.57 69.0793 151.991 69.5001 152.51 69.5001Z" fill="#C11CD4"/>
<path d="M152.51 97.0304C153.029 97.0304 153.45 96.6095 153.45 96.0904C153.45 95.5712 153.029 95.1504 152.51 95.1504C151.991 95.1504 151.57 95.5712 151.57 96.0904C151.57 96.6095 151.991 97.0304 152.51 97.0304Z" fill="#C11CD4"/>
<path d="M97.46 97.0304C97.9792 97.0304 98.4 96.6095 98.4 96.0904C98.4 95.5712 97.9792 95.1504 97.46 95.1504C96.9409 95.1504 96.52 95.5712 96.52 96.0904C96.52 96.6095 96.9409 97.0304 97.46 97.0304Z" fill="#C11CD4"/>
<path d="M97.46 41.9698C97.9792 41.9698 98.4 41.549 98.4 41.0298C98.4 40.5107 97.9792 40.0898 97.46 40.0898C96.9409 40.0898 96.52 40.5107 96.52 41.0298C96.52 41.549 96.9409 41.9698 97.46 41.9698Z" fill="#C11CD4"/>
<path d="M152.42 41.9698C152.939 41.9698 153.36 41.549 153.36 41.0298C153.36 40.5107 152.939 40.0898 152.42 40.0898C151.901 40.0898 151.48 40.5107 151.48 41.0298C151.48 41.549 151.901 41.9698 152.42 41.9698Z" fill="#C11CD4"/>
<path d="M180.04 41.9698C180.559 41.9698 180.98 41.549 180.98 41.0298C180.98 40.5107 180.559 40.0898 180.04 40.0898C179.521 40.0898 179.1 40.5107 179.1 41.0298C179.1 41.549 179.521 41.9698 180.04 41.9698Z" fill="#C11CD4"/>
<path d="M14.8702 41.9698C15.3893 41.9698 15.8102 41.549 15.8102 41.0298C15.8102 40.5107 15.3893 40.0898 14.8702 40.0898C14.351 40.0898 13.9302 40.5107 13.9302 41.0298C13.9302 41.549 14.351 41.9698 14.8702 41.9698Z" fill="#C11CD4"/>
<path d="M69.8604 97.0304C70.3796 97.0304 70.8004 96.6095 70.8004 96.0904C70.8004 95.5712 70.3796 95.1504 69.8604 95.1504C69.3413 95.1504 68.9204 95.5712 68.9204 96.0904C68.9204 96.6095 69.3413 97.0304 69.8604 97.0304Z" fill="#C11CD4"/>
<path d="M42.4 97.0304C42.9191 97.0304 43.34 96.6095 43.34 96.0904C43.34 95.5712 42.9191 95.1504 42.4 95.1504C41.8808 95.1504 41.46 95.5712 41.46 96.0904C41.46 96.6095 41.8808 97.0304 42.4 97.0304Z" fill="#C11CD4"/>
<path d="M137.49 84.9396C136.75 85.4296 136.12 85.7796 135.67 85.8996C135.21 86.0196 134.56 85.8796 133.85 85.6096C131.72 84.7796 129.01 82.7396 129.01 82.7396C129.01 82.7396 124.18 86.3896 122.35 85.8996C121.84 85.7596 121.08 85.3296 120.21 84.7196C119.46 84.1896 118.62 83.5296 117.76 82.7996C114.05 79.6496 109.96 75.2096 111.11 74.9096C112.16 74.6396 116.64 75.9496 120.85 77.3296C122.71 77.9396 124.53 78.5596 125.97 79.0596C127.79 79.6996 129.02 80.1396 129.02 80.1396C129.02 80.1396 131.82 79.1196 135.22 77.9796C137.4 77.2396 139.83 76.4596 141.93 75.8596C144.32 75.1796 146.27 74.7496 146.91 74.9096C148.37 75.2896 141.42 82.2996 137.48 84.9496L137.49 84.9396Z" fill="#CF72E0"/>
<path d="M137.49 84.9394C136.75 85.4294 136.12 85.7794 135.67 85.8994C135.21 86.0194 134.56 85.8794 133.85 85.6094C136.8 81.4294 136.8 78.4594 135.22 77.9794C137.4 77.2394 139.83 76.4594 141.93 75.8594C140.51 77.3394 138.7 79.3794 137.5 84.9494L137.49 84.9394Z" fill="#FFE4FF"/>
<path d="M125.96 79.0601C123.94 79.2101 121.24 82.0801 120.2 84.7201C119.45 84.1901 118.61 83.5301 117.75 82.8001C120.5 81.3101 121.87 78.6701 120.84 77.3301C122.7 77.9401 124.52 78.5601 125.96 79.0601Z" fill="#FFE4FF"/>
<path d="M39.0396 112.01C39.0396 113.52 37.8196 114.74 36.3096 114.74C34.7996 114.74 33.5796 113.52 33.5796 112.01C33.5796 110.19 35.3396 107.91 36.0296 107.08C36.1696 106.91 36.4396 106.91 36.5796 107.08C37.2696 107.91 39.0296 110.19 39.0296 112.01H39.0396Z" fill="#FFE4FF"/>
<path d="M35.9598 110.72C35.4598 111.36 34.5498 110.82 34.8598 109.87C35.0998 109.14 35.9798 107.95 36.1498 108.04C36.3198 108.13 36.4598 110.08 35.9598 110.71V110.72Z" fill="white"/>
<path d="M30.8998 111.359C30.8998 112.639 29.8698 113.669 28.5898 113.669C27.3098 113.669 26.2798 112.639 26.2798 111.359C26.2798 109.819 27.7698 107.879 28.3598 107.179C28.4798 107.029 28.6998 107.029 28.8298 107.179C29.4198 107.879 30.9098 109.819 30.9098 111.359H30.8998Z" fill="#FFE4FF"/>
<path d="M28.2897 110.279C27.8697 110.819 27.0897 110.369 27.3597 109.559C27.5697 108.939 28.3097 107.929 28.4497 108.009C28.5897 108.089 28.7097 109.729 28.2897 110.279Z" fill="white"/>
<path d="M34.22 104.449C34.22 105.479 33.39 106.309 32.36 106.309C31.33 106.309 30.5 105.479 30.5 104.449C30.5 103.199 31.7 101.639 32.18 101.079C32.28 100.959 32.46 100.959 32.56 101.079C33.03 101.649 34.24 103.209 34.24 104.449H34.22Z" fill="#FFE4FF"/>
<path d="M32.11 103.579C31.77 104.019 31.14 103.649 31.36 102.999C31.53 102.499 32.13 101.689 32.24 101.749C32.35 101.809 32.45 103.139 32.11 103.579Z" fill="white"/>
<path d="M60.7004 49.21C44.5304 49.21 31.4204 62.32 31.4204 78.49C31.4204 79.91 31.5204 81.31 31.7204 82.67H48.3004C47.8604 81.36 47.6204 79.95 47.6204 78.49C47.6204 71.26 53.4804 65.41 60.7004 65.41C67.9204 65.41 73.7804 71.27 73.7804 78.49C73.7804 79.95 73.5404 81.36 73.1004 82.67H89.6804C89.8804 81.31 89.9804 79.91 89.9804 78.49C89.9804 62.32 76.8704 49.21 60.7004 49.21Z" fill="#FFE4FF"/>
<path d="M60.7002 53.2598C46.7702 53.2598 35.4702 64.5598 35.4702 78.4898C35.4702 79.9198 35.5902 81.3098 35.8202 82.6698H48.3002C47.8602 81.3598 47.6202 79.9498 47.6202 78.4898C47.6202 71.2598 53.4802 65.4098 60.7002 65.4098C67.9202 65.4098 73.7802 71.2698 73.7802 78.4898C73.7802 79.9498 73.5402 81.3598 73.1002 82.6698H85.5802C85.8102 81.3098 85.9302 79.9198 85.9302 78.4898C85.9302 64.5598 74.6302 53.2598 60.7002 53.2598Z" fill="#EBA3DB"/>
<path d="M60.7005 57.3096C49.0005 57.3096 39.5205 66.7896 39.5205 78.4896C39.5205 79.9196 39.6605 81.3196 39.9305 82.6696H48.3005C47.8605 81.3596 47.6205 79.9496 47.6205 78.4896C47.6205 71.2596 53.4805 65.4096 60.7005 65.4096C67.9205 65.4096 73.7805 71.2696 73.7805 78.4896C73.7805 79.9496 73.5405 81.3596 73.1005 82.6696H81.4705C81.7405 81.3196 81.8805 79.9196 81.8805 78.4896C81.8805 66.7896 72.4005 57.3096 60.7005 57.3096Z" fill="#CF72E0"/>
<path d="M60.7003 61.3604C51.2403 61.3604 43.5703 69.0303 43.5703 78.4903C43.5703 79.9303 43.7503 81.3303 44.0903 82.6703H48.3103C47.8703 81.3603 47.6303 79.9503 47.6303 78.4903C47.6303 71.2603 53.4903 65.4104 60.7103 65.4104C67.9303 65.4104 73.7903 71.2703 73.7903 78.4903C73.7903 79.9503 73.5503 81.3603 73.1103 82.6703H77.3303C77.6703 81.3303 77.8503 79.9303 77.8503 78.4903C77.8503 69.0303 70.1803 61.3604 60.7203 61.3604H60.7003Z" fill="#C11CD4"/>
<path d="M68.3003 84.5794C68.6403 78.3994 74.1103 76.1094 77.6203 78.5794C80.8403 72.6094 87.2403 74.0294 89.2803 78.9894C92.8903 78.5494 95.2803 80.8394 94.9403 84.5894H68.3003V84.5794Z" fill="white"/>
<path d="M53.7502 84.5798C53.7502 79.0298 49.1102 76.4998 45.3102 78.7898C42.3302 73.1298 35.3602 73.3198 32.8702 78.6898C28.7702 78.0598 26.4302 80.5798 26.4302 84.5798H53.7602H53.7502Z" fill="white"/>
<path d="M172.07 105.18C171.83 105.18 171.64 104.97 171.65 104.74C171.65 104.61 172.04 91.2901 176.41 82.5201C176.52 82.3101 176.78 82.2201 176.99 82.3201C177.2 82.4301 177.29 82.6902 177.19 82.9002C172.91 91.5002 172.53 104.63 172.52 104.76C172.52 105 172.32 105.19 172.08 105.18H172.07Z" fill="#C11CD4"/>
<path d="M171.38 104.12C171.38 104.12 171.37 104.12 171.36 104.12C171.12 104.1 170.94 103.9 170.96 103.66C170.96 103.51 171.91 88.6297 169.4 76.6397C169.35 76.4097 169.5 76.1797 169.74 76.1297C169.97 76.0797 170.2 76.2297 170.25 76.4697C172.78 88.5797 171.84 103.58 171.83 103.73C171.81 103.96 171.62 104.14 171.39 104.14L171.38 104.12Z" fill="#C11CD4"/>
<path d="M178.44 82.6496C177.1 85.0096 176.17 87.6396 175.7 90.3096C175.36 92.3396 172.41 91.9196 172.66 89.8796C172.91 88.3296 173.32 86.8296 173.85 85.3496C174.36 83.8796 175.01 82.4696 175.78 81.1096C176.84 79.3496 179.43 80.8396 178.44 82.6496Z" fill="#FFE4FF"/>
<path d="M171.32 76.1897C172.01 79.1997 172.42 82.2097 172.61 85.2997C172.66 87.3297 169.71 87.4897 169.54 85.4597C169.37 82.5897 168.97 79.6797 168.33 76.8697C167.94 74.8797 170.81 74.2197 171.32 76.1897Z" fill="#FFE4FF"/>
<path d="M169.44 105.54C168.83 95.7001 165.38 93.2501 162.27 91.8301C166.06 97.6801 169.44 105.54 169.44 105.54Z" fill="#FFE4FF"/>
<path d="M169.11 106.66C171.41 99.9601 169.23 88.4001 164.86 84.6201C168.23 94.7801 169.11 106.66 169.11 106.66Z" fill="#FFE4FF"/>
<path d="M170.77 102C166.09 102 162.29 104.37 162.29 107.3C162.29 110.23 166.09 112.6 170.77 112.6C172.39 112.6 173.9 112.32 175.18 111.83L173.15 108.08C173.15 108.08 175.31 109.01 177.4 110.61C178.56 109.7 179.25 108.56 179.25 107.31C179.25 104.38 175.45 102.01 170.77 102.01V102Z" fill="#CF72E0"/>
<path d="M170.2 106.42C170.24 106.66 170.07 106.89 169.83 106.93C169.79 106.93 165.76 107.62 163.68 110.21C163.45 110 163.25 109.77 163.08 109.53C165.4 106.78 169.51 106.08 169.69 106.05C169.93 106.01 170.16 106.18 170.2 106.42Z" fill="#C11CD4"/>
<path d="M206.06 109.859C206.06 109.859 199.38 110.309 198.57 112.929C197.76 115.549 201.93 114.249 204.8 113.879C209.99 113.199 214.37 113.379 214.37 113.379L206.06 109.859Z" fill="#CF72E0"/>
<path d="M208.86 104.069C208.86 104.069 213.82 105.519 216.9 104.479C219.98 103.439 219.84 101.199 218.65 100.699C217.46 100.199 215.9 100.929 212.95 102.459C210.27 103.849 208.86 104.069 208.86 104.069Z" fill="#C11CD4"/>
<path d="M237.75 106.029C243.66 106.619 249.58 104.719 250.71 105.759C251.67 106.649 251.12 108.289 248.59 109.059C246.06 109.829 238.57 111.139 234.1 110.139L237.76 106.029H237.75Z" fill="#CF72E0"/>
<path d="M252.29 109.82C251.97 108.48 250.19 108.33 246.54 108.31C243.67 108.29 238.45 107.56 238.45 107.56C245.87 105.85 247.28 103.81 247.19 102.86C246.95 100.32 235.7 105.76 225.07 105.43C211.89 105.02 205.12 101.77 202.09 104.26C200.34 105.7 199.68 108.97 206.02 110.85C206.52 111 207.09 111.14 207.7 111.27C204.5 112.16 202.84 113.77 203.45 114.78C204.22 116.04 207.15 115.59 210.22 114.73C213.29 113.87 219.84 113.47 226.38 114.14C231.25 114.64 239.56 114.82 245.03 113.73C250.49 112.65 252.7 111.52 252.3 109.8L252.29 109.82Z" fill="#FFE4FF"/>
<path d="M211.28 105.89C210.66 106.67 214.8 109.5 219.04 110.06C222.27 110.49 223.87 108.32 222.35 106.61C221.72 105.9 220.61 105.51 218.19 105.91C213.28 106.73 211.64 105.43 211.28 105.89Z" fill="#C11CD4"/>
<path d="M207.467 105.81C207.734 105.569 207.815 105.224 207.648 105.04C207.482 104.855 207.131 104.901 206.864 105.142C206.598 105.382 206.517 105.727 206.683 105.911C206.85 106.096 207.201 106.05 207.467 105.81Z" fill="#C11CD4"/>
<path d="M204.28 105.899C203.5 106.799 202.02 107.349 200.95 107.149C200.68 105.999 201.27 104.929 202.08 104.259C202.28 104.099 202.49 103.959 202.73 103.839C203.09 103.779 203.45 103.779 203.76 103.839C204.83 104.059 205.07 104.979 204.28 105.889V105.899Z" fill="#C11CD4"/>
<path d="M206.65 108.309C205.84 109.149 204.45 109.599 203.14 109.669C202.56 109.329 202.11 108.969 201.76 108.609C203.05 108.879 205.04 108.559 205.94 107.629C206.13 107.429 206.44 107.429 206.63 107.619C206.82 107.809 206.83 108.119 206.64 108.309H206.65Z" fill="#C11CD4"/>
<path d="M226.8 107.2C225.11 106.85 223.93 105.95 223.87 105.4C224.26 105.42 224.66 105.43 225.06 105.45C227.74 105.53 230.47 105.25 233.04 104.81C234.09 106.9 229.81 107.82 226.8 107.2Z" fill="#CF72E0"/>
<path d="M90.9499 100.249C89.5499 99.3991 88.3599 101.119 88.3599 103.979L93.1999 106.659C93.1999 106.659 93.5499 101.829 90.9499 100.249Z" fill="#CF72E0"/>
<path d="M90.8002 101.449C90.0402 100.789 89.4102 102.489 89.4102 104.249L92.0702 105.839C92.0702 105.839 92.1202 102.619 90.7902 101.459L90.8002 101.449Z" fill="#C11CD4"/>
<path d="M84.5402 100.249C85.9402 99.3991 87.1302 101.119 87.1302 103.979L82.2902 106.659C82.2902 106.659 81.9402 101.829 84.5402 100.249Z" fill="#CF72E0"/>
<path d="M84.6799 101.449C85.4399 100.789 86.0699 102.489 86.0699 104.249L83.4099 105.839C83.4099 105.839 83.3599 102.619 84.6899 101.459L84.6799 101.449Z" fill="#C11CD4"/>
<path d="M87.7199 103.539C84.9199 103.539 80.6999 106.399 80.7799 110.059C80.8599 113.419 83.9099 115.699 87.7199 115.699C91.5299 115.699 94.5799 113.419 94.6599 110.059C94.7499 106.399 90.5199 103.539 87.7199 103.539Z" fill="#FFE4FF"/>
<path d="M87.7197 113.729C88.1339 113.729 88.4697 113.483 88.4697 113.179C88.4697 112.875 88.1339 112.629 87.7197 112.629C87.3055 112.629 86.9697 112.875 86.9697 113.179C86.9697 113.483 87.3055 113.729 87.7197 113.729Z" fill="#C11CD4"/>
<path d="M94.6499 110.06C94.6499 110.32 94.6199 110.58 94.5799 110.83C93.8199 110.67 92.6899 110.32 92.6899 109.62C92.6899 108.92 93.6799 108.64 94.4299 108.52C94.5799 109.01 94.6599 109.53 94.6499 110.06Z" fill="#CF72E0"/>
<path d="M94.04 112.419C93.7 113.049 93.24 113.599 92.67 114.069C92.23 113.509 91.85 112.819 92.18 112.389C92.56 111.899 93.38 112.129 94.04 112.419Z" fill="#CF72E0"/>
<path d="M89.27 109.319C88.7 109.319 88.11 109.119 87.72 108.619C87.33 109.119 86.74 109.319 86.17 109.319C85.65 109.319 84.43 109.079 84.25 106.869C84.23 106.619 84.42 106.399 84.67 106.379C84.92 106.359 85.14 106.549 85.16 106.799C85.22 107.539 85.45 108.409 86.17 108.409C86.89 108.409 87.26 107.969 87.26 107.069C87.26 106.819 87.46 106.609 87.72 106.609C87.98 106.609 88.18 106.809 88.18 107.069C88.18 107.969 88.54 108.409 89.27 108.409C90 108.409 90.22 107.529 90.28 106.799C90.3 106.549 90.52 106.359 90.77 106.379C91.02 106.399 91.21 106.619 91.19 106.869C91.01 109.079 89.78 109.319 89.27 109.319Z" fill="#C11CD4"/>
<path d="M82.7399 109.609C82.7399 110.309 81.6199 110.659 80.8599 110.819C80.8199 110.569 80.7899 110.319 80.7899 110.049C80.7799 109.519 80.8599 108.999 81.0099 108.509C81.7599 108.629 82.7499 108.929 82.7499 109.609H82.7399Z" fill="#CF72E0"/>
<path d="M82.7699 114.059C82.1999 113.589 81.7399 113.039 81.3999 112.409C82.0599 112.119 82.8799 111.889 83.2599 112.379C83.5899 112.809 83.2099 113.499 82.7699 114.059Z" fill="#CF72E0"/>
<path d="M87.7199 111.259C89.2663 111.259 90.5199 110.547 90.5199 109.669C90.5199 108.791 89.2663 108.079 87.7199 108.079C86.1735 108.079 84.9199 108.791 84.9199 109.669C84.9199 110.547 86.1735 111.259 87.7199 111.259Z" fill="#EBA3DB"/>
<path d="M38.58 24.5892C36.92 22.4392 28.21 20.9492 18.9 20.9492C10.59 20.9492 2.78 22.1292 0 23.9092V26.7692C2.59 28.4292 9.63 29.6992 18.9 29.6992C31.96 29.6992 40.59 27.1792 38.58 24.5892ZM6.24 24.2192C7.3 23.4092 12.69 22.8492 18.45 22.8492C24.21 22.8492 29.6 23.4092 30.65 24.2192C31.93 25.1992 26.59 26.1592 18.45 26.1592C10.31 26.1592 4.96 25.1992 6.24 24.2192Z" fill="#FFE4FF"/>
<path d="M17.4499 27.7491C17.6499 27.5191 20.2199 27.5891 22.6599 27.3891C31.4499 26.6791 32.2099 25.6491 32.5899 25.2191C33.2599 24.4591 31.9499 23.8491 33.3999 24.0891C34.8499 24.3291 36.7299 25.5691 33.9299 26.5491C31.7999 27.2891 27.8199 28.1691 20.7099 28.1491C18.9799 28.1491 17.2499 27.9891 17.4499 27.7491Z" fill="white"/>
<path d="M13.08 76.3198V105.86C13.08 108.61 10.62 109.85 5.15 109.85C2.96 109.85 1.26 109.65 0 109.23V73.2698C1.19 72.9398 2.86 72.7598 5.15 72.7598C7.89 72.7598 9.74 73.0198 10.96 73.4798C12.58 74.0998 13.08 75.0798 13.08 76.3198Z" fill="#FFE4FF"/>
<path d="M10.96 54.4196V74.9096C10.96 76.0996 8.35 77.0596 5.15 77.0596C2.91 77.0596 0.97 76.5896 0 75.8996V57.8796C0.56 56.6496 1.56 55.4096 3.24 54.0096C3.28 53.9796 3.31 53.9496 3.34 53.9096C3.78 53.5496 4.27 53.1696 4.82 52.7796C5.23 52.4796 5.61 52.2296 5.97 51.9996C6 51.9796 6.03 51.9696 6.06 51.9496C9.76 49.6896 10.96 51.2596 10.96 54.4196Z" fill="#CF72E0"/>
<path d="M6.48994 56.0599C8.63994 54.3599 9.95994 52.2999 9.31994 51.4999C8.67994 50.6999 6.33994 51.4699 4.19994 53.1699C2.04994 54.8699 0.579937 57.0799 1.20994 57.8799C1.83994 58.6799 4.33994 57.7599 6.48994 56.0599Z" fill="#C11CD4"/>
<path d="M5.15 79.1699C3.19 79.6699 1.34 79.6599 0 78.9999V77.6299C1.3 78.1299 3.17 78.4399 5.15 78.4399C5.62 78.4399 6.22 78.8999 5.15 79.1699Z" fill="white"/>
<path d="M66.61 109.269C65.89 110.419 62.75 109.739 59.61 107.749C56.47 105.759 54.51 103.229 55.24 102.079C55.97 100.929 60.8 100.549 63.59 102.319C66.2 103.979 67.34 108.119 66.61 109.269Z" fill="#CF72E0"/>
<path d="M63.8221 108.569C64.058 108.195 62.7428 106.941 60.8844 105.767C59.026 104.593 57.3282 103.944 57.0923 104.318C56.8563 104.691 58.1715 105.946 60.0299 107.12C61.8883 108.294 63.5861 108.942 63.8221 108.569Z" fill="#C11CD4"/>
<path d="M62.1901 106.669C61.9601 107.099 61.7301 107.539 61.5201 107.979C60.2201 110.679 59.4001 113.289 58.7301 114.099C57.8501 115.149 55.0401 114.659 54.6001 112.859C54.2701 111.489 56.6601 107.979 58.4601 106.019C58.8601 105.589 59.2301 105.229 59.5301 104.989C59.9601 105.209 60.4101 105.469 60.8801 105.769C61.3501 106.069 61.7901 106.379 62.1801 106.669H62.1901Z" fill="#FFE4FF"/>
<path d="M60.1299 103.119C58.8199 102.929 57.1699 101.259 58.2099 101.119C59.2499 100.979 61.0499 101.249 61.8099 101.529C63.0099 101.969 61.6899 103.339 60.1199 103.119H60.1299Z" fill="#FFE4FF"/>
<path d="M66.76 107.509C66.74 107.789 66.65 107.909 66.52 107.959C66.11 108.119 65.31 107.529 64.63 106.109C63.9 104.559 64.41 103.349 65.23 104.009C66.05 104.669 66.79 107.099 66.76 107.509Z" fill="#FFE4FF"/>
<path d="M124.02 51.1699C122.09 51.9499 120.68 52.6099 118.96 52.7099C117.52 52.7899 115.48 52.1699 115.17 52.4199C114.77 52.7399 116.02 53.6299 116.02 53.6299C116.02 53.6299 114.66 54.4299 115.62 54.7399C116.51 55.0199 118.77 54.9999 120.44 54.5299C121.97 54.0999 124.39 52.4199 124.39 52.4199L124.01 51.1799L124.02 51.1699Z" fill="#C11CD4"/>
<path d="M134 51.1699C135.93 51.9499 137.34 52.6099 139.06 52.7099C140.5 52.7899 142.54 52.1699 142.85 52.4199C143.25 52.7399 142 53.6299 142 53.6299C142 53.6299 143.36 54.4299 142.4 54.7399C141.51 55.0199 139.25 54.9999 137.58 54.5299C136.05 54.0999 133.63 52.4199 133.63 52.4199L134.01 51.1799L134 51.1699Z" fill="#C11CD4"/>
<path d="M129.01 52.6897C129.623 52.6897 130.12 52.1928 130.12 51.5797C130.12 50.9667 129.623 50.4697 129.01 50.4697C128.397 50.4697 127.9 50.9667 127.9 51.5797C127.9 52.1928 128.397 52.6897 129.01 52.6897Z" fill="#C11CD4"/>
<path d="M128.6 49.8098C128.6 49.8098 128.06 44.2198 125.49 45.4198C122.92 46.6198 122.57 49.4198 123.21 50.0298C124.43 51.2098 127.78 50.9898 127.78 50.9898L128.6 49.7998V49.8098Z" fill="#CF72E0"/>
<path d="M129.42 49.8098C129.42 49.8098 129.96 44.2198 132.53 45.4198C135.1 46.6198 135.45 49.4198 134.81 50.0298C133.59 51.2098 130.24 50.9898 130.24 50.9898L129.42 49.7998V49.8098Z" fill="#CF72E0"/>
<path d="M127.05 52.1895L128.94 53.1895C128.94 53.1895 127.43 60.0095 126.18 60.1895C125.07 60.3595 124.79 58.2795 124.79 58.2795C124.79 58.2795 122.48 59.0795 121.97 58.3295C121.45 57.5795 124.23 54.7295 127.05 52.1895Z" fill="#CF72E0"/>
<path d="M130.97 52.1895L129.08 53.1895C129.08 53.1895 130.59 60.0095 131.84 60.1895C132.95 60.3595 133.23 58.2795 133.23 58.2795C133.23 58.2795 135.54 59.0795 136.05 58.3295C136.56 57.5795 133.79 54.7295 130.97 52.1895Z" fill="#CF72E0"/>
<path d="M130.7 50.4001C130.7 50.4001 135.27 46.7801 136.96 47.9601C138.65 49.1401 137.79 54.3001 135.69 54.9201C133.13 55.6901 130.04 52.2001 130.04 52.2001L130.7 50.4001Z" fill="#FFE4FF"/>
<path d="M130.7 50.91C130.7 50.91 133.95 48.58 135.62 48.41C136.71 48.3 136.9 49.26 134.9 50.08C132.36 51.11 130.7 50.91 130.7 50.91Z" fill="#CF72E0"/>
<path d="M127.33 50.4001C127.33 50.4001 122.76 46.7801 121.07 47.9601C119.38 49.1401 120.24 54.3001 122.34 54.9201C124.9 55.6901 127.99 52.2001 127.99 52.2001L127.33 50.4001Z" fill="#FFE4FF"/>
<path d="M127.33 50.9103C127.33 50.9103 124.08 48.5803 122.41 48.4103C121.32 48.3003 121.09 49.3503 123.13 50.0803C125.61 50.9703 127.33 50.9103 127.33 50.9103Z" fill="#CF72E0"/>
<path d="M129.01 49.0996C128.52 49.0996 128.12 49.4996 128.12 49.9896C128.12 50.4796 128.52 50.8796 129.01 50.8796C129.5 50.8796 129.9 50.4796 129.9 49.9896C129.9 49.4996 129.5 49.0996 129.01 49.0996Z" fill="white"/>
<path d="M129.03 52.29C128.54 52.29 128.14 52.69 128.14 53.18C128.14 53.67 128.54 54.07 129.03 54.07C129.52 54.07 129.92 53.67 129.92 53.18C129.92 52.69 129.52 52.29 129.03 52.29Z" fill="white"/>
<path d="M130.83 51.5796C130.4 51.3496 129.86 51.5096 129.63 51.9396C129.52 52.1496 129.49 52.3896 129.56 52.6196C129.63 52.8496 129.78 53.0296 129.99 53.1496C130.12 53.2196 130.26 53.2596 130.41 53.2596C130.5 53.2596 130.58 53.2496 130.67 53.2196C130.9 53.1496 131.08 52.9996 131.2 52.7896C131.43 52.3596 131.27 51.8196 130.84 51.5896L130.83 51.5796Z" fill="white"/>
<path d="M128.46 50.5696C128.39 50.3396 128.24 50.1596 128.03 50.0396C127.6 49.8096 127.06 49.9696 126.83 50.3996C126.6 50.8296 126.76 51.3696 127.19 51.5996C127.32 51.6696 127.46 51.7096 127.61 51.7096C127.7 51.7096 127.78 51.6996 127.87 51.6696C128.1 51.5996 128.28 51.4496 128.4 51.2396C128.51 51.0296 128.54 50.7896 128.47 50.5596L128.46 50.5696Z" fill="white"/>
<path d="M131.16 50.35C130.92 49.92 130.37 49.78 129.95 50.02C129.74 50.14 129.6 50.33 129.53 50.56C129.47 50.79 129.5 51.03 129.62 51.23C129.78 51.52 130.08 51.68 130.39 51.68C130.54 51.68 130.69 51.64 130.83 51.56C131.04 51.44 131.18 51.25 131.25 51.02C131.31 50.79 131.28 50.55 131.16 50.35Z" fill="white"/>
<path d="M128.41 51.9594C128.17 51.5294 127.62 51.3894 127.2 51.6294C126.99 51.7494 126.85 51.9394 126.78 52.1694C126.72 52.3994 126.75 52.6394 126.87 52.8394C127.03 53.1294 127.33 53.2894 127.64 53.2894C127.79 53.2894 127.94 53.2494 128.08 53.1694C128.29 53.0494 128.43 52.8594 128.5 52.6294C128.56 52.3994 128.53 52.1594 128.41 51.9594Z" fill="white"/>
<path d="M234.26 51.1799C233.52 50.0099 232.43 49.4199 225.38 49.4199C218.33 49.4199 217.24 50.0099 216.5 51.1799C215.79 52.3099 215.77 53.7099 215.77 53.7099H234.98C234.98 53.7099 234.96 52.3099 234.25 51.1799H234.26Z" fill="#C11CD4"/>
<path d="M243.66 63.5295C243.07 59.1295 242.43 53.5795 242.32 51.9195C242.25 50.7895 244.49 50.3295 244.93 51.6595C246.8 57.3195 248.14 64.2795 248.14 64.2795L243.66 63.5295Z" fill="#FFE4FF"/>
<path d="M242.64 55.1999C242.67 55.5299 242.72 55.8699 242.76 56.2199C243.28 55.7099 243.9 55.5099 244.57 55.6299C245.25 55.7499 245.92 56.1999 246.45 56.8799C246.32 56.3599 246.18 55.8399 246.03 55.3099C245.62 55.0399 245.18 54.8599 244.72 54.7799C243.98 54.6499 243.26 54.7999 242.64 55.2099V55.1999Z" fill="#CF72E0"/>
<path d="M243.46 62.2293L242.47 75.5693C249.33 75.8493 250.73 74.5193 250.73 68.6293C250.73 63.7993 249.91 62.1493 243.46 62.2293Z" fill="#C11CD4"/>
<path d="M249.14 68.7898C249.14 71.0098 249.49 72.8198 249.93 72.8198C250.37 72.8198 250.74 71.0198 250.74 68.7898C250.74 66.5698 250.37 64.7598 249.93 64.7598C249.49 64.7598 249.14 66.5598 249.14 68.7898Z" fill="#CF72E0"/>
<path d="M207.13 63.5295C207.72 59.1295 208.36 53.5795 208.47 51.9195C208.54 50.7895 206.3 50.3295 205.86 51.6595C203.99 57.3195 202.65 64.2795 202.65 64.2795L207.13 63.5295Z" fill="#FFE4FF"/>
<path d="M208.15 55.1999C208.12 55.5299 208.07 55.8699 208.03 56.2199C207.51 55.7099 206.89 55.5099 206.22 55.6299C205.54 55.7499 204.87 56.1999 204.34 56.8799C204.47 56.3599 204.61 55.8399 204.76 55.3099C205.17 55.0399 205.61 54.8599 206.07 54.7799C206.81 54.6499 207.53 54.7999 208.15 55.2099V55.1999Z" fill="#CF72E0"/>
<path d="M207.33 62.2293L208.32 75.5693C201.46 75.8493 200.06 74.5193 200.06 68.6293C200.06 63.7993 200.88 62.1493 207.33 62.2293Z" fill="#C11CD4"/>
<path d="M201.66 68.7898C201.66 71.0098 201.31 72.8198 200.87 72.8198C200.43 72.8198 200.06 71.0198 200.06 68.7898C200.06 66.5598 200.43 64.7598 200.87 64.7598C201.31 64.7598 201.66 66.5598 201.66 68.7898Z" fill="#CF72E0"/>
<path d="M225.4 53.0303C207.83 53.0303 205.61 55.2403 207 69.2003C208.51 84.3203 211.98 83.9303 225.4 83.9303C238.82 83.9303 242.29 84.3203 243.8 69.2003C245.19 55.2303 242.97 53.0303 225.4 53.0303Z" fill="#CF72E0"/>
<path d="M225.4 57.21C212.42 57.21 210.44 58.72 211.49 68.9C212.63 79.99 214.28 80 225.4 80C236.52 80 238.17 79.99 239.31 68.9C240.36 58.73 238.38 57.21 225.4 57.21Z" fill="#FFE4FF"/>
<path d="M233.08 83.7999C230.97 83.9499 228.44 83.9299 225.4 83.9299C222.36 83.9299 219.83 83.9499 217.72 83.7999C218.63 81.1299 220.32 81.1299 225.4 81.1299C230.48 81.1299 232.18 81.1299 233.08 83.7999Z" fill="#C11CD4"/>
<path d="M87.7203 31.749L86.8903 30.759L88.1603 30.989C88.1603 30.459 88.0203 29.769 87.4303 29.459C86.0203 28.719 84.2803 29.239 84.2803 29.239C84.2803 29.239 84.7003 31.009 86.0403 31.869C86.6003 32.229 87.2703 32.019 87.7303 31.749H87.7203Z" fill="#CF72E0"/>
<path d="M59.46 19.2696L60.34 20.2396L59.04 20.0496C59.06 20.5796 59.23 21.2796 59.84 21.5696C61.3 22.2596 63.04 21.6796 63.04 21.6796C63.04 21.6796 62.55 19.8996 61.16 19.0796C60.58 18.7296 59.91 18.9796 59.45 19.2596L59.46 19.2696Z" fill="#CF72E0"/>
<path d="M93.5602 23.9993C93.5202 23.4193 93.3002 22.6793 92.6202 22.3893C92.0302 22.1393 91.4202 22.0793 90.8602 22.0993C91.3902 21.9193 91.9402 21.6393 92.4002 21.1993C92.9302 20.6793 92.8702 19.9093 92.7102 19.3493L91.4302 19.9893L92.0002 18.6893C91.4402 18.5493 90.6602 18.5293 90.1802 19.0893C89.7702 19.5593 89.5202 20.1093 89.3702 20.6293C89.3602 20.0893 89.2602 19.4893 88.9902 18.9293C88.6602 18.2593 87.9102 18.0793 87.3302 18.0693L87.5402 19.4793L86.4802 18.5293C86.1702 19.0293 85.9102 19.7593 86.2902 20.3893C86.6102 20.9193 87.0602 21.3293 87.5102 21.6393C86.9902 21.4793 86.3902 21.3893 85.7802 21.4693C85.0502 21.5793 84.6402 22.2393 84.4502 22.7893L85.8502 23.0193L84.6202 23.7393C85.0002 24.1793 85.6202 24.6593 86.3302 24.4893C86.9502 24.3393 87.4902 24.0293 87.9302 23.6893C87.6102 24.1393 87.3302 24.6993 87.2202 25.3193C87.0902 26.0493 87.5902 26.6393 88.0502 26.9893L88.7102 25.7293L89.0102 27.1193C89.5502 26.8993 90.1902 26.4593 90.2602 25.7193C90.3102 25.1193 90.1902 24.5393 90.0202 24.0493C90.3502 24.4593 90.7702 24.8693 91.3002 25.1593C91.9502 25.4993 92.6702 25.2093 93.1402 24.8793L92.1402 23.8593L93.5602 23.9993Z" fill="#CF72E0"/>
<path d="M62.9201 30.0091C62.8801 29.4291 62.6601 28.6891 61.9801 28.3991C61.3901 28.1491 60.7801 28.0891 60.2301 28.1091C60.7501 27.9291 61.3001 27.6491 61.7601 27.2091C62.2901 26.6991 62.2301 25.9191 62.0701 25.3691L60.7901 25.9991L61.3601 24.6991C60.8001 24.5591 60.0201 24.5391 59.5401 25.0991C59.1301 25.5691 58.8801 26.1191 58.7301 26.6391C58.7301 26.0991 58.6201 25.4991 58.3501 24.9391C58.0301 24.2791 57.2701 24.0891 56.6901 24.0791L56.9001 25.4891L55.8401 24.5391C55.5301 25.0391 55.2701 25.7691 55.6501 26.3991C55.9701 26.9391 56.4301 27.3391 56.8701 27.6491C56.3501 27.4991 55.7501 27.3991 55.1401 27.4891C54.4101 27.5891 54.0001 28.2491 53.8101 28.7991L55.2101 29.0291L53.9801 29.7491C54.3601 30.1991 54.9801 30.6691 55.7001 30.4991C56.3201 30.3591 56.8501 30.0491 57.2901 29.6991C56.9701 30.1591 56.6901 30.7091 56.5801 31.3291C56.4501 32.0591 56.9501 32.6491 57.4101 32.9991L58.0701 31.7391L58.3801 33.1291C58.9101 32.9091 59.5501 32.4691 59.6201 31.7291C59.6701 31.1291 59.5501 30.5591 59.3801 30.0591C59.7101 30.4791 60.1301 30.8891 60.6601 31.1691C61.3101 31.5191 62.0301 31.2191 62.5101 30.8891L61.5101 29.8691L62.9201 30.0091Z" fill="#CF72E0"/>
<path d="M91.6402 23.2895C91.6202 22.9595 91.5002 22.5195 91.1102 22.3595C90.8202 22.2395 90.5202 22.1995 90.2402 22.1995C90.5002 22.0995 90.7702 21.9595 91.0002 21.7395C91.3002 21.4495 91.2602 20.9995 91.1602 20.6795L90.4802 20.9695L90.7402 20.2895C90.4102 20.1995 89.9702 20.1795 89.6902 20.4895C89.4902 20.7295 89.3602 20.9895 89.2802 21.2595C89.2602 20.9795 89.2102 20.6895 89.0802 20.4095C88.8902 20.0395 88.4602 19.9395 88.1202 19.9395L88.1902 20.6695L87.6102 20.2095C87.4302 20.4995 87.2702 20.9195 87.4902 21.2695C87.6502 21.5295 87.8602 21.7395 88.0902 21.8995C87.8202 21.8295 87.5202 21.7895 87.2202 21.8395C86.8102 21.8895 86.5802 22.2795 86.4702 22.5995L87.1902 22.7595L86.5802 23.1595C86.7902 23.4295 87.1402 23.7095 87.5502 23.6095C87.8602 23.5395 88.1302 23.3895 88.3602 23.2195C88.2002 23.4595 88.0702 23.7295 88.0102 24.0395C87.9402 24.4495 88.2402 24.7895 88.5102 24.9895L88.8802 24.3595L89.0802 25.0695C89.3902 24.9395 89.7702 24.6995 89.8002 24.2795C89.8302 23.9895 89.7802 23.7095 89.7002 23.4595C89.8702 23.6595 90.0802 23.8495 90.3402 23.9895C90.7002 24.1895 91.1202 24.0095 91.3902 23.8095L90.9002 23.2595L91.6402 23.2895Z" fill="#C11CD4"/>
<path d="M60.9998 29.3092C60.9798 28.9692 60.8598 28.5392 60.4798 28.3692C60.1898 28.2492 59.8798 28.2092 59.5998 28.2092C59.8598 28.1192 60.1398 27.9692 60.3598 27.7492C60.6698 27.4592 60.6198 27.0192 60.5198 26.6892L59.8398 26.9892L60.0998 26.2992C59.7798 26.2092 59.3298 26.1892 59.0498 26.5092C58.8498 26.7392 58.7198 27.0092 58.6398 27.2692C58.6298 26.9892 58.5698 26.6992 58.4398 26.4192C58.2598 26.0492 57.8198 25.9492 57.4798 25.9492L57.5498 26.6792L56.9798 26.2192C56.7898 26.5092 56.6298 26.9292 56.8498 27.2892C57.0098 27.5492 57.2198 27.7592 57.4498 27.9192C57.1798 27.8392 56.8898 27.8092 56.5798 27.8492C56.1698 27.9092 55.9398 28.2892 55.8398 28.6192L56.5598 28.7692L55.9398 29.1792C56.1498 29.4392 56.5098 29.7192 56.9098 29.6192C57.2198 29.5492 57.4898 29.3992 57.7198 29.2292C57.5598 29.4692 57.4298 29.7492 57.3698 30.0592C57.2998 30.4692 57.5998 30.7992 57.8698 30.9992L58.2398 30.3692L58.4398 31.0792C58.7498 30.9592 59.1298 30.7092 59.1598 30.2892C59.1898 29.9992 59.1398 29.7192 59.0598 29.4692C59.2298 29.6692 59.4398 29.8692 59.6998 29.9992C60.0698 30.1992 60.4798 30.0192 60.7498 29.8192L60.2598 29.2692L60.9998 29.3092Z" fill="#C11CD4"/>
<path d="M67.4502 31.0791C67.7374 31.0791 67.9702 30.8462 67.9702 30.5591C67.9702 30.2719 67.7374 30.0391 67.4502 30.0391C67.163 30.0391 66.9302 30.2719 66.9302 30.5591C66.9302 30.8462 67.163 31.0791 67.4502 31.0791Z" fill="#FFE4FF"/>
<path d="M66.3003 20.9394C66.5875 20.9394 66.8203 20.7066 66.8203 20.4194C66.8203 20.1322 66.5875 19.8994 66.3003 19.8994C66.0131 19.8994 65.7803 20.1322 65.7803 20.4194C65.7803 20.7066 66.0131 20.9394 66.3003 20.9394Z" fill="#FFE4FF"/>
<path d="M79.9101 32.5791C80.1973 32.5791 80.4301 32.3463 80.4301 32.0591C80.4301 31.7719 80.1973 31.5391 79.9101 31.5391C79.623 31.5391 79.3901 31.7719 79.3901 32.0591C79.3901 32.3463 79.623 32.5791 79.9101 32.5791Z" fill="#FFE4FF"/>
<path d="M81.7202 19.749C82.0074 19.749 82.2402 19.5162 82.2402 19.229C82.2402 18.9418 82.0074 18.709 81.7202 18.709C81.433 18.709 81.2002 18.9418 81.2002 19.229C81.2002 19.5162 81.433 19.749 81.7202 19.749Z" fill="#FFE4FF"/>
<path d="M89.6406 22.5163C89.6706 22.2473 89.477 22.005 89.208 21.9749C88.9391 21.9449 88.6967 22.1386 88.6667 22.4076C88.6366 22.6765 88.8303 22.9189 89.0993 22.9489C89.3682 22.9789 89.6106 22.7852 89.6406 22.5163Z" fill="#FFE4FF"/>
<path d="M59.0039 28.5241C59.0339 28.2551 58.8402 28.0128 58.5713 27.9828C58.3023 27.9527 58.06 28.1464 58.03 28.4154C57.9999 28.6843 58.1936 28.9267 58.4626 28.9567C58.7315 28.9867 58.9739 28.793 59.0039 28.5241Z" fill="#FFE4FF"/>
<path d="M79.5602 27.7295C79.5702 26.9395 79.3702 25.9095 78.4902 25.4395C77.7302 25.0395 76.9102 24.8795 76.1702 24.8295C76.8902 24.6595 77.6702 24.3495 78.3402 23.8095C79.1202 23.1895 79.1402 22.1395 78.9802 21.3695L77.1902 22.0695L78.1202 20.3895C77.3802 20.1295 76.3302 20.0095 75.6202 20.6995C75.0102 21.2795 74.6102 21.9995 74.3402 22.6795C74.3902 21.9495 74.3302 21.1295 74.0302 20.3395C73.6802 19.4095 72.6902 19.0695 71.9102 18.9795L72.0202 20.8995L70.7102 19.4995C70.2402 20.1295 69.8002 21.0795 70.2302 21.9695C70.6002 22.7295 71.1502 23.3395 71.7202 23.7995C71.0402 23.5295 70.2402 23.3295 69.4002 23.3695C68.4102 23.4195 67.7802 24.2595 67.4502 24.9695L69.3102 25.4595L67.5702 26.2695C68.0202 26.9195 68.7902 27.6295 69.7802 27.4895C70.6302 27.3695 71.4002 27.0195 72.0202 26.6195C71.5402 27.1795 71.0902 27.8895 70.8702 28.7195C70.6002 29.6795 71.2102 30.5295 71.7802 31.0695L72.8202 29.4495L73.0602 31.3495C73.8102 31.1195 74.7302 30.6095 74.9002 29.6295C75.0502 28.8295 74.9602 28.0395 74.7902 27.3495C75.1802 27.9495 75.6902 28.5495 76.3702 28.9995C77.2102 29.5495 78.2102 29.2395 78.8902 28.8495L77.6702 27.3595L79.5602 27.7295Z" fill="#CF72E0"/>
<path d="M77.0602 26.5398C77.0702 26.0798 76.9702 25.4798 76.4702 25.2198C76.1002 25.0198 75.6902 24.9298 75.3102 24.8998C75.6802 24.7998 76.0602 24.6298 76.4002 24.3698C76.8402 24.0198 76.8302 23.4098 76.7402 22.9598L75.7902 23.2798L76.2302 22.3798C75.8002 22.2298 75.2002 22.1398 74.7902 22.5398C74.4902 22.8198 74.2802 23.1698 74.1402 23.5098C74.1502 23.1398 74.1202 22.7298 73.9702 22.3498C73.7702 21.8198 73.1902 21.6398 72.7402 21.5898V22.5898L72.0302 21.8998C71.7502 22.2598 71.4802 22.7998 71.7302 23.3098C71.9102 23.6798 72.1802 23.9898 72.4602 24.2298C72.1102 24.0998 71.7102 24.0198 71.3002 24.0298C70.7402 24.0598 70.3902 24.5498 70.2002 24.9698L71.1502 25.2698L70.2702 25.7398C70.5302 26.1198 70.9702 26.5398 71.5302 26.4598C71.9502 26.3998 72.3302 26.2398 72.6602 26.0398C72.4202 26.3298 72.2102 26.6898 72.0902 27.0998C71.9402 27.6398 72.3002 28.1298 72.6402 28.4398L73.2202 27.6298L73.4002 28.6098C73.8402 28.4798 74.3702 28.1898 74.4702 27.6398C74.5402 27.2498 74.5102 26.8698 74.4402 26.5198C74.6402 26.8098 74.9002 27.0998 75.2202 27.3098C75.6902 27.6198 76.2702 27.4298 76.6602 27.1998L76.0702 26.3998L77.0602 26.5398Z" fill="#C11CD4"/>
<path d="M73.8364 25.7643C74.2009 25.7626 74.495 25.4658 74.4934 25.1013C74.4917 24.7368 74.1949 24.4426 73.8304 24.4443C73.4659 24.4459 73.1718 24.7428 73.1734 25.1073C73.1751 25.4718 73.4719 25.7659 73.8364 25.7643Z" fill="#FFE4FF"/>
<path d="M186.74 22.3395C188.9 18.6295 192.84 16.7795 196.52 18.4895C200.44 20.2995 202.16 25.3195 203.7 26.0295C203.02 26.4595 201.49 26.0595 201.49 26.0595C201.49 26.0595 201.11 27.5295 199.78 28.9395C200.44 26.9095 200.47 25.3095 200.47 25.3095C200.47 25.3095 197.52 19.6295 192.96 20.2495C189.62 20.6995 187.85 24.1295 187.85 24.1295C187.85 24.1295 187.67 23.5295 188.25 22.3295C187.7 22.8395 187.31 23.2495 187.31 23.2495C187.31 23.2495 187.27 22.6095 187.85 21.7095C187.4 22.0495 186.75 22.3595 186.75 22.3595L186.74 22.3395Z" fill="#C11CD4"/>
<path d="M199.85 21.9094C201.18 21.9194 202.23 21.3994 202.23 21.3994C202.23 21.3994 201.73 22.6794 200.73 22.6794L199.85 21.9094Z" fill="#C11CD4"/>
<path d="M200.67 22.6697C201.9 22.5597 203.12 22.1797 203.12 22.1797C203.12 22.1797 202.94 23.3397 201.33 23.5197L200.67 22.6697Z" fill="#C11CD4"/>
<path d="M201.12 23.4393C202.77 23.5893 203.95 23.2793 203.95 23.2793C203.95 23.2793 203.36 24.5993 201.77 24.5893L201.13 23.4393H201.12Z" fill="#C11CD4"/>
<path d="M198.78 26.2097C198.78 28.9897 196.64 31.0097 194 31.0097C191.36 31.0097 189.22 28.9797 189.22 26.2097C189.22 23.4397 191.36 21.1797 194 21.1797C196.64 21.1797 198.78 23.4297 198.78 26.2097Z" fill="#CF72E0"/>
<path d="M197.02 28.7297C197.02 30.2497 195.66 31.0197 193.99 31.0197C192.32 31.0197 190.96 30.2497 190.96 28.7297C190.96 27.2097 192.32 25.9697 193.99 25.9697C195.66 25.9697 197.02 27.1997 197.02 28.7297Z" fill="#FFE4FF"/>
<path d="M192.926 24.544C193.556 23.7828 193.647 22.8172 193.129 22.3873C192.61 21.9573 191.678 22.2258 191.047 22.987C190.416 23.7482 190.325 24.7138 190.844 25.1437C191.363 25.5737 192.295 25.3051 192.926 24.544Z" fill="white"/>
<path d="M197.523 28.8867C197.844 28.5 197.897 28.0149 197.642 27.8033C197.387 27.5916 196.92 27.7335 196.599 28.1202C196.278 28.5068 196.225 28.9919 196.48 29.2036C196.735 29.4152 197.202 29.2734 197.523 28.8867Z" fill="white"/>
<path d="M196.36 25.4895C197.03 26.8695 196.01 28.6995 194.45 28.9695C192.87 29.3395 191.17 27.7495 191.66 26.2095C191.68 26.1495 191.77 26.1495 191.79 26.2095C192.32 27.9495 194.41 28.5995 195.6 27.1595C195.97 26.7395 196.19 26.1695 196.27 25.5095C196.27 25.4595 196.34 25.4495 196.36 25.4895Z" fill="#C11CD4"/>
<path d="M197.85 31.7598C198.38 31.9798 198.69 32.4998 198.69 32.4998C198.69 32.4998 197.81 32.2298 197.11 32.1298L197.85 31.7598Z" fill="#C11CD4"/>
<path d="M198.33 31.4199C198.98 31.6099 199.33 32.2299 199.33 32.2299C199.33 32.2299 198.35 31.9099 197.65 31.8099L198.32 31.4299L198.33 31.4199Z" fill="#C11CD4"/>
<path d="M189.67 31.6396C194.05 32.3296 195.91 31.8496 199.1 30.6396C197.37 33.1996 192.29 33.4196 189.67 31.6396Z" fill="#C11CD4"/>
<path d="M172.61 26.4199C167.89 25.5599 165.21 27.7899 164.19 30.1499C164.19 30.1499 165.25 29.2999 165.77 28.9799C165.34 29.5599 164.83 30.7199 164.83 30.7199C164.83 30.7199 165.89 29.6999 166.75 29.2499C166.2 30.2099 165.71 31.0999 165.71 31.0999C168.5 29.0899 170.15 28.5699 173.38 28.9099C176.61 29.2499 179.23 30.6499 179.23 30.6499C179.23 30.6499 177.13 27.2499 172.61 26.4299V26.4199Z" fill="#C11CD4"/>
<path d="M168.33 26.7495C166.89 26.2695 165.79 25.2295 165.79 25.2295C165.79 25.2295 165.7 26.5495 167.3 27.4695L168.32 26.7495H168.33Z" fill="#C11CD4"/>
<path d="M167.37 27.2493C165.44 26.7893 164.22 25.9893 164.22 25.9893C164.22 25.9893 164.44 27.5893 166.23 28.1293L167.37 27.2493Z" fill="#C11CD4"/>
<path d="M285 45.3304V55.7504C284.69 55.8104 284.37 55.8304 284.05 55.8304C282.48 55.8204 281.08 55.1304 280.13 54.0404C279.29 53.1004 278.79 51.8504 278.8 50.4904C278.8 50.4204 278.8 50.3404 278.81 50.2704C278.88 48.9304 279.44 47.7304 280.32 46.8304C280.53 46.6104 280.77 46.4004 281.03 46.2204C281.9 45.5904 282.98 45.2304 284.14 45.2404C284.43 45.2404 284.72 45.2704 285 45.3304Z" fill="#FFE4FF"/>
<path d="M285 21.8701V30.9701C284.02 30.2301 283.28 29.1801 282.94 27.9701C282.86 27.7001 282.8 27.4201 282.77 27.1301C282.73 26.8801 282.72 26.6201 282.72 26.3601C282.74 24.5201 283.63 22.8901 285 21.8701Z" fill="#FFE4FF"/>
<path d="M281.13 28.8592C281.69 28.3492 282.3 28.0992 282.94 27.9692C283.54 27.8492 284.18 27.8392 284.83 27.8192C284.89 27.8192 284.94 27.8192 285 27.8092V26.9492C284.94 26.9592 284.88 26.9592 284.82 26.9592C284.14 26.9792 283.45 26.9892 282.77 27.1292C282 27.2692 281.25 27.5792 280.55 28.2092C280.22 28.5092 279.97 28.8292 279.78 29.1592C279.08 30.4092 279.25 31.8592 279.44 33.2792C279.44 33.2992 279.45 33.3292 279.45 33.3492C279.6 34.4892 279.75 35.6692 279.52 36.8392C279.27 38.1092 278.77 39.1492 278.33 40.0692C277.76 41.2592 277.22 42.3892 277.38 43.6992C277.57 45.2692 278.82 46.0292 280.32 46.8292C280.44 46.8892 280.56 46.9592 280.68 47.0192C281.57 47.4792 282.58 48.0092 283.54 48.7592C284.15 49.2392 284.6 49.9092 285 50.6392V49.0292C284.73 48.6792 284.43 48.3492 284.07 48.0792C283.05 47.2792 282 46.7292 281.08 46.2492C281.06 46.2492 281.05 46.2292 281.03 46.2192C279.5 45.4192 278.4 44.8292 278.24 43.5992C278.11 42.5392 278.56 41.6092 279.11 40.4392C279.57 39.4792 280.1 38.3892 280.37 37.0092C280.63 35.6992 280.46 34.3892 280.31 33.2292V33.1992C280.1 31.6792 279.94 30.4292 280.65 29.3992C280.78 29.2092 280.94 29.0292 281.13 28.8592Z" fill="#CF72E0"/>
<path d="M280.295 23.1C280.869 23.0981 281.333 22.6309 281.331 22.0565C281.33 21.4822 280.862 21.0181 280.288 21.02C279.714 21.0219 279.25 21.4891 279.251 22.0634C279.253 22.6378 279.721 23.1019 280.295 23.1Z" fill="#CF72E0"/>
<path d="M275.006 38.557C275.581 38.5551 276.045 38.0879 276.043 37.5136C276.041 36.9392 275.574 36.4751 274.999 36.477C274.425 36.4789 273.961 36.9461 273.963 37.5205C273.965 38.0948 274.432 38.5589 275.006 38.557Z" fill="#CF72E0"/>
<path d="M279.699 33.3216C280.842 33.3178 281.766 32.388 281.762 31.2447C281.758 30.1015 280.828 29.1778 279.685 29.1816C278.542 29.1854 277.618 30.1152 277.622 31.2585C277.626 32.4017 278.556 33.3254 279.699 33.3216Z" fill="white"/>
<path d="M278.969 54.4144C280.112 54.4106 281.036 53.4807 281.032 52.3375C281.028 51.1943 280.098 50.2706 278.955 50.2744C277.812 50.2782 276.888 51.208 276.892 52.3512C276.896 53.4945 277.826 54.4182 278.969 54.4144Z" fill="white"/>
<path d="M285 90.7793V94.8493C279.97 94.3093 278.42 93.2793 278.69 92.5193C279 91.6493 281.59 91.0893 285 90.7793Z" fill="#FFE4FF"/>
<path d="M285 92.5195V109.87C279.59 107.46 277.4 101.95 278.66 92.5195H285Z" fill="#FFE4FF"/>
<path d="M285 91.3496V93.8996C281.96 93.5696 280.23 93.0596 280.49 92.5196C280.52 92.4696 280.55 92.4296 280.61 92.3796C281.08 91.9596 282.72 91.5996 285 91.3496Z" fill="#C11CD4"/>
<path d="M283.98 104.659C284.13 105.699 283.63 106.379 282.9 106.309C282.17 106.239 281.42 105.479 281.09 104.499C280.72 103.369 281.06 102.319 281.94 102.319C282.82 102.319 283.8 103.449 283.97 104.659H283.98Z" fill="white"/>
<path d="M143.89 20.7594C142.96 20.0594 139.6 19.0594 135.34 19.2494C131.54 19.4294 129.78 20.1994 129.01 21.9894C128.24 20.1994 126.47 19.4194 122.68 19.2494C118.43 19.0494 115.07 20.0594 114.13 20.7594C113.21 21.4494 112.92 21.9694 114.33 24.0394C116.39 27.0594 121.88 31.4194 129.01 31.4194C136.14 31.4194 141.63 27.0594 143.69 24.0394C145.1 21.9794 144.8 21.4494 143.89 20.7594Z" fill="#FFE4FF"/>
<path d="M141.6 22.6196C139.45 23.1296 133.92 23.9396 129.02 23.9396C124.12 23.9396 118.58 23.1296 116.44 22.6196C115.74 22.4496 115.85 22.7796 116.23 23.0896C118.37 24.8596 122.46 27.4696 129.03 27.4696C135.6 27.4696 139.68 24.8596 141.83 23.0896C142.21 22.7796 142.31 22.4496 141.62 22.6196H141.6Z" fill="#CF72E0"/>
<path d="M138.25 23.2197C138.25 24.9597 137.38 27.3097 136.7 27.7697C136.02 28.2297 135.08 26.3397 134.2 23.6897C135.66 23.5597 137.05 23.3897 138.25 23.2197Z" fill="white"/>
<path d="M119.77 23.2197C119.77 24.9597 120.64 27.3097 121.32 27.7697C122 28.2297 122.94 26.3397 123.82 23.6897C122.36 23.5597 120.97 23.3897 119.77 23.2197Z" fill="white"/>
<path d="M130.86 21.9091C131.38 22.2991 133.71 21.4491 134.05 21.1391C134.39 20.8291 133.14 20.4891 131.96 20.8491C131.26 21.0591 130.63 21.7391 130.86 21.9091Z" fill="white"/>
<path d="M164.23 52.2196C163.43 52.0396 161.27 50.2896 161.37 49.8696C161.47 49.4496 164.1 49.1396 164.9 49.3296C165.7 49.5196 166.2 50.3096 166.01 51.1096C165.82 51.9096 165.03 52.4096 164.23 52.2196Z" fill="#FFE4FF"/>
<path d="M176.38 52.2196C177.18 52.0396 179.34 50.2896 179.24 49.8696C179.14 49.4496 176.51 49.1396 175.71 49.3296C174.91 49.5196 174.41 50.3096 174.6 51.1096C174.79 51.9096 175.58 52.4096 176.38 52.2196Z" fill="#FFE4FF"/>
<path d="M176.7 48.3192C176.1 46.7992 173.84 46.1592 170.31 46.1592C166.78 46.1592 164.51 46.7992 163.92 48.3192C163.32 49.8392 163.32 54.8892 164.18 57.1392C164.87 58.9392 167.79 59.5392 170.31 59.5392C172.83 59.5392 175.75 58.9392 176.44 57.1392C177.3 54.8892 177.3 49.8392 176.7 48.3192Z" fill="#CF72E0"/>
<path d="M171.95 55.2096C171.95 56.1196 170.78 57.7096 170.3 57.7096C169.82 57.7096 168.65 56.1196 168.65 55.2096C168.65 54.2996 169.39 53.5596 170.3 53.5596C171.21 53.5596 171.95 54.2996 171.95 55.2096Z" fill="#FFE4FF"/>
<path d="M165.75 54.9994C165.01 55.3394 162.23 55.2894 162.05 54.8994C161.87 54.5094 163.77 52.6494 164.51 52.3094C165.25 51.9694 166.14 52.2894 166.48 53.0394C166.82 53.7894 166.5 54.6694 165.75 55.0094V54.9994Z" fill="#FFE4FF"/>
<path d="M174.86 54.9994C175.6 55.3394 178.38 55.2894 178.56 54.8994C178.74 54.5094 176.84 52.6494 176.1 52.3094C175.36 51.9694 174.47 52.2894 174.13 53.0394C173.79 53.7894 174.11 54.6694 174.86 55.0094V54.9994Z" fill="#FFE4FF"/>
<path d="M175.16 48.259C175.29 49.029 173.12 49.689 170.31 49.689C167.5 49.689 165.33 49.029 165.46 48.259C165.59 47.489 167.75 46.959 170.31 46.959C172.87 46.959 175.03 47.529 175.16 48.259Z" fill="#C11CD4"/>
<path d="M112.79 110.499C112.79 110.499 111.6 111.549 112.67 112.679C114.59 114.689 119.52 113.309 119.52 113.309C120.35 114.169 122.81 115.189 124.79 113.879C126.63 112.659 126.94 110.399 126.04 108.239C124.96 105.629 122.32 103.799 119.06 102.579C114.11 100.729 110.45 100.959 110.23 103.069C110.01 105.179 112.5 106.589 112.5 106.589C112.5 106.589 110.82 106.629 110.95 108.019C111.09 109.479 112.79 110.519 112.79 110.519V110.499Z" fill="#FFE4FF"/>
<path d="M117.65 110.919C117.68 109.609 118.36 108.429 119.41 107.839C120.27 107.359 121.26 107.349 122.18 107.809C123.13 108.289 123.82 109.169 123.94 110.059C124.07 111.029 123.73 111.829 123.03 112.209C122.29 112.609 121.29 112.439 120.5 111.769C120.31 111.609 120.29 111.329 120.45 111.139C120.61 110.949 120.89 110.929 121.08 111.089C121.59 111.519 122.19 111.659 122.61 111.429C122.98 111.229 123.14 110.769 123.06 110.179C122.98 109.589 122.46 108.939 121.78 108.609C121.4 108.419 120.64 108.169 119.84 108.619C119.06 109.059 118.56 109.949 118.53 110.939C118.5 112.059 119.06 113.079 120.06 113.729C119.84 113.589 119.65 113.439 119.51 113.299C119.51 113.299 119.12 113.409 118.52 113.519C117.93 112.779 117.61 111.869 117.64 110.919H117.65Z" fill="#CF72E0"/>
<path d="M115.77 107.91C115.76 108.13 115.59 108.31 115.38 108.33C115.36 108.33 115.33 108.33 115.31 108.33C113.19 108.23 111.78 107.19 111.43 106.9C111.89 106.58 112.5 106.56 112.5 106.56C112.5 106.56 112.5 106.56 112.49 106.56C113.06 106.91 114.06 107.38 115.35 107.44C115.6 107.45 115.79 107.66 115.77 107.91Z" fill="#CF72E0"/>
<path d="M115.69 111.69C115.68 111.91 115.51 112.08 115.3 112.11C115.27 112.11 115.25 112.11 115.22 112.11C115.14 112.11 113.56 112.01 112.29 111.24C112.44 110.79 112.78 110.49 112.78 110.49C112.78 110.49 112.77 110.49 112.75 110.47C113.83 111.12 115.26 111.21 115.27 111.21C115.52 111.22 115.7 111.44 115.69 111.68V111.69Z" fill="#CF72E0"/>
<path d="M145.24 110.499C145.24 110.499 146.43 111.549 145.36 112.679C143.44 114.689 138.51 113.309 138.51 113.309C137.68 114.169 135.22 115.189 133.24 113.879C131.4 112.659 131.09 110.399 131.99 108.239C133.07 105.629 135.71 103.799 138.97 102.579C143.92 100.729 147.58 100.959 147.8 103.069C148.02 105.179 145.53 106.589 145.53 106.589C145.53 106.589 147.21 106.629 147.08 108.019C146.94 109.479 145.24 110.519 145.24 110.519V110.499Z" fill="#FFE4FF"/>
<path d="M140.37 110.919C140.34 109.609 139.66 108.429 138.61 107.839C137.75 107.359 136.76 107.349 135.84 107.809C134.89 108.289 134.2 109.169 134.08 110.059C133.95 111.029 134.29 111.829 134.99 112.209C135.73 112.609 136.73 112.439 137.52 111.769C137.71 111.609 137.73 111.329 137.57 111.139C137.41 110.949 137.13 110.929 136.94 111.089C136.43 111.519 135.83 111.659 135.41 111.429C135.04 111.229 134.88 110.769 134.96 110.179C135.04 109.589 135.56 108.939 136.24 108.609C136.62 108.419 137.38 108.169 138.18 108.619C138.96 109.059 139.46 109.949 139.49 110.939C139.52 112.059 138.96 113.079 137.96 113.729C138.18 113.589 138.37 113.439 138.51 113.299C138.51 113.299 138.9 113.409 139.5 113.519C140.09 112.779 140.41 111.869 140.38 110.919H140.37Z" fill="#CF72E0"/>
<path d="M142.26 107.91C142.27 108.13 142.44 108.31 142.65 108.33C142.67 108.33 142.7 108.33 142.72 108.33C144.84 108.23 146.25 107.19 146.6 106.9C146.14 106.58 145.53 106.56 145.53 106.56C145.53 106.56 145.53 106.56 145.54 106.56C144.97 106.91 143.97 107.38 142.68 107.44C142.43 107.45 142.24 107.66 142.26 107.91Z" fill="#CF72E0"/>
<path d="M142.33 111.69C142.34 111.91 142.51 112.08 142.72 112.11C142.75 112.11 142.77 112.11 142.8 112.11C142.88 112.11 144.46 112.01 145.73 111.24C145.58 110.79 145.24 110.49 145.24 110.49C145.24 110.49 145.25 110.49 145.27 110.47C144.19 111.12 142.76 111.21 142.75 111.21C142.5 111.22 142.32 111.44 142.33 111.68V111.69Z" fill="#CF72E0"/>
<path d="M237.81 23.4893C229.79 23.4893 222.13 24.3293 222.06 25.2993H253.85C253.37 24.3593 245.62 23.4893 237.82 23.4893H237.81Z" fill="#CF72E0"/>
<path d="M252.69 25.2997C252.13 24.5997 245.31 23.9297 237.81 23.9297C230.31 23.9297 223.76 24.6597 223.2 25.3597C222.78 25.8797 229.19 26.8597 237.81 26.8297C246.43 26.8597 253.11 25.8297 252.69 25.2997Z" fill="#C11CD4"/>
<path d="M254.4 22.5694C252.93 24.3694 250.98 25.7594 249.95 25.5794C248.83 25.3794 248.77 23.9294 248.57 20.9794C248.53 20.3794 248.16 20.3694 247.78 20.8494C245.72 23.4894 244.07 25.1994 242.85 24.9494C241.07 24.5794 239.97 21.5094 238.54 18.7694C238.41 18.5294 238.18 18.4094 237.94 18.3994C237.7 18.3994 237.47 18.5194 237.34 18.7694C235.91 21.5094 234.81 24.5794 233.03 24.9494C231.81 25.1994 230.16 23.4994 228.1 20.8494C227.72 20.3694 227.35 20.3794 227.31 20.9794C227.11 23.9294 227.06 25.3794 225.93 25.5794C224.9 25.7694 222.95 24.3694 221.48 22.5694C220.95 21.9294 220.7 22.2694 220.87 22.8194C221.27 24.0694 221.72 25.6094 222.51 27.8194C222.94 29.0094 223.48 29.4394 224.04 29.7494C226.14 30.9294 229.61 32.2494 237.93 32.2494C246.25 32.2494 249.71 30.9294 251.82 29.7494C252.38 29.4394 252.93 29.0094 253.35 27.8194C254.14 25.6094 254.59 24.0694 254.99 22.8194C255.17 22.2694 254.91 21.9294 254.38 22.5694H254.4Z" fill="#FFE4FF"/>
<path d="M240 27.7199C239.65 29.2499 238.78 30.8399 237.94 30.8399C237.1 30.8399 236.23 29.2499 235.88 27.7199C235.36 25.4099 236.15 24.3799 237.94 24.3799C239.73 24.3799 240.52 25.4099 240 27.7199Z" fill="#CF72E0"/>
<path d="M237.49 29.7801C236.4 28.5401 237.64 26.9801 238.37 26.7301C239.1 26.4801 239.6 27.2601 239.14 28.5201C238.48 30.3101 237.76 30.0901 237.49 29.7801Z" fill="#C11CD4"/>
<path d="M237.38 28.05C237.8 28.05 238.14 27.4322 238.14 26.67C238.14 25.9079 237.8 25.29 237.38 25.29C236.96 25.29 236.62 25.9079 236.62 26.67C236.62 27.4322 236.96 28.05 237.38 28.05Z" fill="white"/>
<path d="M246.63 28.8799C245.69 30.1699 244.49 30.6399 244.07 30.2099C243.65 29.7799 244.2 28.2299 244.89 27.4099C245.58 26.5899 246.5 26.2199 246.95 26.5999C247.4 26.9799 247.3 27.9599 246.63 28.8899V28.8799Z" fill="#CF72E0"/>
<path d="M246.06 29.1197C245.65 29.5997 244.96 30.0897 244.72 29.8697C244.48 29.6497 244.81 28.6997 245.24 28.2497C245.67 27.7997 246.2 27.6197 246.44 27.8397C246.68 28.0597 246.46 28.6497 246.05 29.1197H246.06Z" fill="#C11CD4"/>
<path d="M246.197 27.8904C246.372 27.699 246.395 27.4349 246.248 27.3007C246.102 27.1664 245.841 27.2128 245.665 27.4043C245.49 27.5958 245.467 27.8598 245.614 27.994C245.76 28.1283 246.021 28.0819 246.197 27.8904Z" fill="white"/>
<path d="M229.27 28.8799C230.21 30.1699 231.41 30.6399 231.83 30.2099C232.25 29.7799 231.7 28.2299 231.01 27.4099C230.32 26.5899 229.4 26.2199 228.95 26.5999C228.5 26.9799 228.6 27.9599 229.27 28.8899V28.8799Z" fill="#CF72E0"/>
<path d="M229.84 29.1197C230.25 29.5997 230.94 30.0897 231.18 29.8697C231.42 29.6497 231.09 28.6997 230.66 28.2497C230.23 27.7997 229.7 27.6197 229.46 27.8397C229.22 28.0597 229.44 28.6497 229.85 29.1197H229.84Z" fill="#C11CD4"/>
<path d="M230.276 27.9845C230.422 27.8502 230.399 27.5862 230.224 27.3947C230.049 27.2032 229.788 27.1569 229.641 27.2911C229.494 27.4254 229.518 27.6894 229.693 27.8809C229.868 28.0723 230.129 28.1187 230.276 27.9845Z" fill="white"/>
<path d="M44.57 0V5.89C44.57 6.85 43.79 7.63 42.84 7.63H0V0H44.57Z" fill="#EBA3DB"/>
<path d="M285 0V7.62H270.24C269.28 7.62 268.51 6.84 268.51 5.88V0H285Z" fill="#EBA3DB"/>
<path d="M182.21 0V5.88C182.21 6.84 181.43 7.61 180.47 7.61H105.06C104.1 7.61 103.32 6.83 103.32 5.88V0H182.2H182.21Z" fill="#EBA3DB"/>
<path d="M264.8 0V5.88C264.8 6.84 264.02 7.61 263.06 7.61H187.65C186.69 7.61 185.91 6.83 185.91 5.88V0H264.79H264.8Z" fill="#EBA3DB"/>
<path d="M99.63 0V5.88C99.63 6.84 98.85 7.61 97.89 7.61H50.01C49.05 7.61 48.27 6.83 48.27 5.88V0H99.62H99.63Z" fill="#EBA3DB"/>
<path d="M17.04 123.19V128H0V121.46H15.31C16.27 121.46 17.04 122.23 17.04 123.19Z" fill="#EBA3DB"/>
<path d="M182.21 123.19V128H103.33V123.19C103.33 122.23 104.11 121.46 105.07 121.46H180.48C181.44 121.46 182.22 122.24 182.22 123.19H182.21Z" fill="#EBA3DB"/>
<path d="M99.63 123.19V128H20.75V123.19C20.75 122.23 21.52 121.46 22.49 121.46H97.9C98.86 121.46 99.64 122.24 99.64 123.19H99.63Z" fill="#EBA3DB"/>
<path d="M237.27 123.19V128H185.92V123.19C185.92 122.23 186.7 121.46 187.66 121.46H235.54C236.5 121.46 237.28 122.24 237.28 123.19H237.27Z" fill="#EBA3DB"/>
<path d="M285 121.44V128H240.98V123.18C240.98 122.94 241.03 122.71 241.12 122.5C241.2 122.29 241.33 122.1 241.49 121.95C241.8 121.64 242.24 121.44 242.71 121.44H285Z" fill="#EBA3DB"/>
<path d="M17.04 123.19V125.62H0V121.46H15.31C16.27 121.46 17.04 122.23 17.04 123.19Z" fill="#CF72E0"/>
<path d="M22.48 121.45H97.89C98.85 121.45 99.63 122.23 99.63 123.19V125.62H20.75V123.19C20.75 122.23 21.53 121.46 22.48 121.46V121.45Z" fill="#CF72E0"/>
<path d="M105.07 121.45H180.48C181.44 121.45 182.22 122.23 182.22 123.19V125.62H103.34V123.19C103.34 122.23 104.12 121.46 105.07 121.46V121.45Z" fill="#CF72E0"/>
<path d="M187.66 121.45H235.54C236.5 121.45 237.28 122.23 237.28 123.19V125.62H185.93V123.19C185.93 122.23 186.71 121.46 187.66 121.46V121.45Z" fill="#CF72E0"/>
<path d="M285 121.44V125.61H240.98V123.18C240.98 122.94 241.03 122.71 241.12 122.5C241.2 122.3 241.33 122.11 241.49 121.95C241.8 121.64 242.24 121.44 242.71 121.44H285Z" fill="#CF72E0"/>
<path d="M14.8702 124.569C15.3893 124.569 15.8102 124.149 15.8102 123.629C15.8102 123.11 15.3893 122.689 14.8702 122.689C14.351 122.689 13.9302 123.11 13.9302 123.629C13.9302 124.149 14.351 124.569 14.8702 124.569Z" fill="#C11CD4"/>
<path d="M97.4502 124.56C97.9694 124.56 98.3903 124.139 98.3903 123.62C98.3903 123.101 97.9694 122.68 97.4502 122.68C96.9311 122.68 96.5103 123.101 96.5103 123.62C96.5103 124.139 96.9311 124.56 97.4502 124.56Z" fill="#C11CD4"/>
<path d="M180.04 124.56C180.559 124.56 180.98 124.139 180.98 123.62C180.98 123.101 180.559 122.68 180.04 122.68C179.521 122.68 179.1 123.101 179.1 123.62C179.1 124.139 179.521 124.56 180.04 124.56Z" fill="#C11CD4"/>
<path d="M235.1 124.569C235.619 124.569 236.04 124.149 236.04 123.629C236.04 123.11 235.619 122.689 235.1 122.689C234.581 122.689 234.16 123.11 234.16 123.629C234.16 124.149 234.581 124.569 235.1 124.569Z" fill="#C11CD4"/>
<path opacity="0.9" d="M285 0H0V128H285V0Z" fill="url(#paint0_linear_606_24069)"/>
<path d="M184.35 118.58C185.62 120.63 167.25 123.4 142.5 123.4C117.75 123.4 99.3799 120.63 100.65 118.58C101.85 116.64 120.54 115.22 142.5 115.22C164.46 115.22 183.19 116.71 184.35 118.58Z" fill="#272173"/>
<path d="M142.58 7.5293C90.3102 7.5293 68.7002 42.7193 68.7002 42.7193L142.58 113.389L216.46 42.7193C216.46 42.7193 194.84 7.5293 142.58 7.5293Z" fill="url(#paint1_radial_606_24069)"/>
<path d="M115.72 87.6396H169.32V115.96C169.32 117.6 167.99 118.94 166.34 118.94H118.69C117.05 118.94 115.71 117.61 115.71 115.96V87.6396H115.72Z" fill="url(#paint2_linear_606_24069)"/>
<path d="M161.999 108.16L123.159 108.282L123.165 110.142L162.005 110.02L161.999 108.16Z" fill="#4653E4"/>
<path d="M161.992 96.2598L123.152 96.3818L123.158 98.2418L161.998 98.1198L161.992 96.2598Z" fill="#4653E4"/>
<path d="M115.72 87.6396H124.13V118.94H118.7C117.05 118.94 115.72 117.61 115.72 115.96V87.6396ZM160.91 87.6396V118.94H166.34C167.99 118.94 169.32 117.61 169.32 115.96V87.6396H160.91Z" fill="url(#paint3_linear_606_24069)"/>
<path d="M152.17 91.6797H132.87C131.202 91.6797 129.85 93.0318 129.85 94.6997V111.89C129.85 113.558 131.202 114.91 132.87 114.91H152.17C153.838 114.91 155.19 113.558 155.19 111.89V94.6997C155.19 93.0318 153.838 91.6797 152.17 91.6797Z" fill="url(#paint4_linear_606_24069)"/>
<path d="M140 101.309H137.91V99.1493C137.91 96.6093 139.98 94.5293 142.53 94.5293C145.08 94.5293 147.15 96.5993 147.15 99.1493V101.309H145.06V99.1493C145.06 97.7593 143.93 96.6193 142.53 96.6193C141.13 96.6193 140 97.7493 140 99.1493V101.309Z" fill="#FFC519"/>
<path d="M147.55 101.31H137.49C136.827 101.31 136.29 101.847 136.29 102.51V110.32C136.29 110.982 136.827 111.52 137.49 111.52H147.55C148.213 111.52 148.75 110.982 148.75 110.32V102.51C148.75 101.847 148.213 101.31 147.55 101.31Z" fill="#FFE65C"/>
<path d="M141.78 109.699C141.54 109.699 141.31 109.609 141.14 109.439L139.08 107.429C138.72 107.079 138.71 106.499 139.06 106.139C139.41 105.779 139.99 105.769 140.35 106.119L141.72 107.449L144.78 103.949C145.11 103.569 145.69 103.529 146.07 103.859C146.45 104.189 146.49 104.769 146.16 105.149L142.47 109.379C142.3 109.569 142.07 109.679 141.82 109.689C141.81 109.689 141.8 109.689 141.78 109.689V109.699Z" fill="#EC5F00"/>
<path d="M102.425 94.1982L72.3145 65.3638C69.9383 63.0883 69.8566 59.3132 72.1321 56.9371L77.0082 51.8452L115.72 88.9171L110.844 94.0089C108.569 96.3851 104.794 96.4668 102.418 94.1913L102.425 94.1982Z" fill="url(#paint5_linear_606_24069)"/>
<path d="M77.6304 61.7893L76.3481 63.1367L104.484 89.9117L105.767 88.5643L77.6304 61.7893Z" fill="#4653E4"/>
<path d="M102.43 94.1996L100.66 92.4996L109.66 83.1096L115.74 88.9296L110.86 94.0196C108.58 96.3996 104.82 96.4796 102.44 94.1996H102.43ZM72.3198 65.3596L74.0898 67.0596L83.0898 57.6696L77.0098 51.8496L72.1298 56.9396C69.8498 59.3196 69.9398 63.0896 72.3098 65.3596H72.3198Z" fill="url(#paint6_linear_606_24069)"/>
<path d="M78.2998 50.5098L117.01 87.5898C117.38 87.9498 117.39 88.5298 117.04 88.9098C116.69 89.2898 116.1 89.2898 115.72 88.9398L77.0098 51.8598C76.6398 51.4998 76.6298 50.9198 76.9798 50.5398C77.3298 50.1598 77.9198 50.1598 78.2998 50.5098Z" fill="#4653E4"/>
<path d="M126.718 40.6295C132.543 31.611 129.955 19.5775 120.936 13.752C111.918 7.92658 99.8841 10.5151 94.0587 19.5337C88.2332 28.5523 90.8217 40.5857 99.8403 46.4112C108.859 52.2366 120.892 49.6481 126.718 40.6295Z" fill="url(#paint7_linear_606_24069)"/>
<path opacity="0.5" d="M112.51 30.3992C114.01 28.9692 114.58 26.7292 113.74 24.6992C112.65 22.0692 109.64 20.8092 107 21.8992C104.37 22.9892 103.11 25.9992 104.2 28.6392C105.02 30.6292 106.95 31.8292 108.98 31.8192C106.03 34.0192 104.37 38.3192 105.72 41.5892L121.8 34.9392C120.46 31.6992 116.17 29.9092 112.51 30.3992Z" fill="white"/>
<path d="M106.39 8.00985L106.78 9.08985H105.63C105.63 9.08985 105.15 10.7999 106.5 11.7399C108.21 12.9399 111.26 12.2199 111.26 12.2199C111.26 12.2199 110.89 9.10985 109.18 7.90985C107.83 6.95985 106.39 7.99985 106.39 7.99985V8.00985Z" fill="url(#paint8_linear_606_24069)"/>
<path d="M132.99 26.58L132.22 25.51L133.49 25.15C133.49 25.15 133.49 23.12 131.7 22.49C129.44 21.7 126.3 23.45 126.3 23.45C126.3 23.45 127.68 26.76 129.94 27.55C131.73 28.17 132.99 26.58 132.99 26.58Z" fill="url(#paint9_linear_606_24069)"/>
<path d="M108.16 43.9694L108.18 42.5794C108.18 42.5794 106.13 41.9594 104.96 43.5794C104.6 44.0694 104.38 44.6594 104.25 45.2694C104.1 44.6594 103.86 44.0794 103.49 43.5994C102.28 42.0194 100.25 42.6794 100.25 42.6794L100.3 44.0594L98.9802 43.6394C98.9802 43.6394 97.8002 45.4294 99.0002 47.0094C99.3702 47.4994 99.8702 47.8794 100.42 48.1894C99.8002 48.1594 99.1702 48.2194 98.6002 48.4294C96.7402 49.1294 96.7902 51.2694 96.7902 51.2694L98.1302 51.6194L97.3502 52.7594C97.3502 52.7594 98.7202 54.4094 100.58 53.7094C101.07 53.5294 101.52 53.2294 101.92 52.8694C101.73 53.3494 101.6 53.8394 101.59 54.3494C101.53 56.3394 103.53 57.0994 103.53 57.0994L104.36 55.9894L105.12 57.1494C105.12 57.1494 107.16 56.4994 107.22 54.5094C107.24 53.8894 107.08 53.2594 106.84 52.6694C107.35 53.0594 107.91 53.3794 108.52 53.5194C110.45 53.9894 111.62 52.1994 111.62 52.1994L110.71 51.1594L112 50.6494C112 50.6494 111.79 48.5194 109.86 48.0494C109.37 47.9294 108.86 47.9194 108.35 47.9794C108.8 47.6894 109.21 47.3294 109.52 46.9094C110.69 45.2994 109.46 43.5394 109.46 43.5394L108.15 43.9894L108.16 43.9694Z" fill="url(#paint10_radial_606_24069)"/>
<path d="M103.95 48.649L104.15 46.879C104.17 46.699 104.43 46.689 104.46 46.879L104.75 48.639C104.76 48.729 104.85 48.789 104.94 48.769L106.69 48.419C106.87 48.379 106.95 48.629 106.79 48.709L105.21 49.529C105.13 49.569 105.1 49.669 105.15 49.749L106.03 51.299C106.12 51.459 105.91 51.619 105.78 51.489L104.51 50.239C104.45 50.179 104.34 50.179 104.28 50.239L103.07 51.549C102.95 51.679 102.73 51.539 102.81 51.369L103.61 49.769C103.65 49.689 103.61 49.589 103.54 49.559L101.92 48.819C101.75 48.739 101.83 48.499 102.01 48.519L103.77 48.789C103.86 48.799 103.94 48.739 103.95 48.649Z" fill="#FFABD3"/>
<path d="M100.45 20.6897L101.28 19.2197C101.28 19.2197 99.4503 17.3597 97.2603 18.3997C96.5903 18.7197 96.0103 19.2097 95.5103 19.7897C95.7103 19.0597 95.7903 18.2897 95.6803 17.5597C95.3203 15.1597 92.7603 14.6797 92.7603 14.6797L92.0003 16.1897L90.8303 14.9697C90.8303 14.9697 88.5202 16.1897 88.8802 18.5797C88.9902 19.3197 89.3003 20.0197 89.7103 20.6697C89.0603 20.2697 88.3602 19.9697 87.6302 19.8597C85.2302 19.5197 84.0303 21.8297 84.0303 21.8297L85.2603 22.9897L83.7603 23.7597C83.7603 23.7597 84.2603 26.3197 86.6603 26.6597C87.2903 26.7497 87.9502 26.6897 88.5902 26.5497C88.1102 26.9497 87.6803 27.3997 87.3703 27.9297C86.1403 30.0197 87.8402 32.0097 87.8402 32.0097L89.3802 31.3097L89.5202 32.9897C89.5202 32.9897 92.0802 33.4897 93.3102 31.3997C93.6902 30.7397 93.9002 29.9797 93.9902 29.2097C94.3003 29.9197 94.7203 30.5897 95.2803 31.0997C97.0703 32.7397 99.3703 31.4997 99.3703 31.4997L99.0103 29.8497L100.68 30.0697C100.68 30.0697 101.71 27.6697 99.9202 26.0397C99.4703 25.6297 98.9302 25.3197 98.3402 25.0797C98.9902 25.0297 99.6403 24.8897 100.22 24.6197C102.41 23.5797 102.13 20.9897 102.13 20.9897L100.47 20.6997L100.45 20.6897Z" fill="url(#paint11_radial_606_24069)"/>
<path d="M93.2103 23.2299L94.4703 21.4499C94.6003 21.2699 94.8803 21.4099 94.8103 21.6199L94.0903 23.6699C94.0503 23.7699 94.1103 23.8799 94.2103 23.9199L96.2903 24.5699C96.5003 24.6399 96.4503 24.9499 96.2303 24.9399L94.0603 24.8899C93.9503 24.8899 93.8603 24.9799 93.8603 25.0799L93.8903 27.2499C93.8903 27.4699 93.5803 27.5199 93.5203 27.3099L92.9003 25.2299C92.8703 25.1299 92.7603 25.0699 92.6604 25.0999L90.6003 25.7999C90.3903 25.8699 90.2503 25.5899 90.4303 25.4599L92.2203 24.2199C92.3103 24.1599 92.3303 24.0399 92.2603 23.9499L90.9603 22.2099C90.8303 22.0299 91.0503 21.8099 91.2303 21.9399L92.9603 23.2599C93.0503 23.3299 93.1703 23.3099 93.2303 23.2199L93.2103 23.2299Z" fill="#FFABD3"/>
<path d="M87.9202 42.6693L89.2702 42.3193L89.1503 43.7093C89.1503 43.7093 91.1602 44.4793 92.4502 42.9493C94.0902 41.0093 93.5403 37.2393 93.5403 37.2393C93.5403 37.2393 89.7402 37.3493 88.1002 39.2893C86.8102 40.8193 87.9103 42.6693 87.9103 42.6693H87.9202Z" fill="url(#paint12_linear_606_24069)"/>
<path d="M125.25 10.01L125.45 8.78005C125.45 8.78005 123.71 7.97005 122.47 9.24005C122.09 9.63005 121.82 10.12 121.62 10.64C121.57 10.08 121.43 9.54005 121.17 9.06005C120.31 7.50005 118.42 7.82005 118.42 7.82005L118.29 9.05005L117.17 8.51005C117.17 8.51005 115.89 9.94005 116.75 11.5C117.01 11.98 117.41 12.38 117.85 12.73C117.3 12.62 116.74 12.59 116.21 12.71C114.47 13.09 114.23 14.99 114.23 14.99L115.37 15.47L114.53 16.38C114.53 16.38 115.53 18.02 117.27 17.64C117.73 17.54 118.17 17.33 118.57 17.07C118.34 17.47 118.16 17.89 118.08 18.33C117.77 20.09 119.44 21.0201 119.44 21.0201L120.32 20.14L120.85 21.26C120.85 21.26 122.74 20.9501 123.05 19.2001C123.15 18.6501 123.09 18.0701 122.95 17.5201C123.35 17.93 123.81 18.28 124.33 18.5C125.98 19.17 127.25 17.73 127.25 17.73L126.58 16.6901L127.79 16.41C127.79 16.41 127.89 14.49 126.23 13.82C125.81 13.65 125.36 13.58 124.9 13.5601C125.34 13.3601 125.75 13.1 126.08 12.76C127.33 11.48 126.47 9.77005 126.47 9.77005L125.25 10V10.01Z" fill="url(#paint13_radial_606_24069)"/>
<path d="M120.9 13.6101L121.31 12.0602C121.35 11.9002 121.58 11.9302 121.59 12.0901L121.62 13.6901C121.62 13.7701 121.69 13.8301 121.77 13.8301L123.37 13.7401C123.53 13.7401 123.58 13.9602 123.42 14.0101L121.91 14.5301C121.83 14.5601 121.8 14.6401 121.82 14.7101L122.4 16.2002C122.46 16.3502 122.26 16.4601 122.16 16.3301L121.2 15.0501C121.15 14.9901 121.06 14.9801 121 15.0301L119.76 16.0402C119.63 16.1402 119.46 15.9802 119.56 15.8502L120.48 14.5401C120.53 14.4701 120.51 14.3901 120.44 14.3401L119.1 13.4702C118.96 13.3802 119.06 13.1702 119.22 13.2202L120.75 13.6901C120.83 13.7101 120.91 13.6702 120.93 13.5901L120.9 13.6101Z" fill="#FFABD3"/>
<path d="M201.884 32.9224C203.049 22.2494 195.341 12.6527 184.668 11.4876C173.995 10.3224 164.398 18.0301 163.233 28.7031C162.068 39.3761 169.776 48.9728 180.449 50.1379C191.122 51.3031 200.718 43.5954 201.884 32.9224Z" fill="url(#paint14_linear_606_24069)"/>
<path opacity="0.5" d="M184.04 32.3605C186.1 32.1405 187.91 30.6905 188.47 28.5705C189.2 25.8205 187.56 22.9905 184.81 22.2605C182.06 21.5305 179.23 23.1705 178.5 25.9205C177.95 28.0005 178.75 30.1205 180.37 31.3505C176.69 31.3105 172.76 33.7205 171.85 37.1405L188.67 41.6105C189.57 38.2205 187.24 34.1905 184.03 32.3605H184.04Z" fill="white"/>
<path opacity="0.3" d="M166.147 35.626C170.687 34.0193 173.065 29.0363 171.458 24.4963C169.852 19.9564 164.869 17.5786 160.329 19.1854C155.789 20.7922 153.411 25.7751 155.018 30.3151C156.625 34.855 161.607 37.2328 166.147 35.626Z" fill="#FFE65C"/>
<path opacity="0.3" d="M200.826 52.2715C203.09 48.7767 202.093 44.108 198.598 41.8436C195.103 39.5793 190.435 40.5768 188.17 44.0715C185.906 47.5663 186.903 52.235 190.398 54.4994C193.893 56.7637 198.562 55.7662 200.826 52.2715Z" fill="#FFE65C"/>
<path opacity="0.3" d="M193.341 20.3132C197.167 19.8941 199.93 16.4524 199.51 12.6258C199.091 8.79927 195.65 6.03697 191.823 6.45604C187.997 6.87512 185.234 10.3169 185.653 14.1434C186.072 17.97 189.514 20.7323 193.341 20.3132Z" fill="#FFE65C"/>
<path d="M174.04 50.6799C173.15 50.6799 172.29 50.5099 171.5 50.0499C169.49 48.8999 168.86 46.3799 168.25 43.9499C167.89 42.5099 167.52 41.0199 166.87 39.9099C166.23 38.7999 165.12 37.7399 164.05 36.7099C162.24 34.9699 160.37 33.1799 160.37 30.8699C160.37 28.4699 162.27 26.6499 164.12 24.8799C165.21 23.8399 166.24 22.8499 166.84 21.7999C167.41 20.8099 167.72 19.4599 168.05 18.0399C168.64 15.5199 169.25 12.9099 171.42 11.6499C173.59 10.3899 176.16 11.1599 178.64 11.8999C180.04 12.3199 181.36 12.7099 182.5 12.7099C183.71 12.7099 185.08 12.2999 186.52 11.8799C188.97 11.1599 191.5 10.4099 193.58 11.5999C195.59 12.7499 196.22 15.2699 196.83 17.6999C197.19 19.1399 197.56 20.6299 198.21 21.7399C198.86 22.8499 199.96 23.9099 201.03 24.9399C202.84 26.6799 204.71 28.4699 204.71 30.7799C204.71 33.1799 202.81 35.0099 200.96 36.7699C199.87 37.8099 198.84 38.7999 198.24 39.8499C197.67 40.8399 197.36 42.1899 197.03 43.6099C196.44 46.1299 195.83 48.7399 193.66 49.9999C191.49 51.2599 188.92 50.4899 186.44 49.7499C185.04 49.3299 183.7 48.9399 182.57 48.9399C181.36 48.9399 179.99 49.3499 178.54 49.7699C177.02 50.2199 175.48 50.6799 174.02 50.6799H174.04ZM174.08 12.3899C173.37 12.3899 172.7 12.5199 172.11 12.8599C170.47 13.8099 169.93 16.1199 169.41 18.3499C169.07 19.8099 168.72 21.3199 168.05 22.4899C167.35 23.7199 166.2 24.8199 165.08 25.8899C163.38 27.5199 161.77 29.0699 161.77 30.8599C161.77 32.5699 163.35 34.0899 165.02 35.6899C166.16 36.7899 167.34 37.9199 168.09 39.1999C168.83 40.4799 169.23 42.0699 169.62 43.5999C170.18 45.8499 170.71 47.9699 172.2 48.8199C173.76 49.7099 175.9 49.0799 178.16 48.4099C179.64 47.9699 181.17 47.5199 182.58 47.5199C183.93 47.5199 185.41 47.9599 186.84 48.3899C189.04 49.0499 191.31 49.7199 192.95 48.7699C194.59 47.8199 195.13 45.5099 195.65 43.2799C195.99 41.8199 196.34 40.3099 197.01 39.1399C197.71 37.9099 198.86 36.8099 199.98 35.7399C201.68 34.1099 203.29 32.5599 203.29 30.7699C203.29 29.0599 201.71 27.5399 200.04 25.9399C198.9 24.8399 197.72 23.7099 196.97 22.4299C196.23 21.1499 195.83 19.5599 195.44 18.0299C194.88 15.7799 194.35 13.6599 192.86 12.8099C191.3 11.9199 189.16 12.5499 186.9 13.2199C185.42 13.6599 183.89 14.1099 182.48 14.1099C181.13 14.1099 179.65 13.6699 178.22 13.2399C176.81 12.8199 175.36 12.3899 174.08 12.3899Z" fill="url(#paint15_linear_606_24069)"/>
<path d="M163.39 29.3499C164.969 29.3499 166.25 28.0694 166.25 26.4899C166.25 24.9103 164.969 23.6299 163.39 23.6299C161.81 23.6299 160.53 24.9103 160.53 26.4899C160.53 28.0694 161.81 29.3499 163.39 29.3499Z" fill="#FFE65C"/>
<path d="M178.83 51.9993C180.41 51.9993 181.69 50.7188 181.69 49.1393C181.69 47.5598 180.41 46.2793 178.83 46.2793C177.251 46.2793 175.97 47.5598 175.97 49.1393C175.97 50.7188 177.251 51.9993 178.83 51.9993Z" fill="#FFE65C"/>
<path d="M196.17 21.8401C197.75 21.8401 199.03 20.5597 199.03 18.9801C199.03 17.4006 197.75 16.1201 196.17 16.1201C194.591 16.1201 193.31 17.4006 193.31 18.9801C193.31 20.5597 194.591 21.8401 196.17 21.8401Z" fill="#FFE65C"/>
<path d="M196.62 48.8196C198.199 48.8196 199.48 47.5391 199.48 45.9596C199.48 44.3801 198.199 43.0996 196.62 43.0996C195.04 43.0996 193.76 44.3801 193.76 45.9596C193.76 47.5391 195.04 48.8196 196.62 48.8196Z" fill="#FFE65C"/>
<path d="M178.7 14.2893C180.279 14.2893 181.56 13.0089 181.56 11.4293C181.56 9.8498 180.279 8.56934 178.7 8.56934C177.12 8.56934 175.84 9.8498 175.84 11.4293C175.84 13.0089 177.12 14.2893 178.7 14.2893Z" fill="#FFE65C"/>
<path d="M204.693 21.4523C205.531 21.4058 206.173 20.6887 206.126 19.8505C206.08 19.0124 205.363 18.3705 204.525 18.4169C203.686 18.4633 203.044 19.1805 203.091 20.0187C203.137 20.8568 203.854 21.4987 204.693 21.4523Z" fill="#FF78B8"/>
<path d="M205.264 42.6485C206.246 42.5941 206.997 41.7544 206.943 40.7728C206.889 39.7912 206.049 39.0396 205.067 39.094C204.086 39.1483 203.334 39.9881 203.388 40.9697C203.443 41.9512 204.283 42.7029 205.264 42.6485Z" fill="#FF78B8"/>
<path d="M164.006 16.7706C164.987 16.7162 165.739 15.8764 165.685 14.8949C165.63 13.9133 164.791 13.1617 163.809 13.216C162.827 13.2704 162.076 14.1102 162.13 15.0917C162.185 16.0733 163.024 16.8249 164.006 16.7706Z" fill="#FF78B8"/>
<path d="M164.725 48.0626C165.707 48.0082 166.458 47.1684 166.404 46.1869C166.35 45.2053 165.51 44.4537 164.528 44.508C163.547 44.5624 162.795 45.4022 162.849 46.3837C162.904 47.3653 163.744 48.1169 164.725 48.0626Z" fill="#FF78B8"/>
<path d="M186.374 54.6154C186.387 53.9914 185.891 53.4755 185.267 53.4631C184.643 53.4507 184.127 53.9465 184.115 54.5704C184.102 55.1944 184.598 55.7103 185.222 55.7227C185.846 55.7351 186.362 55.2393 186.374 54.6154Z" fill="#FFC519"/>
<path d="M197.307 28.2628C197.319 27.6389 196.824 27.123 196.2 27.1106C195.576 27.0982 195.06 27.5939 195.047 28.2179C195.035 28.8418 195.531 29.3577 196.155 29.3701C196.779 29.3826 197.295 28.8868 197.307 28.2628Z" fill="#FFC519"/>
<path d="M186.067 7.87514C186.08 7.25119 185.584 6.7353 184.96 6.72288C184.336 6.71046 183.82 7.20622 183.808 7.83018C183.795 8.45414 184.291 8.97003 184.915 8.98244C185.539 8.99486 186.055 8.4991 186.067 7.87514Z" fill="#FFC519"/>
<path d="M169.116 31.4816C169.128 30.8576 168.632 30.3417 168.008 30.3293C167.384 30.3169 166.868 30.8127 166.856 31.4366C166.844 32.0606 167.339 32.5765 167.963 32.5889C168.587 32.6013 169.103 32.1055 169.116 31.4816Z" fill="#FFC519"/>
<path d="M140.43 78.0402C151.166 78.0402 159.87 69.3366 159.87 58.6002C159.87 47.8637 151.166 39.1602 140.43 39.1602C129.693 39.1602 120.99 47.8637 120.99 58.6002C120.99 69.3366 129.693 78.0402 140.43 78.0402Z" fill="url(#paint16_linear_606_24069)"/>
<path opacity="0.5" d="M142.36 59.5406C144.22 58.6406 145.44 56.6606 145.26 54.4706C145.02 51.6306 142.52 49.5306 139.69 49.7706C136.86 50.0106 134.74 52.5106 134.99 55.3406C135.17 57.4906 136.65 59.2106 138.58 59.8206C135.1 61.0206 132.22 64.6206 132.51 68.1406L149.85 66.6706C149.55 63.1806 146 60.1706 142.37 59.5306L142.36 59.5406Z" fill="white"/>
<path d="M151.07 40.37C150.08 39.85 150.07 38.44 151.05 37.9L156.13 35.1C143.51 33.81 135.07 37.04 129.99 40.26C129.04 40.86 127.8 40.18 127.82 39.05L127.93 33.25C120.5 43.54 119.08 52.47 119.33 58.49C119.38 59.61 118.16 60.33 117.2 59.75L112.24 56.75C117.43 68.33 124.46 74.03 129.8 76.82C130.79 77.34 130.8 78.75 129.82 79.29L124.74 82.09C137.36 83.38 145.8 80.15 150.88 76.93C151.83 76.33 153.07 77.01 153.05 78.14L152.94 83.94C160.37 73.65 161.79 64.72 161.54 58.7C161.49 57.58 162.71 56.86 163.67 57.44L168.63 60.44C163.44 48.86 156.41 43.16 151.07 40.37ZM141.95 76.56C132.03 77.4 123.3 70.04 122.46 60.11C121.62 50.18 128.98 41.46 138.91 40.62C148.83 39.78 157.56 47.14 158.4 57.07C159.24 66.99 151.88 75.72 141.95 76.56Z" fill="url(#paint17_linear_606_24069)"/>
<path d="M121.05 42.1299C125.71 49.0099 126.68 49.3099 134.39 46.2199C127.51 50.8799 127.21 51.8499 130.3 59.5599C125.64 52.6799 124.67 52.3799 116.96 55.4699C123.84 50.8099 124.14 49.8399 121.05 42.1299Z" fill="#57F186"/>
<path d="M133.33 70.6104C136.68 74.1704 137.27 74.2503 141.46 71.7403C137.9 75.0803 137.82 75.6804 140.34 79.8604C136.99 76.3004 136.4 76.2204 132.21 78.7304C135.77 75.3904 135.85 74.7904 133.33 70.6104Z" fill="#57F186"/>
<path d="M147.16 52.4098C150.25 53.4698 150.62 53.3298 152.31 50.5498C151.25 53.6298 151.39 54.0098 154.18 55.6998C151.09 54.6398 150.72 54.7798 149.03 57.5598C150.09 54.4798 149.95 54.0998 147.16 52.4098Z" fill="#57F186"/>
<path d="M140.4 76.9901C136.07 76.9901 131.92 75.4801 128.57 72.6501C124.82 69.4801 122.52 65.0401 122.1 60.1501C121.24 50.0401 128.77 41.1301 138.87 40.2701C143.77 39.8601 148.53 41.3701 152.28 44.5401C156.03 47.7101 158.33 52.1501 158.75 57.0401C159.17 61.9301 157.65 66.7001 154.48 70.4501C151.31 74.2001 146.87 76.5001 141.98 76.9201C141.45 76.9601 140.92 76.9901 140.4 76.9901ZM140.44 41.6101C139.96 41.6101 139.48 41.6301 138.99 41.6701C129.66 42.4601 122.71 50.7001 123.5 60.0301C123.88 64.5501 126 68.6501 129.47 71.5801C132.94 74.5101 137.34 75.9101 141.86 75.5201C146.38 75.1401 150.48 73.0201 153.41 69.5501C156.34 66.0801 157.74 61.6801 157.35 57.1601C156.6 48.3101 149.16 41.6101 140.44 41.6101Z" fill="#57F186"/>
<path d="M78.16 98.4195C76.59 97.4095 75.53 95.7695 75.26 93.9295L74.79 90.7895C74.77 90.6395 74.63 90.5195 74.48 90.5195C74.32 90.5195 74.19 90.6295 74.17 90.7895L73.7 93.9295C73.42 95.7795 72.37 97.4095 70.8 98.4195L70.39 98.6795C70.3 98.7395 70.25 98.8395 70.25 98.9495V98.9695C70.25 99.0795 70.3 99.1795 70.39 99.2395L70.8 99.4995C72.37 100.51 73.43 102.15 73.7 103.99L74.17 107.13C74.19 107.28 74.33 107.4 74.48 107.4C74.64 107.4 74.77 107.29 74.79 107.13L75.26 103.99C75.54 102.14 76.59 100.51 78.16 99.4995L78.57 99.2395C78.66 99.1795 78.71 99.0795 78.71 98.9695V98.9495C78.71 98.8395 78.66 98.7395 78.57 98.6795L78.16 98.4195Z" fill="#57F186"/>
<path d="M212.17 94.6696C210.92 93.8596 210.07 92.5496 209.85 91.0796L209.47 88.5696C209.45 88.4496 209.35 88.3496 209.22 88.3496C209.09 88.3496 208.99 88.4396 208.97 88.5696L208.59 91.0796C208.37 92.5596 207.52 93.8696 206.27 94.6696L205.94 94.8796C205.87 94.9296 205.82 95.0096 205.82 95.0896V95.1096C205.82 95.1996 205.86 95.2796 205.94 95.3196L206.27 95.5296C207.52 96.3396 208.37 97.6496 208.59 99.1196L208.97 101.63C208.99 101.75 209.09 101.85 209.22 101.85C209.35 101.85 209.45 101.76 209.47 101.63L209.85 99.1196C210.07 97.6396 210.92 96.3296 212.17 95.5296L212.5 95.3196C212.57 95.2696 212.62 95.1896 212.62 95.1096V95.0896C212.62 94.9996 212.58 94.9196 212.5 94.8796L212.17 94.6696Z" fill="#8BD8FF"/>
<path d="M61.3 32.54C59.21 31.19 57.8 29.01 57.43 26.55L56.8 22.36C56.77 22.15 56.59 22 56.38 22C56.17 22 55.99 22.15 55.96 22.36L55.33 26.55C54.96 29.01 53.55 31.19 51.46 32.54L50.92 32.89C50.8 32.97 50.73 33.1 50.73 33.24V33.27C50.73 33.41 50.8 33.55 50.92 33.62L51.46 33.97C53.55 35.32 54.96 37.5 55.33 39.96L55.96 44.15C55.99 44.36 56.17 44.51 56.38 44.51C56.59 44.51 56.77 44.36 56.8 44.15L57.43 39.96C57.8 37.5 59.21 35.32 61.3 33.97L61.84 33.62C61.96 33.54 62.03 33.41 62.03 33.27V33.24C62.03 33.1 61.96 32.96 61.84 32.89L61.3 32.54Z" fill="#FFE65C"/>
<path d="M227.51 75.6796C225.26 74.2296 223.75 71.8896 223.35 69.2396L222.68 64.7396C222.65 64.5196 222.46 64.3496 222.23 64.3496C222.01 64.3496 221.82 64.5096 221.78 64.7396L221.11 69.2396C220.71 71.8796 219.2 74.2296 216.95 75.6796L216.37 76.0596C216.24 76.1396 216.16 76.2896 216.16 76.4396V76.4696C216.16 76.6196 216.24 76.7696 216.37 76.8496L216.95 77.2296C219.2 78.6796 220.71 81.0196 221.11 83.6696L221.78 88.1696C221.81 88.3896 222 88.5596 222.23 88.5596C222.45 88.5596 222.64 88.3996 222.68 88.1696L223.35 83.6696C223.75 81.0296 225.26 78.6796 227.51 77.2296L228.09 76.8496C228.22 76.7696 228.3 76.6196 228.3 76.4696V76.4396C228.3 76.2896 228.22 76.1396 228.09 76.0596L227.51 75.6796Z" fill="#FF78B8"/>
</g>
<defs>
<linearGradient id="paint0_linear_606_24069" x1="318.2" y1="155.11" x2="-8.56" y2="-14.34" gradientUnits="userSpaceOnUse">
<stop offset="0.09" stop-color="#5821D8"/>
<stop offset="0.28" stop-color="#8532CB"/>
<stop offset="0.45" stop-color="#A83FC2"/>
<stop offset="0.54" stop-color="#B645BF"/>
<stop offset="0.8" stop-color="#E090A8"/>
<stop offset="0.9" stop-color="#EFBA81"/>
<stop offset="1" stop-color="#FFE55C"/>
</linearGradient>
<radialGradient id="paint1_radial_606_24069" cx="0" cy="0" r="1" gradientUnits="userSpaceOnUse" gradientTransform="translate(142.596 114.965) rotate(-89.98) scale(104.914 98.6076)">
<stop stop-color="#FFE65C" stop-opacity="0.75"/>
<stop offset="0.09" stop-color="#FFE459" stop-opacity="0.72"/>
<stop offset="0.24" stop-color="#FFE151" stop-opacity="0.64"/>
<stop offset="0.42" stop-color="#FFDB45" stop-opacity="0.5"/>
<stop offset="0.62" stop-color="#FFD234" stop-opacity="0.31"/>
<stop offset="0.84" stop-color="#FFC81F" stop-opacity="0.08"/>
<stop offset="0.9" stop-color="#FFC519" stop-opacity="0"/>
</radialGradient>
<linearGradient id="paint2_linear_606_24069" x1="142.53" y1="88.2696" x2="142.53" y2="133.5" gradientUnits="userSpaceOnUse">
<stop stop-color="#5865F1"/>
<stop offset="0.47" stop-color="#5360ED"/>
<stop offset="1" stop-color="#4653E4"/>
</linearGradient>
<linearGradient id="paint3_linear_606_24069" x1="142.53" y1="118.67" x2="142.53" y2="87.9296" gradientUnits="userSpaceOnUse">
<stop stop-color="#6C78F8"/>
<stop offset="0.08" stop-color="#6E7AF8"/>
<stop offset="0.55" stop-color="#7B85FD"/>
<stop offset="1" stop-color="#8089FF"/>
</linearGradient>
<linearGradient id="paint4_linear_606_24069" x1="142.53" y1="83.8297" x2="142.53" y2="114.38" gradientUnits="userSpaceOnUse">
<stop offset="0.11" stop-color="#6C78F8"/>
<stop offset="0.75" stop-color="#7983FC"/>
<stop offset="1" stop-color="#8089FF"/>
</linearGradient>
<linearGradient id="paint5_linear_606_24069" x1="87.3591" y1="79.7848" x2="119.354" y2="46.3738" gradientUnits="userSpaceOnUse">
<stop stop-color="#5865F1"/>
<stop offset="0.47" stop-color="#5360ED"/>
<stop offset="1" stop-color="#4653E4"/>
</linearGradient>
<linearGradient id="paint6_linear_606_24069" x1="97.5598" y1="69.0896" x2="87.9898" y2="79.2196" gradientUnits="userSpaceOnUse">
<stop stop-color="#6C78F8"/>
<stop offset="0.08" stop-color="#6E7AF8"/>
<stop offset="0.55" stop-color="#7B85FD"/>
<stop offset="1" stop-color="#8089FF"/>
</linearGradient>
<linearGradient id="paint7_linear_606_24069" x1="119.01" y1="48.0986" x2="102.25" y2="13.0786" gradientUnits="userSpaceOnUse">
<stop stop-color="#6C78F8"/>
<stop offset="0.08" stop-color="#6E7AF8"/>
<stop offset="0.55" stop-color="#7B85FD"/>
<stop offset="1" stop-color="#8089FF"/>
</linearGradient>
<linearGradient id="paint8_linear_606_24069" x1="105.44" y1="8.07985" x2="115.56" y2="15.4899" gradientUnits="userSpaceOnUse">
<stop stop-color="#FFABD3"/>
<stop offset="0.5" stop-color="#FF8CC2"/>
<stop offset="0.91" stop-color="#FF78B8"/>
<stop offset="1" stop-color="#FF78B8"/>
</linearGradient>
<linearGradient id="paint9_linear_606_24069" x1="133.336" y1="25.9533" x2="121.107" y2="21.3743" gradientUnits="userSpaceOnUse">
<stop stop-color="#FFABD3"/>
<stop offset="0.5" stop-color="#FF8CC2"/>
<stop offset="0.91" stop-color="#FF78B8"/>
<stop offset="1" stop-color="#FF78B8"/>
</linearGradient>
<radialGradient id="paint10_radial_606_24069" cx="0" cy="0" r="1" gradientUnits="userSpaceOnUse" gradientTransform="translate(112.309 50.678) rotate(-50.3) scale(7.4688)">
<stop offset="0.11" stop-color="#FF78B8"/>
<stop offset="1" stop-color="#FFABD3"/>
</radialGradient>
<radialGradient id="paint11_radial_606_24069" cx="0" cy="0" r="1" gradientUnits="userSpaceOnUse" gradientTransform="translate(88.6939 22.1292) rotate(-21.57) scale(9.2193 9.2193)">
<stop offset="0.11" stop-color="#FF78B8"/>
<stop offset="1" stop-color="#FFABD3"/>
</radialGradient>
<linearGradient id="paint12_linear_606_24069" x1="88.5303" y1="43.6893" x2="95.3702" y2="33.6493" gradientUnits="userSpaceOnUse">
<stop stop-color="#FFABD3"/>
<stop offset="0.5" stop-color="#FF8CC2"/>
<stop offset="0.91" stop-color="#FF78B8"/>
<stop offset="1" stop-color="#FF78B8"/>
</linearGradient>
<radialGradient id="paint13_radial_606_24069" cx="0" cy="0" r="1" gradientUnits="userSpaceOnUse" gradientTransform="translate(116.276 11.6224) rotate(-41.94) scale(6.7686)">
<stop offset="0.11" stop-color="#FF78B8"/>
<stop offset="1" stop-color="#FFABD3"/>
</radialGradient>
<linearGradient id="paint14_linear_606_24069" x1="175.055" y1="48.5412" x2="189.555" y2="14.2812" gradientUnits="userSpaceOnUse">
<stop stop-color="#6C78F8"/>
<stop offset="0.08" stop-color="#6E7AF8"/>
<stop offset="0.55" stop-color="#7B85FD"/>
<stop offset="1" stop-color="#8089FF"/>
</linearGradient>
<linearGradient id="paint15_linear_606_24069" x1="160.37" y1="30.8199" x2="204.72" y2="30.8199" gradientUnits="userSpaceOnUse">
<stop stop-color="#FFE65C"/>
<stop offset="0.33" stop-color="#FFC519"/>
<stop offset="1" stop-color="#FFC519"/>
</linearGradient>
<linearGradient id="paint16_linear_606_24069" x1="141.86" y1="77.8702" x2="139.11" y2="40.8602" gradientUnits="userSpaceOnUse">
<stop stop-color="#6C78F8"/>
<stop offset="0.08" stop-color="#6E7AF8"/>
<stop offset="0.55" stop-color="#7B85FD"/>
<stop offset="1" stop-color="#8089FF"/>
</linearGradient>
<linearGradient id="paint17_linear_606_24069" x1="126.949" y1="30.7752" x2="153.227" y2="85.0248" gradientUnits="userSpaceOnUse">
<stop offset="0.26" stop-color="#FF78B8"/>
<stop offset="0.39" stop-color="#E474C1"/>
<stop offset="0.65" stop-color="#A06DD8"/>
<stop offset="0.9" stop-color="#5865F1"/>
</linearGradient>
<clipPath id="clip0_606_24069">
<rect width="285" height="128" fill="white"/>
</clipPath>
</defs>
</svg>
