<svg width="132" height="132" viewBox="0 0 132 132" fill="none" xmlns="http://www.w3.org/2000/svg">
<circle id="Ellipse" cx="66" cy="66" r="66" fill="#30281F"/>
<g id="Logo - Symbol" transform="translate(26,36)" opacity="0.1">
  <path d="M67.4903 5.72522C62.3636 3.3496 56.8818 1.62303 51.1508 0.640015C50.4469 1.90029 49.6246 3.59536 49.0577 4.94385C42.9654 4.03645 36.9292 4.03645 30.949 4.94385C30.3822 3.59536 29.5412 1.90029 28.831 0.640015C23.0938 1.62303 17.6058 3.3559 12.479 5.73782C2.13832 21.214 -0.664886 36.3058 0.736715 51.1833C7.59522 56.2559 14.2419 59.3373 20.7765 61.3537C22.3899 59.1545 23.8289 56.8167 25.0685 54.3529C22.7076 53.4644 20.4464 52.368 18.3097 51.0951C18.8766 50.6792 19.431 50.2444 19.9667 49.797C32.9985 55.8337 47.1578 55.8337 60.0338 49.797C60.5758 50.2444 61.1302 50.6792 61.6908 51.0951C59.5479 52.3743 57.2804 53.4707 54.9195 54.3592C56.1592 56.8167 57.5919 59.1608 59.2115 61.36C65.7523 59.3436 72.4053 56.2622 79.2638 51.1833C80.9083 33.9364 76.4544 18.9833 67.4903 5.72522ZM26.8439 42.0337C22.9319 42.0337 19.7237 38.4167 19.7237 34.0121C19.7237 29.6074 22.8633 25.9841 26.8439 25.9841C30.8244 25.9841 34.0325 29.6011 33.964 34.0121C33.9702 38.4167 30.8244 42.0337 26.8439 42.0337ZM53.1566 42.0337C49.2446 42.0337 46.0365 38.4167 46.0365 34.0121C46.0365 29.6074 49.1761 25.9841 53.1566 25.9841C57.1372 25.9841 60.3453 29.6011 60.2768 34.0121C60.2768 38.4167 57.1372 42.0337 53.1566 42.0337Z" fill="white"/>
</g>
</svg>
