<svg width="103" height="100" viewBox="0 0 103 100" fill="none" xmlns="http://www.w3.org/2000/svg">
<path d="M57.4711 0.14209C74.4139 0.14209 85.7588 15.2935 83.2958 31.0421C81.3552 43.5812 64.4124 64.4051 58.2921 66.4204L60.9045 69.9283C61.1818 70.3095 61.3475 70.7603 61.383 71.2304C61.4184 71.7004 61.3223 72.171 61.1053 72.5895C60.8883 73.008 60.5591 73.3577 60.1545 73.5996C59.7499 73.8414 59.2859 73.9658 58.8146 73.9588H56.053C55.588 73.952 55.1338 73.8176 54.74 73.5703C54.3463 73.323 54.028 72.9722 53.82 72.5562C53.6121 72.1403 53.5224 71.6752 53.5608 71.2118C53.5992 70.7483 53.7642 70.3044 54.0378 69.9283L56.5755 66.4204C50.5298 64.4051 33.5871 43.5812 31.5718 31.0421C29.1088 15.2935 40.5284 0.14209 57.4711 0.14209Z" fill="#FF52D2"/>
<path d="M82.6984 33.7292H82.3253C82.1013 33.7292 82.0267 33.9531 81.8774 34.0277L81.5789 34.3263V34.7741C81.8774 34.9234 81.7282 35.3712 82.0267 35.4458H82.176C81.2922 37.8412 80.219 40.1623 78.9666 42.3871L78.5187 41.8647H78.1455C77.9963 42.0886 77.6977 42.0886 77.5484 42.2379C77.3992 42.3871 77.4738 42.6857 77.2499 42.7603V43.1335L77.9216 43.8799H78.1455C76.9513 45.9698 75.6079 48.1342 74.1897 50.1495C73.7563 50.2528 73.3653 50.4874 73.0702 50.8212V51.5676H73.1448L70.7564 54.7024L70.4579 54.4038H69.4876C69.2776 54.538 69.0993 54.7163 68.9651 54.9263V55.8966L69.4129 56.3444L66.8006 59.3299V59.0313C66.6301 58.8475 66.4278 58.6958 66.2035 58.5835H65.3825L64.86 58.8074V59.0313L64.7108 59.2553V60.0016L65.3825 60.6734H65.6064C64.6973 61.6563 63.7249 62.5788 62.6955 63.435C62.6209 63.2111 62.4716 63.1364 62.3224 62.9871L61.7999 62.6886H61.4267C61.2774 62.8379 61.1282 62.8379 60.9789 62.9125L60.5311 63.435V64.4053L61.1282 64.9277C60.2541 65.59 59.3015 66.1416 58.2919 66.5698L60.9042 70.0777C61.116 70.3958 61.2677 70.75 61.3521 71.1226C61.2953 71.1554 61.231 71.1726 61.1655 71.1726C61.1 71.1726 61.0356 71.1554 60.9789 71.1226L60.5311 71.7198C60.4564 71.869 60.5311 72.0929 60.3818 72.1676L60.5311 72.8393L60.8296 73.1379C60.5984 73.4518 60.2939 73.7043 59.9426 73.8735C59.5913 74.0426 59.204 74.1232 58.8144 74.1082H56.0528C55.6651 74.1111 55.2819 74.0252 54.9325 73.857C54.5832 73.6888 54.277 73.4428 54.0376 73.1379L54.4108 72.69C54.4854 72.69 54.2615 72.3915 54.6347 72.3169L54.4108 72.0183V71.4958L53.8883 71.048H53.5897C53.6408 70.6427 53.795 70.2572 54.0376 69.9284L56.5753 66.4205C55.5824 66.0051 54.6528 65.4524 53.8137 64.7784L54.3361 64.256V63.2857L53.8883 62.7632L53.5151 62.614H53.0673L52.5448 62.9125C52.38 63.0539 52.252 63.2332 52.1716 63.435C51.276 62.6886 50.3803 61.7183 49.3354 60.748L49.7832 60.5241L50.0071 60.0016V59.106L49.5593 58.5835H48.589L48.3651 58.8074H48.2158L47.9919 59.2553L45.4542 56.419L45.9021 55.8966V54.9263L45.3796 54.4784H44.484L44.1854 54.777L41.7224 51.5676C41.7827 51.453 41.8086 51.3234 41.797 51.1944V50.8958C41.6477 50.6719 41.4238 50.5227 41.4238 50.448L40.7521 50.1495C39.296 48.1084 37.9505 45.9906 36.7216 43.8053H37.0202L37.468 43.2082V42.6857L36.647 41.8647C36.4231 41.79 36.1992 42.0886 35.9753 42.1632H35.826C34.6309 39.9564 33.6079 37.6607 32.7658 35.2966H32.8405C33.139 35.1473 33.0644 34.7741 33.3629 34.6248V34.2516L32.6166 33.5799H32.1687C31.9448 32.6096 31.7209 31.714 31.5716 30.8929C30.9244 26.7238 31.2306 22.4622 32.4673 18.4284H32.8405L33.139 17.906C33.139 17.6821 32.9897 17.6074 32.8405 17.5328C34.1264 13.8264 36.2398 10.4618 39.0203 7.6942C41.8008 4.92664 45.1753 2.82893 48.8876 1.56033C48.9622 1.56033 49.1115 1.48569 49.1861 1.56033L49.3354 1.41106C51.9634 0.561929 54.7091 0.133694 57.4709 0.142215C60.1768 0.151104 62.867 0.55338 65.4571 1.33642C65.5318 1.56033 65.7557 1.41105 65.905 1.48569H65.9796C69.6839 2.76891 73.0508 4.87168 75.8293 7.63725C78.6078 10.4028 80.7262 13.7599 82.0267 17.4582L81.7282 17.8313L82.0267 18.4284L82.3999 18.5777C83.6366 22.6115 83.9428 26.8731 83.2955 31.0422C83.1522 31.9493 82.9528 32.8467 82.6984 33.7292ZM33.139 21.7125L32.8405 21.414H32.0195L31.7209 21.7125V22.5335L32.0195 22.7574H32.6166L33.139 22.235V21.7125ZM33.139 25.8176L32.8405 25.5937H32.0195L31.497 26.1161C31.4224 26.4147 31.8702 26.564 31.7955 26.9371H32.0195L32.2434 27.0864H32.6166L33.139 26.6386V25.8176ZM32.9897 29.7734L32.3926 29.4748C32.318 29.7734 32.0195 29.6241 31.8702 29.6987L31.5716 30.2212V30.7437L32.0195 31.2661H32.6166L33.139 30.9676C33.2137 30.8183 32.9897 30.5198 33.2883 30.4451C33.2343 30.2036 33.1328 29.9753 32.9897 29.7734ZM35.6767 39.2524C35.8473 39.4363 36.0495 39.5879 36.2738 39.7002H36.7216L37.2441 39.4763C37.2409 39.3888 37.2598 39.302 37.2989 39.2238C37.338 39.1455 37.3962 39.0784 37.468 39.0284V38.506C37.3934 38.2821 37.0948 38.1328 37.0202 37.9835H35.9753L35.6767 38.2074V39.2524ZM35.6767 26.34L35.9753 26.8625H36.1992L36.3484 27.0118H36.7963L37.2441 26.564V25.8176L37.0202 25.5937H36.1245L35.6767 26.1161V26.34ZM37.2441 22.3096V21.7125L36.9455 21.414H36.1992L35.9006 21.7125V22.5335L36.2738 22.7574H36.7963L37.2441 22.3096ZM37.0202 13.4277L36.7216 13.1292H36.1992L35.9006 13.4277V13.8755L36.4231 14.3234H36.7963L37.0202 14.0248V13.4277ZM36.7963 17.3089H36.1992L35.9006 17.5328V18.2045L36.5724 18.6524L36.7216 18.5031H37.0202L37.2441 17.906C37.1695 17.6074 36.9455 17.4582 36.7963 17.3089ZM37.2441 29.9973C37.2441 29.9181 37.2126 29.8422 37.1567 29.7862C37.1007 29.7302 37.0247 29.6987 36.9455 29.6987C36.8677 29.7051 36.7899 29.687 36.7229 29.6468C36.656 29.6066 36.6033 29.5465 36.5724 29.4748L36.3484 29.6987H35.9753L35.6767 30.2212V30.8183L36.3484 31.2661H36.7216L37.2441 30.9676V30.5944L37.468 30.3705C37.3963 30.3395 37.3362 30.2868 37.296 30.2199C37.2559 30.153 37.2377 30.0751 37.2441 29.9973ZM37.468 34.4009C37.2383 34.1337 36.9888 33.8842 36.7216 33.6545C36.6779 33.6285 36.6293 33.6117 36.5788 33.6051C36.5284 33.5985 36.4771 33.6024 36.4282 33.6163C36.3792 33.6303 36.3337 33.6542 36.2943 33.6864C36.2549 33.7186 36.2225 33.7586 36.1992 33.8038C35.9753 33.8038 35.9006 33.9531 35.6767 34.1024V34.9234L36.1992 35.3712H36.9455C37.2441 35.2966 37.2441 34.9234 37.3934 34.6995C37.4527 34.6119 37.4792 34.5061 37.468 34.4009ZM39.6325 42.7603V43.1335L40.3042 43.8799H41.1253L41.5731 43.3574V42.5364L40.9013 41.8647H40.6028L40.2296 42.0886C40.0057 42.0886 39.9311 42.2379 39.8564 42.3871C39.7818 42.5364 39.7818 42.6857 39.6325 42.7603ZM41.5731 39.0284V38.506C41.4984 38.2821 41.2745 38.1328 41.1253 37.9835H40.155L39.8564 38.2074V39.2524L40.3789 39.7002H40.8267L41.3492 39.4763C41.4084 39.3198 41.4834 39.1697 41.5731 39.0284ZM39.8564 26.34L40.0803 26.8625H40.3042L40.5282 27.0118H40.9013L41.4238 26.564V25.8176L41.1253 25.5937H40.3042C40.1197 25.7342 39.9671 25.9123 39.8564 26.1161V26.34ZM41.4238 22.0857V21.7125L41.1253 21.414H40.3042L40.0057 21.7125V22.4589L40.3042 22.7574H40.976L41.4238 22.0857ZM41.1999 9.32265L40.8267 9.0241H40.5282L40.0803 9.47192L40.3042 9.99439H40.5282L40.6774 10.2183L41.1999 9.69584V9.32265ZM41.1999 13.4277L40.9013 13.1292H40.3042L40.0057 13.4277V13.8009L40.5282 14.3234H40.9013L41.1999 14.0248V13.4277ZM40.9013 17.3089H40.3042L40.0057 17.5328V18.2045L40.6774 18.6524L41.1253 18.4284C41.2095 18.2221 41.3093 18.0225 41.4238 17.8313L40.9013 17.3089ZM41.4238 30.0719L41.2745 29.848C41.2398 29.8017 41.1947 29.764 41.1429 29.7381C41.0911 29.7122 41.0339 29.6987 40.976 29.6987L40.6774 29.4748L40.5282 29.6987H40.155L39.8564 30.2212V30.7437L40.4535 31.2661H40.8267L41.3492 30.9676C41.4984 30.8183 41.2745 30.5198 41.5731 30.4451C41.8716 30.3705 41.4238 30.2212 41.4238 30.0719ZM41.5731 34.3263L40.8267 33.6545H40.5282L39.8564 34.0277V34.9234L40.3042 35.3712H41.1253C41.1999 35.2966 41.3492 35.2219 41.3492 35.1473C41.3492 35.0726 41.7224 34.6995 41.5731 34.3263ZM41.797 46.94C41.5731 46.7161 41.5731 46.3429 41.2745 46.1937H40.3042L39.8564 46.7908V47.6864L40.0057 47.8357L40.5282 48.2089H41.1253L41.797 47.4625V46.94ZM47.9173 55.7473C48.1412 55.8966 48.0666 56.1951 48.2158 56.3444C48.3651 56.4937 48.6637 56.419 48.8129 56.6429H49.3354L50.0818 55.9712V55.0009L49.5593 54.4784H48.589L47.9173 55.1502V55.7473ZM44.484 52.314H45.1557L45.6782 52.09V51.7915L45.8274 51.6422V50.8212C45.6782 50.6719 45.5289 50.448 45.3796 50.3734C45.2303 50.2987 45.0811 50.1495 44.8571 50.1495L44.5586 50.3734H44.1854L43.8868 50.6719V51.0451L43.6629 51.269C43.8156 51.6974 44.1039 52.0643 44.484 52.314ZM43.9615 46.7908V47.6864C44.1108 47.8357 44.1854 47.985 44.3347 47.985C44.484 47.985 44.5586 48.1342 44.6332 48.2089H45.2303C45.4149 47.9488 45.642 47.7217 45.9021 47.5371V46.94C45.6782 46.7161 45.7528 46.3429 45.4542 46.1937H44.4093L43.9615 46.7908ZM43.9615 39.0284L44.26 39.5509C44.484 39.4763 44.5586 39.6255 44.6332 39.7002H45.2303L45.7528 39.2524V38.2074L45.4542 37.9835H44.4093L43.9615 38.5806V39.0284ZM43.9615 30.3705L44.1854 30.5944V30.9676L44.7079 31.2661H45.2303L45.6782 30.7437V30.2212L45.4542 29.6987H45.0064L44.8571 29.5495C44.7079 29.6987 44.484 29.6987 44.26 29.848C44.0361 29.9973 44.26 30.2958 43.9615 30.3705ZM45.305 5.14294L45.0064 4.84439H44.6332L44.4093 5.44149L44.8571 5.81468L45.305 5.59076V5.14294ZM45.0064 9.0241H44.6332L44.3347 9.24801V9.69584L44.8571 10.1437L45.305 9.91975L45.5289 9.47192L45.0064 9.0241ZM45.5289 13.4277L45.2303 13.1292H44.6332L44.4093 13.4277V14.0248L44.6332 14.3234H45.0064C45.2164 14.1892 45.3947 14.0109 45.5289 13.8009V13.4277ZM45.5289 17.6074L45.2303 17.3089H44.6332L44.1854 17.906C44.2874 18.0671 44.363 18.2435 44.4093 18.4284L45.0064 18.6524C45.2303 18.5777 45.305 18.3538 45.5289 18.1299V17.6074ZM44.1854 21.7125V22.3096L44.6332 22.7574H45.2303L45.5289 22.4589V21.7125L45.2303 21.414H44.484L44.1854 21.7125ZM45.1557 25.5937H44.4093L44.1854 25.8176C44.1108 25.8922 44.1854 26.1161 44.1854 26.2654C44.1854 26.4147 44.1854 26.4893 44.1854 26.6386L44.6332 27.0864H45.0064L45.4542 26.8625C45.6105 26.6129 45.7122 26.3331 45.7528 26.0415L45.1557 25.5937ZM45.6035 34.0277C45.6035 33.9881 45.5878 33.9502 45.5598 33.9222C45.5318 33.8942 45.4938 33.8784 45.4542 33.8784L45.0064 33.6545H44.7825L43.9615 34.4755C44.0163 34.8293 44.203 35.1493 44.484 35.3712H45.2303L45.7528 34.8487V34.177C45.6782 34.1024 45.6782 34.0277 45.6035 34.0277ZM45.6782 42.3871C45.6803 42.3193 45.6593 42.2528 45.6186 42.1986C45.5779 42.1443 45.5199 42.1055 45.4542 42.0886C45.1557 42.0886 45.0064 41.7154 44.5586 41.9393L43.9615 42.5364V43.3574L44.4093 43.8799H45.1557L45.9021 43.2082C46.0513 42.835 45.7528 42.6111 45.6782 42.3871ZM48.589 52.314H49.2608L49.7832 52.09C49.8579 51.9408 49.8579 51.7169 50.0818 51.6422V50.8212L49.634 50.448L49.0369 50.1495L48.3651 50.3734L48.0666 50.6719V51.0451L47.9173 51.269C47.9426 51.4828 48.0163 51.6879 48.1327 51.869C48.249 52.05 48.4051 52.2022 48.589 52.314ZM48.0666 46.7161V47.6864C48.2158 47.985 48.589 47.9103 48.7383 48.2089H49.3354L50.0818 47.3879V46.94L49.634 46.1937H48.589C48.4549 46.4037 48.2766 46.582 48.0666 46.7161ZM48.0666 38.9538C48.1937 39.1107 48.2945 39.2871 48.3651 39.4763L48.8129 39.7002H49.41L49.8579 39.1777V38.2074L49.4847 37.9835H48.589L48.0666 38.4313V38.9538ZM48.0666 30.3705L48.2905 30.5944V30.9676L48.8129 31.2661H49.41C49.5281 31.0455 49.6791 30.8442 49.8579 30.669V30.2212L49.5593 29.6987H49.1861L48.9622 29.4748C48.8876 29.6987 48.589 29.6241 48.4397 29.848C48.2905 30.0719 48.3651 30.2958 48.0666 30.3705ZM48.2905 22.3096L48.8129 22.7574H49.41L49.634 22.4589V21.7125L49.41 21.414H48.589L48.2905 21.7125V22.3096ZM49.41 5.14294L49.1861 4.84439H48.8129L48.5144 5.44149L49.0369 5.81468L49.41 5.59076V5.14294ZM49.1861 9.0241H48.8129L48.5144 9.32265V9.69584L49.0369 10.1437L49.41 9.91975V9.69584L49.5593 9.47192L49.1861 9.0241ZM48.5144 13.4277V14.0248L48.7383 14.3234H49.1861L49.634 13.8009V13.4277L49.41 13.1292H48.8129L48.5144 13.4277ZM49.634 17.6074L49.41 17.3089H48.7383L48.2905 17.906L48.5144 18.4284L49.1115 18.6524C49.3365 18.5378 49.5194 18.3549 49.634 18.1299V17.6074ZM49.8579 26.0415C49.7035 25.8486 49.5282 25.6734 49.3354 25.519H48.589L48.2905 25.8176V26.6386L48.8129 27.0118C49.1115 27.3103 49.3354 26.9371 49.634 26.8625C49.9325 26.7879 49.9325 26.4147 49.8579 26.0415ZM49.8579 34.1024C49.7832 34.0277 49.7086 33.8784 49.634 33.8784C49.5593 33.8784 49.1115 33.5053 48.8129 33.6545L48.0666 34.4009V34.6248L48.5144 35.3712H49.41L49.8579 34.9234V34.1024ZM50.0071 42.7603C49.8579 42.5364 49.8579 42.1632 49.634 42.1632C49.41 42.1632 49.1115 41.79 48.8129 41.8647L48.0666 42.6111V43.3574L48.6637 43.8799H49.3354L50.0818 43.0589C50.0818 43.0589 50.0818 42.835 50.0071 42.7603ZM60.5311 60.0763L61.2028 60.748H61.9492L62.1731 60.5987H62.397L62.6955 60.0016V59.106L62.0238 58.6582H61.2028L60.755 58.8821L60.5311 59.4045V60.0763ZM62.6955 55.9712V55.0009L62.1731 54.4784H61.2028L60.5311 55.2248V55.7473C60.755 55.8966 60.6803 56.1205 60.8296 56.3444C60.9789 56.5683 61.2774 56.419 61.3521 56.6429H61.9492L62.6955 55.9712ZM56.2021 72.4661C56.3513 72.6154 56.2767 72.914 56.5006 73.0632L57.0977 73.3618H57.8441L58.5158 72.69V72.3169L58.7397 72.0929L58.5158 71.869V71.4958L58.068 71.048H57.6948L57.4709 70.8241L57.247 71.048H56.8738L56.2021 71.7198V72.4661ZM56.426 67.3161C56.3513 67.4654 56.3513 67.6893 56.2021 67.764V68.3611C56.2935 68.4645 56.3462 68.5963 56.3513 68.7342C56.426 68.8835 56.5753 69.0328 56.6499 69.0328C56.7277 69.0264 56.8056 69.0446 56.8725 69.0847C56.9395 69.1249 56.9921 69.185 57.0231 69.2567H57.5455C57.9385 69.1145 58.2776 68.8537 58.5158 68.5103V67.6147L58.2919 67.0922H57.9934L57.8441 66.8683H56.8738L56.426 67.3161ZM52.2463 60.0763L52.4702 60.5241L52.9926 60.748H53.6644L54.4108 60.0016V59.3299L54.1122 58.8821H53.8883L53.6644 58.6582H52.6941L52.2463 59.1806V60.0763ZM52.2463 55.8219L53.0673 56.6429H53.4405L54.0376 56.2697C54.1785 56.0816 54.3034 55.8818 54.4108 55.6727V55.2995L53.5897 54.4784H52.6941L52.2463 55.1502V55.8219ZM53.739 25.5937H52.918L52.3955 26.1161V26.4893L52.6195 26.7132V26.9371C52.918 27.0118 53.1419 27.2357 53.5151 27.1611C53.6996 27.0205 53.8522 26.8424 53.9629 26.6386V25.9669L53.739 25.5937ZM53.9629 22.1603V21.7125L53.739 21.414H52.918C52.8434 21.5632 52.6941 21.6379 52.6195 21.7125V22.5335L52.918 22.7574H53.5151C53.699 22.5869 53.8507 22.3846 53.9629 22.1603ZM53.5897 1.03787L53.3658 0.739316L52.8434 1.18714L53.1419 1.56033H53.5151C53.6644 1.41106 53.5897 1.18714 53.5897 1.03787ZM53.5151 4.91903H53.0673L52.8434 5.14294V5.59076L53.3658 5.81468L53.739 5.36685L53.5151 4.91903ZM53.8137 9.24801L53.5151 9.0241H53.1419L52.6941 9.54656L52.8434 9.91975L53.3658 10.1437L53.8137 9.69584V9.24801ZM53.8137 13.4277L53.5151 13.1292H52.918L52.6195 13.4277V13.8009L53.1419 14.3234H53.5151L53.8137 14.0248V13.4277ZM53.5151 17.3089H52.918L52.6195 17.6074V18.2045L53.2912 18.6524L53.5151 18.5031C53.5151 18.4284 53.6644 18.4284 53.739 18.4284L54.0376 17.8313C53.8827 17.6389 53.7076 17.4637 53.5151 17.3089ZM53.8137 29.7734L53.2912 29.4748C53.1419 29.7734 52.918 29.6241 52.6941 29.6987C52.4702 29.7734 52.7687 30.1466 52.3955 30.1466V30.7437L52.918 31.2661H53.5151C53.5897 31.1169 53.8137 31.0422 53.9629 30.9676C54.1122 30.8929 53.8883 30.5198 54.1868 30.3705C54.4854 30.2212 54.0376 29.9226 53.8137 29.7734ZM52.3955 38.2074V39.2524L52.918 39.7002H53.5151C53.5897 39.6255 53.6644 39.4763 53.8883 39.5509C53.9726 39.3446 54.0724 39.145 54.1868 38.9538V38.4313L53.5151 37.9835H52.6941L52.3955 38.2074ZM54.1868 34.3263L53.5151 33.6545H53.2166C52.9926 33.8038 52.6195 33.8038 52.4702 34.1024V34.9234L53.0673 35.3712H53.739C53.9629 35.2219 53.9629 34.9234 54.1868 34.6995V34.3263ZM54.1868 42.6111L53.4405 41.8647H53.0673C52.918 42.014 52.5448 42.014 52.4702 42.2379C52.3955 42.4618 52.097 42.7603 52.2463 43.0589L52.9926 43.8053H53.739L54.1868 43.2082V42.6111ZM52.2463 46.8654V47.4625L52.9926 48.1342H53.5151L54.1868 47.7611V46.7161L53.739 46.1937H52.7687C52.4702 46.3429 52.4702 46.7161 52.2463 46.8654ZM54.1868 51.0451V50.6719L53.8883 50.3734H53.5151L53.2912 50.1495C53.1419 50.0748 53.0673 50.2987 52.918 50.3734C52.8485 50.3675 52.7785 50.3779 52.7137 50.4038C52.6489 50.4297 52.5911 50.4704 52.5448 50.5226L52.2463 50.8212V51.5676L52.4702 52.09L52.9926 52.314H53.6644C54.0167 52.0526 54.2778 51.687 54.4108 51.269L54.1868 51.0451ZM56.2767 64.1067C56.3361 64.1943 56.3625 64.3 56.3513 64.4053L56.7992 64.9277H57.8441L58.5158 64.256V63.2111L58.068 62.7632L57.6948 62.614C57.5455 62.4647 57.3216 62.5393 57.1724 62.614L56.5753 62.9871C56.426 63.2111 56.426 63.435 56.2021 63.5842C56.1576 63.668 56.1408 63.7637 56.1542 63.8576C56.1677 63.9515 56.2105 64.0387 56.2767 64.1067ZM58.3666 58.9567L57.7695 58.6582H56.7992L56.3513 59.1806V60.0763L56.6499 60.5241H56.8738L57.0231 60.6734H57.8441L58.5158 60.0016V59.2553C58.4412 59.1806 58.2173 59.106 58.3666 58.9567ZM58.5158 55.7473V55.2248L57.8441 54.4784H56.8738L56.3513 55.0009V55.8966L57.0977 56.6429H57.5455C57.7695 56.4937 58.068 56.4937 58.2173 56.2697L58.5158 55.7473ZM56.3513 42.7603V43.1335L57.0231 43.8799H57.8441L58.3666 43.3574V42.5364L57.6202 41.8647H57.247C57.1724 42.0886 56.8738 42.0886 56.7245 42.2379C56.5753 42.3871 56.5753 42.6857 56.3513 42.7603ZM56.3513 46.8654V47.4625L57.0977 48.2089H57.6202L58.2919 47.7611V46.7161L57.8441 46.1937H56.8738C56.5753 46.3429 56.5753 46.7161 56.3513 46.8654ZM58.3666 39.0284V38.4313L57.8441 37.9835H56.8738L56.5753 38.2074V39.2524L57.0977 39.7002H57.5455L58.068 39.4763V39.1777L58.3666 39.0284ZM57.9187 25.5937H57.0231L56.5753 26.1161V26.4893L56.7245 26.7132V26.9371C57.0231 27.0118 57.247 27.2357 57.6948 27.1611L58.1426 26.6386V25.9669L57.9187 25.5937ZM58.1426 22.3096V21.7125L57.8441 21.414H57.0231L56.7992 21.7125V22.4589L57.0231 22.7574H57.6202L58.1426 22.3096ZM56.7245 13.8009L57.247 14.3234H57.6948L57.9187 14.0248V13.4277L57.6948 13.2038H57.0231L56.7245 13.4277V13.8009ZM57.7695 1.03787L57.3963 0.739316L57.0231 1.26178L57.247 1.48569H57.6948C57.8441 1.41105 57.6948 1.18714 57.7695 1.03787ZM57.7695 4.91903H57.247L56.9484 5.21758V5.59076L57.4709 5.81468L57.9187 5.36685C57.8441 5.21758 57.5455 5.14294 57.7695 4.91903ZM57.9187 9.32265L57.6202 9.0241H57.247L56.7992 9.47192C56.7992 9.6212 57.0231 9.69584 56.9484 9.84511L57.4709 10.1437L57.9187 9.54656V9.32265ZM57.5455 17.3089H57.0231L56.7245 17.6821V18.2045L57.247 18.6524C57.3963 18.6524 57.4709 18.6524 57.5455 18.5031H57.8441C57.8711 18.4728 57.8916 18.4373 57.9045 18.3988C57.9173 18.3603 57.9222 18.3196 57.9187 18.2792L58.068 18.1299C58.068 18.0553 58.1426 17.9806 58.1426 17.8313L57.5455 17.3089ZM57.9934 29.848C57.8441 29.6241 57.5455 29.6987 57.4709 29.4748L57.247 29.6987H56.8738L56.5753 30.2212V30.8183L57.1724 31.2661H57.6202L58.1426 30.9676V30.5944C58.2173 30.5198 58.2919 30.4451 58.2919 30.3705C58.2919 30.2958 58.1426 29.9973 57.9934 29.848ZM58.3666 34.4755L57.5455 33.5799C57.3571 33.5978 57.1742 33.6533 57.0076 33.743C56.8409 33.8328 56.6939 33.9549 56.5753 34.1024V34.9234L57.0977 35.3712H57.9187C57.9934 35.2966 58.068 35.2966 58.068 35.2219L58.2919 34.6995C58.3666 34.6248 58.3666 34.4755 58.3666 34.4755ZM58.2919 51.0451V50.6719L58.068 50.3734H57.6202L57.4709 50.1495C57.1724 50.1495 57.0977 50.448 56.8738 50.3734L56.3513 50.8212V51.5676L56.6499 52.09L57.0977 52.314H57.8441C58.1507 52.0564 58.3827 51.7213 58.5158 51.3437C58.5905 51.1944 58.3666 51.1197 58.2919 51.0451ZM60.6803 51.6422C60.6803 51.7002 60.6938 51.7573 60.7197 51.8091C60.7456 51.8609 60.7833 51.906 60.8296 51.9408C60.9789 52.09 61.0535 52.2393 61.2028 52.314H61.8745L62.397 52.09L62.6955 51.5676V50.8212C62.4004 50.4874 62.0094 50.2528 61.576 50.1495L61.3521 50.3734H60.9789L60.6803 50.6719V51.0451L60.5311 51.1944C60.4564 51.4183 60.6803 51.4929 60.6803 51.6422ZM62.6955 47.5371V46.94C62.397 46.7161 62.4716 46.3429 62.1731 46.1937H61.2028L60.6803 46.7908V47.6864C60.8296 47.8357 60.9042 47.985 61.1282 47.985L61.4267 48.2089H61.9492C62.1593 47.9454 62.4115 47.7184 62.6955 47.5371ZM60.6803 30.3705L60.9042 30.5944V30.9676L61.4267 31.2661H62.0238L62.4716 30.5944V30.2212L62.1731 29.6987H61.7999L61.576 29.4748C61.5013 29.6987 61.2028 29.6241 61.0535 29.848C60.9042 30.0719 60.9042 30.2958 60.6803 30.3705ZM60.9042 22.3096L61.4267 22.7574H61.9492L62.2477 22.5335V21.7125L61.9492 21.414H61.2028L60.9042 21.7125V22.3096ZM61.1282 18.4284H61.4267C61.473 18.4807 61.5308 18.5214 61.5956 18.5473C61.6604 18.5732 61.7304 18.5836 61.7999 18.5777L62.2477 17.9806V17.4582L61.9492 17.2342H61.3521C61.2028 17.3835 60.9789 17.5328 60.9042 17.7567L61.1282 18.4284ZM61.5013 0.813954L61.2774 1.1125V1.41106C61.4267 1.63497 61.576 1.48569 61.7999 1.56033L62.0238 1.18714L61.5013 0.813954ZM62.0984 5.14294L61.7999 4.91903H61.3521L61.1282 5.36685L61.576 5.81468L62.0984 5.59076V5.14294ZM61.7253 9.09874H61.3521L61.0535 9.47192V9.77048L61.576 10.2183L62.0238 9.99439L62.2477 9.54656L61.7253 9.09874ZM62.2477 13.4277L61.9492 13.1292H61.3521L61.1282 13.4277V14.0248L61.3521 14.3234H61.7999L62.2477 13.8009V13.4277ZM62.4716 26.0415L61.9492 25.519H61.2028L60.9042 25.8176V26.6386L61.3521 27.0118C61.7253 27.3103 61.8745 26.9371 62.1731 26.8625C62.246 26.6971 62.347 26.5456 62.4716 26.4147V26.0415ZM62.4716 34.1024C62.3446 33.9461 62.1856 33.8186 62.0055 33.7285C61.8253 33.6384 61.628 33.5878 61.4267 33.5799L60.6803 34.4009C60.7813 34.7445 60.9322 35.0714 61.1282 35.3712H61.9492L62.4716 34.7741V34.1024ZM62.4716 38.2821L62.2477 37.9835C62.0504 37.947 61.848 37.947 61.6506 37.9835C61.5013 37.9089 61.3521 37.9835 61.2028 37.9835L60.6803 38.4313V39.0284L60.9042 39.2524V39.4016L61.4267 39.7002H62.0238L62.4716 39.1031V38.2821ZM62.6209 42.7603C62.4716 42.5364 62.4716 42.1632 62.1731 42.1632C61.8745 42.1632 61.7253 41.79 61.4267 41.8647C61.197 42.1319 60.9475 42.3814 60.6803 42.6111V43.3574L61.2774 43.8799H61.9492L62.6955 43.0589C62.6209 43.0589 62.6955 42.835 62.6209 42.7603ZM73.0702 47.4625L73.8166 48.2089H74.339L75.0108 47.7611V46.7161L74.5629 46.1937H73.5926C73.2941 46.3429 73.3687 46.7161 73.0702 46.8654V47.4625ZM64.6361 55.7473L65.0093 56.2697C65.084 56.419 65.3079 56.4937 65.5318 56.6429H66.1289L66.8006 55.8966V55.0009L66.2782 54.4784H65.3079L64.6361 55.2248V55.7473ZM65.3079 52.314H66.0542L66.5021 52.09L66.8006 51.5676V50.8212C66.5767 50.6719 66.5021 50.448 66.2035 50.3734L65.7557 50.1495L65.5318 50.3734H65.084L64.86 50.6719V51.0451L64.6361 51.269C64.7395 51.6815 64.9755 52.0487 65.3079 52.314ZM65.3079 35.3712H66.1289L66.5767 34.8487V34.1024C66.4274 33.8038 66.0542 33.8784 65.905 33.6545H65.5318L64.86 34.3263V34.6995C65.084 34.8487 64.9347 35.2966 65.3079 35.3712ZM64.7854 30.3705L65.0093 30.5944V30.9676L65.6064 31.2661H66.1289L66.5767 30.7437V30.2212C66.5061 30.032 66.4053 29.8556 66.2782 29.6987H65.905L65.7557 29.5495C65.6064 29.6987 65.3825 29.6987 65.1586 29.848C64.9347 29.9973 65.084 30.2958 64.7854 30.3705ZM65.8303 4.91903H65.5318L65.2332 5.36685L65.6811 5.81468L66.2035 5.59076V5.14294L65.8303 4.91903ZM65.905 9.0241H65.5318L65.2332 9.32265V9.69584L65.7557 10.1437L66.2035 9.91975C66.1289 9.69584 66.3528 9.6212 66.3528 9.47192L65.905 9.0241ZM66.4274 13.4277L66.1289 13.1292H65.5318L65.2332 13.5024V14.0248L65.6064 14.3234H65.905C66.0978 14.169 66.273 13.9937 66.4274 13.8009V13.4277ZM66.4274 17.6074L66.1289 17.3089H65.5318L65.0093 17.906L65.3079 18.4284L65.905 18.727L66.4274 17.906V17.6074ZM66.4274 21.7125C66.2782 21.6379 66.2035 21.4886 66.1289 21.414H65.3079L65.0093 21.7125V22.3096L65.5318 22.7574H66.1289L66.4274 22.5335V21.7125ZM66.5767 25.9669L65.9796 25.5937H65.3079L65.0093 25.8176V26.6386L65.5318 27.0864C65.6829 27.119 65.8401 27.1082 65.9853 27.0554C66.1305 27.0026 66.2579 26.9099 66.3528 26.7879C66.3528 26.6386 66.6513 26.4147 66.5767 25.9669ZM66.5767 38.2074L66.2782 37.9835H65.3079C65.1586 38.0582 65.084 38.2821 64.86 38.5806V39.0284L65.0093 39.1777C64.9981 39.2829 65.0246 39.3887 65.084 39.4763H65.3079C65.3825 39.4763 65.4571 39.6255 65.4571 39.6255H66.1289L66.5767 39.1777V38.2074ZM66.6513 42.6111C66.5767 42.4618 66.5767 42.1632 66.3528 42.0886C66.1289 42.014 65.8303 41.79 65.5318 41.8647L64.86 42.6111V43.3574L65.3825 43.8799H66.1289C66.3102 43.5958 66.5371 43.3436 66.8006 43.1335C66.826 43.0411 66.8256 42.9435 66.7992 42.8514C66.7729 42.7592 66.7217 42.6761 66.6513 42.6111ZM66.8006 47.0147C66.699 46.7011 66.5192 46.4185 66.2782 46.1937H65.3079L64.86 46.7161V47.6864C64.9347 47.985 65.3079 47.985 65.5318 48.2089H65.9796L66.8006 47.3879V47.0147ZM68.7412 51.269L69.0397 51.9408L69.4876 52.314H70.234L70.6818 52.0154L70.9057 51.5676V50.8212C70.6335 50.4966 70.2691 50.2623 69.8608 50.1495L69.6368 50.3734H69.2637L68.9651 50.6719C68.9651 50.8958 69.0397 51.1198 68.7412 51.269ZM70.9057 47.4625V46.94L70.4579 46.2683H69.4129L68.9651 46.7908V47.6864C69.1144 47.985 69.4876 47.9103 69.6368 48.2089H70.234L70.9057 47.4625ZM69.189 39.2524V39.4016L69.7115 39.7002H70.234L70.7564 39.1777V38.2821L70.5325 37.9835H69.4876L68.9651 38.4313V39.0284L69.189 39.2524ZM69.1144 34.8487C69.1144 35.0726 69.2637 35.2219 69.4876 35.3712H70.234L70.7564 34.9234V34.1024C70.6071 33.8038 70.234 33.8784 70.0847 33.6545H69.7115L68.9651 34.4755C68.9592 34.5451 68.9696 34.615 68.9955 34.6798C69.0214 34.7446 69.0621 34.8025 69.1144 34.8487ZM69.189 30.9676L69.7115 31.2661H70.234L70.7564 30.7437V30.2212L70.4579 29.6987C70.3086 29.5495 70.01 29.848 69.9354 29.5495C69.8608 29.2509 69.4129 29.6241 69.2637 29.848C69.1931 30.0372 69.0922 30.2136 68.9651 30.3705C69.2637 30.5198 69.1144 30.7437 69.189 30.9676ZM70.3086 5.14294L70.01 4.91903H69.6368L69.4129 5.36685L69.8608 5.81468C69.9354 5.6654 70.1593 5.6654 70.3086 5.59076V5.14294ZM70.0847 9.0241H69.6368L69.3383 9.32265V9.69584L69.8608 10.1437L70.3086 9.91975C70.3052 9.87931 70.31 9.8386 70.3228 9.80011C70.3357 9.76161 70.3562 9.72613 70.3832 9.69584L70.5325 9.47192L70.0847 9.0241ZM70.5325 13.4277L70.234 13.1292H69.6368L69.4129 13.4277V14.0248L69.6368 14.3234H70.01L70.5325 13.8009V13.4277ZM70.5325 17.5328L70.234 17.3089H69.6368L69.189 17.7567C69.1144 17.9806 69.2637 18.0553 69.3383 18.1299C69.3867 18.1945 69.4129 18.2731 69.4129 18.3538L70.01 18.6524C70.234 18.5777 70.3086 18.3538 70.5325 18.2045V17.5328ZM70.5325 21.7125L70.234 21.414H69.4129L69.189 21.7125V22.3096C69.3296 22.4941 69.5077 22.6467 69.7115 22.7574H70.234L70.5325 22.5335V21.7125ZM70.5325 25.8176C70.4579 25.7429 70.3086 25.6683 70.234 25.519H69.4129L69.189 25.8176V26.6386L69.7115 27.0118C69.9354 27.3103 70.1593 26.9371 70.4579 26.8625C70.7564 26.7879 70.8311 26.4147 70.7564 26.1161C70.6818 25.8176 70.6071 25.8922 70.5325 25.8176ZM70.9057 42.7603C70.6818 42.6111 70.7564 42.1632 70.3832 42.0886C70.01 42.014 69.9354 41.79 69.7115 41.8647L68.9651 42.5364V43.3574L69.4876 43.8799H70.234L70.9057 43.1335V42.7603ZM73.1448 43.2828L73.7419 43.8053H74.5629L75.0854 43.3574C75.0486 43.11 75.0486 42.8585 75.0854 42.6111C74.8219 42.4009 74.5949 42.1488 74.4137 41.8647C74.0405 41.7154 73.8166 42.0886 73.5926 42.0886C73.3687 42.0886 73.2941 42.3125 73.2941 42.3871C73.2941 42.4618 72.9209 42.835 73.1448 43.2828ZM75.0854 38.9538V38.4313L74.4883 37.9835H73.5926L73.2941 38.2074V39.2524L73.8166 39.7002H74.339C74.4883 39.6255 74.5629 39.4763 74.7868 39.5509C74.8711 39.3446 74.9709 39.145 75.0854 38.9538ZM73.518 26.8625C73.8166 26.9371 73.9658 27.1611 74.4137 27.0864L74.8615 26.6386V25.8176L74.5629 25.519H73.7419C73.6046 25.7693 73.4282 25.996 73.2195 26.1908C73.1448 26.34 73.518 26.564 73.518 26.8625ZM74.8615 22.3096V21.7125L74.5629 21.414H73.8166L73.518 21.7125V22.4589L73.7419 22.7574H74.4137L74.8615 22.3096ZM73.518 13.8755L74.0405 14.3234H74.4137L74.6376 14.0248V13.4277L74.4137 13.1292H73.8166L73.518 13.4277V13.8755ZM74.2644 9.0241H73.9658L73.518 9.47192L73.8166 9.99439L74.1897 10.1437C74.3742 10.0031 74.5269 9.82503 74.6376 9.6212C74.6446 9.49389 74.6697 9.36824 74.7122 9.24801L74.2644 9.0241ZM74.4137 17.3089H73.8166L73.518 17.5328C73.4804 17.7551 73.4804 17.9822 73.518 18.2045L73.9658 18.6524C74.1151 18.727 74.1897 18.6524 74.339 18.5031H74.5629L74.8615 17.9806C74.8615 17.6074 74.4883 17.5328 74.4137 17.3089ZM74.7122 29.848L74.1897 29.4748L73.9658 29.6987H73.5926L73.2941 30.2212V30.8183L73.8166 31.2661H74.339L74.8615 30.9676V30.5944L75.0854 30.3705C74.8615 30.2958 74.9361 29.9973 74.7122 29.848ZM74.1897 33.6545H74.0405L73.3687 33.9531C73.3687 34.1024 73.2941 34.1024 73.2941 34.1024V34.9234L73.8166 35.3712H74.5629C74.8615 35.2966 74.7868 34.9234 75.0108 34.6995C75.0817 34.5889 75.1083 34.4556 75.0854 34.3263L74.1897 33.6545ZM77.3992 39.2524L77.9963 39.7002H78.4441L78.9666 39.4763C78.9634 39.3888 78.9823 39.302 79.0214 39.2238C79.0605 39.1455 79.1186 39.0784 79.1905 39.0284V38.506C79.1158 38.2821 78.8173 38.1328 78.7426 37.9835H77.6977L77.3992 38.2074V39.2524ZM78.7426 25.5937H77.9216C77.7875 25.8037 77.6092 25.982 77.3992 26.1161V26.4893L77.6231 26.7132V26.9371C77.9216 27.0118 78.1455 27.2357 78.5187 27.1611C78.7032 27.0205 78.8559 26.8424 78.9666 26.6386V25.9669L78.7426 25.5937ZM78.9666 22.1603V21.7125L78.7426 21.414H77.9216C77.7724 21.4886 77.6977 21.6379 77.6231 21.7125V22.5335L77.9216 22.7574H78.5187L78.9666 22.1603ZM78.8173 13.4277L78.5187 13.1292H77.9216L77.6231 13.4277V13.8755L78.1455 14.3234H78.5187L78.8173 14.0248V13.4277ZM78.5187 17.3089H77.9216L77.6231 17.5328V18.2045L78.2202 18.6524L78.7426 18.4284C78.8269 18.2221 78.9267 18.0225 79.0412 17.8313C78.9666 17.6074 78.668 17.5328 78.5187 17.3089ZM78.9666 29.9973C78.9687 29.9295 78.9477 29.863 78.907 29.8087C78.8663 29.7544 78.8083 29.7157 78.7426 29.6987C78.5701 29.6846 78.4097 29.6044 78.2948 29.4748L78.1455 29.6987H77.6977L77.4738 30.2212V30.8183L78.0709 31.2661H78.4441L78.9666 30.9676V30.5944L79.1905 30.3705C79.1188 30.3395 79.0587 30.2868 79.0185 30.2199C78.9783 30.153 78.9602 30.0751 78.9666 29.9973ZM79.1905 34.4755L78.3695 33.5799C77.9934 33.6309 77.6487 33.8165 77.3992 34.1024V34.9234L77.9216 35.3712H78.8173C78.8919 35.2966 78.9666 35.2966 78.9666 35.2219L79.1905 34.6995C79.2651 34.6248 79.1905 34.4755 79.1905 34.4755ZM81.5789 30.3705C81.6535 30.4451 81.7282 30.5198 81.7282 30.5944V30.9676L82.3253 31.2661H82.8477L83.2955 30.5944V30.2212L83.0716 29.6987H82.6238L82.4745 29.4748C82.3253 29.6987 82.0267 29.6241 81.8774 29.848C81.7282 30.0719 81.8028 30.2958 81.5789 30.3705ZM83.1463 21.7125L82.8477 21.414H82.0267L81.8028 21.6379C81.7282 21.8618 81.8028 22.0111 81.7282 22.235L82.2506 22.7574H82.8477L83.1463 22.5335V21.7125ZM83.2955 26.0415L82.8477 25.519H82.0267L81.8028 25.8176V26.6386L82.2506 27.0118C82.5492 27.3103 82.7731 26.9371 83.0716 26.8625C83.3702 26.7879 83.3702 26.4147 83.2955 26.0415Z" fill="#A4EF00"/>
<path d="M26.5285 26.249C41.1806 26.249 50.9917 39.3083 48.8616 52.8823C47.1834 63.69 32.5314 81.6385 27.2385 83.3754L29.4977 86.399C29.7375 86.7275 29.8808 87.1161 29.9115 87.5213C29.9421 87.9264 29.859 88.332 29.6714 88.6927C29.4837 89.0534 29.199 89.3548 28.8491 89.5633C28.4992 89.7717 28.098 89.879 27.6904 89.8729H25.3021C24.9 89.8671 24.5072 89.7513 24.1667 89.5381C23.8261 89.3249 23.5509 89.0225 23.3711 88.664C23.1912 88.3055 23.1136 87.9047 23.1469 87.5052C23.1801 87.1058 23.3228 86.7231 23.5594 86.399L25.754 83.3754C20.5257 81.6385 5.87361 63.69 4.13085 52.8823C2.00081 39.3083 11.8764 26.249 26.5285 26.249Z" fill="#A4EF00"/>
<path d="M48.3453 55.1983H48.0226C47.829 55.1983 47.7644 55.3913 47.6353 55.4556L47.3771 55.713V56.099C47.6353 56.2276 47.5062 56.6136 47.7644 56.6779H47.8935C47.1292 58.7425 46.2011 60.7431 45.118 62.6608L44.7307 62.2104H44.408C44.2789 62.4034 44.0207 62.4034 43.8916 62.5321C43.7625 62.6608 43.8271 62.9181 43.6334 62.9824V63.3041L44.2143 63.9474H44.408C43.3752 65.7487 42.2134 67.6143 40.987 69.3512C40.6122 69.4403 40.2741 69.6425 40.0188 69.9302V70.5735H40.0834L38.0179 73.2755L37.7597 73.0181H36.9206C36.739 73.1338 36.5848 73.2874 36.4688 73.4685V74.3048L36.856 74.6908L34.5969 77.264V77.0067C34.4494 76.8482 34.2745 76.7174 34.0805 76.6207H33.3705L32.9187 76.8137V77.0067L32.7896 77.1997V77.843L33.3705 78.422H33.5642C32.7779 79.2692 31.937 80.0643 31.0468 80.8023C30.9823 80.6093 30.8532 80.5449 30.7241 80.4163L30.2723 80.1589H29.9496C29.8205 80.2876 29.6914 80.2876 29.5623 80.3519L29.175 80.8023V81.6386L29.6914 82.0889C28.9355 82.6597 28.1117 83.1351 27.2386 83.5042L29.4977 86.5278C29.6808 86.8019 29.8121 87.1072 29.885 87.4284C29.8359 87.4566 29.7803 87.4715 29.7236 87.4715C29.667 87.4715 29.6113 87.4566 29.5623 87.4284L29.175 87.9431C29.1104 88.0717 29.175 88.2647 29.0459 88.329L29.175 88.908L29.4332 89.1653C29.2332 89.4359 28.9699 89.6536 28.6661 89.7994C28.3623 89.9452 28.0273 90.0146 27.6904 90.0017H25.3022C24.9669 90.0042 24.6355 89.9302 24.3334 89.7852C24.0313 89.6402 23.7665 89.4282 23.5594 89.1653L23.8822 88.7794C23.9467 88.7794 23.7531 88.522 24.0758 88.4577L23.8822 88.2004V87.7501L23.4303 87.3641H23.1722C23.2163 87.0147 23.3497 86.6824 23.5594 86.3991L25.754 83.3755C24.8954 83.0175 24.0915 82.5411 23.3658 81.9602L23.8176 81.5099V80.6736L23.4303 80.2233L23.1076 80.0946H22.7203L22.2685 80.3519C22.126 80.4738 22.0153 80.6284 21.9458 80.8023C21.1712 80.1589 20.3967 79.3226 19.493 78.4863L19.8803 78.2933L20.0739 77.843V77.071L19.6866 76.6207H18.8475L18.6539 76.8137H18.5248L18.3312 77.1997L16.1366 74.7551L16.5239 74.3048V73.4685L16.072 73.0825H15.2975L15.0393 73.3398L12.9092 70.5735C12.9614 70.4748 12.9838 70.3631 12.9738 70.2519V69.9946C12.8447 69.8016 12.6511 69.6729 12.6511 69.6086L12.0701 69.3512C10.8109 67.592 9.64738 65.7667 8.58462 63.8831H8.84281L9.23009 63.3684V62.9181L8.52008 62.2104C8.32644 62.1461 8.1328 62.4034 7.93916 62.4678H7.81007C6.77659 60.5657 5.89183 58.587 5.16366 56.5493H5.2282C5.48639 56.4206 5.42184 56.099 5.68003 55.9703V55.6486L5.03456 55.0696H4.64728C4.45364 54.2333 4.26001 53.4614 4.13091 52.7537C3.57118 49.1603 3.836 45.4871 4.90547 42.0104H5.2282L5.48639 41.56C5.48639 41.367 5.3573 41.3027 5.2282 41.2384C6.34024 38.0438 8.16792 35.1437 10.5725 32.7583C12.9771 30.3729 15.8953 28.5649 19.1057 27.4714C19.1703 27.4714 19.2994 27.4071 19.3639 27.4714L19.493 27.3428C21.7657 26.6109 24.1402 26.2418 26.5286 26.2491C28.8686 26.2568 31.1951 26.6035 33.4351 27.2784C33.4996 27.4714 33.6933 27.3428 33.8223 27.4071H33.8869C37.0904 28.5131 40.002 30.3255 42.4049 32.7092C44.8077 35.0929 46.6398 37.9864 47.7644 41.174L47.5062 41.4957L47.7644 42.0104L48.0871 42.139C49.1566 45.6158 49.4214 49.2889 48.8617 52.8824C48.7377 53.6642 48.5653 54.4377 48.3453 55.1983ZM5.48639 44.8409L5.2282 44.5836H4.51819L4.26 44.8409V45.5486L4.51819 45.7416H5.03456L5.48639 45.2913V44.8409ZM5.48639 48.3792L5.2282 48.1862H4.51819L4.06636 48.6365C4.00182 48.8938 4.3891 49.0225 4.32455 49.3441H4.51819L4.71183 49.4728H5.03456L5.48639 49.0868V48.3792ZM5.35729 51.7887L4.84092 51.5314C4.77638 51.7887 4.51819 51.6601 4.38909 51.7244L4.13091 52.1747V52.6251L4.51819 53.0754H5.03456L5.48639 52.818C5.55094 52.6894 5.35729 52.4321 5.61548 52.3677C5.56879 52.1596 5.48102 51.9628 5.35729 51.7887ZM7.68098 59.9588C7.82847 60.1173 8.00338 60.2481 8.19735 60.3448H8.58462L9.03645 60.1518C9.03373 60.0765 9.05003 60.0017 9.08386 59.9342C9.11769 59.8668 9.16797 59.8089 9.23009 59.7658V59.3155C9.16554 59.1225 8.90736 58.9939 8.84281 58.8652H7.93916L7.68098 59.0582V59.9588ZM7.68098 48.8295L7.93916 49.2798H8.1328L8.26189 49.4085H8.64917L9.03645 49.0225V48.3792L8.84281 48.1862H8.06825L7.68098 48.6365V48.8295ZM9.03645 45.3556V44.8409L8.77827 44.5836H8.1328L7.87461 44.8409V45.5486L8.19735 45.7416H8.64917L9.03645 45.3556ZM8.84281 37.7001L8.58462 37.4428H8.1328L7.87461 37.7001V38.0861L8.32644 38.4721H8.64917L8.84281 38.2148V37.7001ZM8.64917 41.0454H8.1328L7.87461 41.2384V41.8174L8.45553 42.2033L8.58462 42.0747H8.84281L9.03645 41.56C8.97191 41.3027 8.77827 41.174 8.64917 41.0454ZM9.03645 51.9817C9.03645 51.9135 9.00925 51.848 8.96083 51.7998C8.91241 51.7515 8.84674 51.7244 8.77827 51.7244C8.71098 51.7299 8.64365 51.7143 8.58575 51.6797C8.52786 51.645 8.48231 51.5932 8.45553 51.5314L8.26189 51.7244H7.93916L7.68098 52.1747V52.6894L8.26189 53.0754H8.58462L9.03645 52.818V52.4964L9.23009 52.3034C9.16811 52.2767 9.11609 52.2313 9.08135 52.1736C9.04662 52.1159 9.03091 52.0488 9.03645 51.9817ZM9.23009 55.7773C9.03145 55.547 8.81568 55.332 8.58462 55.134C8.54681 55.1115 8.50479 55.097 8.46114 55.0914C8.4175 55.0857 8.37315 55.089 8.33083 55.1011C8.28851 55.1131 8.24911 55.1337 8.21506 55.1615C8.181 55.1892 8.15301 55.2237 8.1328 55.2626C7.93916 55.2626 7.87462 55.3913 7.68098 55.52V56.2276L8.1328 56.6136H8.77827C9.03645 56.5493 9.03645 56.2276 9.16554 56.0346C9.21688 55.9591 9.23975 55.868 9.23009 55.7773ZM11.1019 62.9824V63.3041L11.6829 63.9474H12.3929L12.7802 63.4971V62.7894L12.1992 62.2104H11.941L11.6183 62.4034C11.4247 62.4034 11.3601 62.5321 11.2956 62.6608C11.231 62.7894 11.231 62.9181 11.1019 62.9824ZM12.7802 59.7658V59.3155C12.7156 59.1225 12.522 58.9939 12.3929 58.8652H11.5538L11.2956 59.0582V59.9588L11.7474 60.3448H12.1347L12.5865 60.1518C12.6377 60.017 12.7026 59.8876 12.7802 59.7658ZM11.2956 48.8295L11.4892 49.2798H11.6829L11.8765 49.4085H12.1992L12.6511 49.0225V48.3792L12.3929 48.1862H11.6829C11.5233 48.3073 11.3913 48.4608 11.2956 48.6365V48.8295ZM12.6511 45.1626V44.8409L12.3929 44.5836H11.6829L11.4247 44.8409V45.4843L11.6829 45.7416H12.2638L12.6511 45.1626ZM12.4574 34.1619L12.1347 33.9046H11.8765L11.4892 34.2906L11.6829 34.7409H11.8765L12.0056 34.9339L12.4574 34.4836V34.1619ZM12.4574 37.7001L12.1992 37.4428H11.6829L11.4247 37.7001V38.0218L11.8765 38.4721H12.1992L12.4574 38.2148V37.7001ZM12.1992 41.0454H11.6829L11.4247 41.2384V41.8174L12.0056 42.2033L12.3929 42.0104C12.4657 41.8325 12.5521 41.6605 12.6511 41.4957L12.1992 41.0454ZM12.6511 52.0461L12.522 51.8531C12.4919 51.8131 12.4529 51.7807 12.4081 51.7584C12.3633 51.736 12.3139 51.7244 12.2638 51.7244L12.0056 51.5314L11.8765 51.7244H11.5538L11.2956 52.1747V52.6251L11.812 53.0754H12.1347L12.5865 52.818C12.7156 52.6894 12.522 52.4321 12.7802 52.3677C13.0383 52.3034 12.6511 52.1747 12.6511 52.0461ZM12.7802 55.713L12.1347 55.134H11.8765L11.2956 55.4556V56.2276L11.6829 56.6136H12.3929C12.4574 56.5493 12.5865 56.4849 12.5865 56.4206C12.5865 56.3563 12.9092 56.0346 12.7802 55.713ZM12.9738 66.585C12.7802 66.392 12.7802 66.0703 12.522 65.9417H11.6829L11.2956 66.4563V67.2283L11.4247 67.357L11.8765 67.6786H12.3929L12.9738 67.0353V66.585ZM18.2666 74.1761C18.4603 74.3048 18.3957 74.5621 18.5248 74.6908C18.6539 74.8194 18.9121 74.7551 19.0412 74.9481H19.493L20.1385 74.3691V73.5328L19.6866 73.0825H18.8475L18.2666 73.6615V74.1761ZM15.2975 71.2169H15.8784L16.3302 71.0239V70.7665L16.4593 70.6379V69.9302C16.3302 69.8016 16.2011 69.6086 16.072 69.5442C15.9429 69.4799 15.8138 69.3512 15.6202 69.3512L15.362 69.5442H15.0393L14.7811 69.8016V70.1232L14.5875 70.3162C14.7195 70.6854 14.9688 71.0016 15.2975 71.2169ZM14.8456 66.4563V67.2283C14.9747 67.357 15.0393 67.4856 15.1684 67.4856C15.2975 67.4856 15.362 67.6143 15.4266 67.6786H15.9429C16.1025 67.4545 16.2989 67.2587 16.5239 67.0996V66.585C16.3302 66.392 16.3948 66.0703 16.1366 65.9417H15.2329L14.8456 66.4563ZM14.8456 59.7658L15.1038 60.2162C15.2975 60.1518 15.362 60.2805 15.4266 60.3448H15.9429L16.3948 59.9588V59.0582L16.1366 58.8652H15.2329L14.8456 59.3799V59.7658ZM14.8456 52.3034L15.0393 52.4964V52.818L15.4911 53.0754H15.9429L16.3302 52.6251V52.1747L16.1366 51.7244H15.7493L15.6202 51.5957C15.4911 51.7244 15.2975 51.7244 15.1038 51.8531C14.9102 51.9817 15.1038 52.2391 14.8456 52.3034ZM16.0075 30.5593L15.7493 30.302H15.4266L15.2329 30.8167L15.6202 31.1383L16.0075 30.9453V30.5593ZM15.7493 33.9046H15.4266L15.1684 34.0976V34.4836L15.6202 34.8696L16.0075 34.6766L16.2011 34.2906L15.7493 33.9046ZM16.2011 37.7001L15.9429 37.4428H15.4266L15.2329 37.7001V38.2148L15.4266 38.4721H15.7493C15.9309 38.3565 16.0851 38.2028 16.2011 38.0218V37.7001ZM16.2011 41.3027L15.9429 41.0454H15.4266L15.0393 41.56C15.1275 41.6989 15.1928 41.8509 15.2329 42.0104L15.7493 42.2033C15.9429 42.139 16.0075 41.946 16.2011 41.753V41.3027ZM15.0393 44.8409V45.3556L15.4266 45.7416H15.9429L16.2011 45.4843V44.8409L15.9429 44.5836H15.2975L15.0393 44.8409ZM15.8784 48.1862H15.2329L15.0393 48.3792C14.9747 48.4435 15.0393 48.6365 15.0393 48.7652C15.0393 48.8938 15.0393 48.9582 15.0393 49.0868L15.4266 49.4728H15.7493L16.1366 49.2798C16.2717 49.0647 16.3597 48.8235 16.3948 48.5722L15.8784 48.1862ZM16.2657 55.4556C16.2657 55.4215 16.2521 55.3888 16.2279 55.3647C16.2036 55.3405 16.1708 55.327 16.1366 55.327L15.7493 55.134H15.5557L14.8456 55.8416C14.8931 56.1466 15.0545 56.4223 15.2975 56.6136H15.9429L16.3948 56.1633V55.5843C16.3302 55.52 16.3302 55.4556 16.2657 55.4556ZM16.3302 62.6608C16.3321 62.6023 16.3139 62.545 16.2787 62.4982C16.2435 62.4515 16.1934 62.418 16.1366 62.4034C15.8784 62.4034 15.7493 62.0818 15.362 62.2748L14.8456 62.7894V63.4971L15.2329 63.9474H15.8784L16.5239 63.3684C16.653 63.0468 16.3948 62.8538 16.3302 62.6608ZM18.8475 71.2169H19.4285L19.8803 71.0239C19.9448 70.8952 19.9448 70.7022 20.1385 70.6379V69.9302L19.7512 69.6086L19.2348 69.3512L18.6539 69.5442L18.3957 69.8016V70.1232L18.2666 70.3162C18.2885 70.5004 18.3522 70.6773 18.4529 70.8333C18.5535 70.9894 18.6885 71.1205 18.8475 71.2169ZM18.3957 66.392V67.2283C18.5248 67.4856 18.8475 67.4213 18.9766 67.6786H19.493L20.1385 66.971V66.585L19.7512 65.9417H18.8475C18.7315 66.1227 18.5773 66.2764 18.3957 66.392ZM18.3957 59.7015C18.5056 59.8367 18.5928 59.9888 18.6539 60.1518L19.0412 60.3448H19.5575L19.9448 59.8945V59.0582L19.6221 58.8652H18.8475L18.3957 59.2512V59.7015ZM18.3957 52.3034L18.5893 52.4964V52.818L19.0412 53.0754H19.5575C19.6597 52.8852 19.7903 52.7117 19.9448 52.5607V52.1747L19.6866 51.7244H19.3639L19.1703 51.5314C19.1057 51.7244 18.8475 51.6601 18.7184 51.8531C18.5893 52.0461 18.6539 52.2391 18.3957 52.3034ZM18.5893 45.3556L19.0412 45.7416H19.5575L19.7512 45.4843V44.8409L19.5575 44.5836H18.8475L18.5893 44.8409V45.3556ZM19.5575 30.5593L19.3639 30.302H19.0412L18.783 30.8167L19.2348 31.1383L19.5575 30.9453V30.5593ZM19.3639 33.9046H19.0412L18.783 34.1619V34.4836L19.2348 34.8696L19.5575 34.6766V34.4836L19.6866 34.2906L19.3639 33.9046ZM18.783 37.7001V38.2148L18.9766 38.4721H19.3639L19.7512 38.0218V37.7001L19.5575 37.4428H19.0412L18.783 37.7001ZM19.7512 41.3027L19.5575 41.0454H18.9766L18.5893 41.56L18.783 42.0104L19.2994 42.2033C19.4939 42.1046 19.6521 41.947 19.7512 41.753V41.3027ZM19.9448 48.5722C19.8113 48.406 19.6598 48.2549 19.493 48.1218H18.8475L18.5893 48.3792V49.0868L19.0412 49.4085C19.2994 49.6658 19.493 49.3441 19.7512 49.2798C20.0094 49.2155 20.0094 48.8938 19.9448 48.5722ZM19.9448 55.52C19.8803 55.4556 19.8157 55.327 19.7512 55.327C19.6866 55.327 19.2994 55.0053 19.0412 55.134L18.3957 55.7773V55.9703L18.783 56.6136H19.5575L19.9448 56.2276V55.52ZM20.0739 62.9824C19.9448 62.7894 19.9448 62.4678 19.7512 62.4678C19.5575 62.4678 19.2994 62.1461 19.0412 62.2104L18.3957 62.8538V63.4971L18.9121 63.9474H19.493L20.1385 63.2398C20.1385 63.2398 20.1385 63.0468 20.0739 62.9824ZM29.175 77.9073L29.7559 78.4863H30.4014L30.595 78.3577H30.7887L31.0468 77.843V77.071L30.4659 76.685H29.7559L29.3686 76.878L29.175 77.3284V77.9073ZM31.0468 74.3691V73.5328L30.595 73.0825H29.7559L29.175 73.7258V74.1761C29.3686 74.3048 29.3041 74.4978 29.4332 74.6908C29.5623 74.8838 29.8205 74.7551 29.885 74.9481H30.4014L31.0468 74.3691ZM25.4313 88.5864C25.5604 88.715 25.4958 88.9724 25.6895 89.101L26.2058 89.3583H26.8513L27.4322 88.7794V88.4577L27.6259 88.2647L27.4322 88.0717V87.7501L27.045 87.3641H26.7222L26.5286 87.1711L26.3349 87.3641H26.0122L25.4313 87.9431V88.5864ZM25.6249 84.1475C25.5604 84.2762 25.5604 84.4692 25.4313 84.5335V85.0481C25.5103 85.1373 25.5559 85.2509 25.5604 85.3698C25.6249 85.4985 25.754 85.6271 25.8186 85.6271C25.8859 85.6216 25.9532 85.6373 26.0111 85.6719C26.069 85.7065 26.1145 85.7583 26.1413 85.8201H26.5931C26.933 85.6976 27.2262 85.4728 27.4322 85.1768V84.4048L27.2386 83.9545H26.9804L26.8513 83.7615H26.0122L25.6249 84.1475ZM22.0103 77.9073L22.204 78.2933L22.6558 78.4863H23.2367L23.8822 77.843V77.264L23.624 76.878H23.4303L23.2367 76.685H22.3976L22.0103 77.1354V77.9073ZM22.0103 74.2404L22.7203 74.9481H23.0431L23.5594 74.6264C23.6813 74.4642 23.7893 74.2921 23.8822 74.1118V73.7901L23.1722 73.0825H22.3976L22.0103 73.6615V74.2404ZM23.3012 48.1862H22.5912L22.1394 48.6365V48.9582L22.3331 49.1511V49.3441C22.5912 49.4085 22.7849 49.6015 23.1076 49.5371C23.2672 49.416 23.3992 49.2625 23.4949 49.0868V48.5078L23.3012 48.1862ZM23.4949 45.2269V44.8409L23.3012 44.5836H22.5912C22.5267 44.7123 22.3976 44.7766 22.3331 44.8409V45.5486L22.5912 45.7416H23.1076C23.2666 45.5946 23.3978 45.4203 23.4949 45.2269ZM23.1722 27.0211L22.9785 26.7638L22.5267 27.1498L22.7849 27.4714H23.1076C23.2367 27.3428 23.1722 27.1498 23.1722 27.0211ZM23.1076 30.3663H22.7203L22.5267 30.5593V30.9453L22.9785 31.1383L23.3012 30.7523L23.1076 30.3663ZM23.3658 34.0976L23.1076 33.9046H22.7849L22.3976 34.3549L22.5267 34.6766L22.9785 34.8696L23.3658 34.4836V34.0976ZM23.3658 37.7001L23.1076 37.4428H22.5912L22.3331 37.7001V38.0218L22.7849 38.4721H23.1076L23.3658 38.2148V37.7001ZM23.1076 41.0454H22.5912L22.3331 41.3027V41.8174L22.914 42.2033L23.1076 42.0747C23.1076 42.0104 23.2367 42.0104 23.3012 42.0104L23.5594 41.4957C23.4255 41.3298 23.274 41.1788 23.1076 41.0454ZM23.3658 51.7887L22.914 51.5314C22.7849 51.7887 22.5912 51.6601 22.3976 51.7244C22.204 51.7887 22.4621 52.1104 22.1394 52.1104V52.6251L22.5912 53.0754H23.1076C23.1722 52.9467 23.3658 52.8824 23.4949 52.818C23.624 52.7537 23.4303 52.4321 23.6885 52.3034C23.9467 52.1747 23.5594 51.9174 23.3658 51.7887ZM22.1394 59.0582V59.9588L22.5912 60.3448H23.1076C23.1722 60.2805 23.2367 60.1518 23.4303 60.2162C23.5032 60.0384 23.5895 59.8663 23.6885 59.7015V59.2512L23.1076 58.8652H22.3976L22.1394 59.0582ZM23.6885 55.713L23.1076 55.134H22.8494C22.6558 55.2626 22.3331 55.2626 22.204 55.52V56.2276L22.7203 56.6136H23.3012C23.4949 56.4849 23.4949 56.2276 23.6885 56.0346V55.713ZM23.6885 62.8538L23.0431 62.2104H22.7203C22.5912 62.3391 22.2685 62.3391 22.204 62.5321C22.1394 62.7251 21.8812 62.9824 22.0103 63.2398L22.6558 63.8831H23.3012L23.6885 63.3684V62.8538ZM22.0103 66.5207V67.0353L22.6558 67.6143H23.1076L23.6885 67.2926V66.392L23.3012 65.9417H22.4621C22.204 66.0703 22.204 66.392 22.0103 66.5207ZM23.6885 70.1232V69.8016L23.4303 69.5442H23.1076L22.914 69.3512C22.7849 69.2869 22.7203 69.4799 22.5912 69.5442C22.5311 69.5391 22.4706 69.5481 22.4146 69.5705C22.3585 69.5928 22.3085 69.6279 22.2685 69.6729L22.0103 69.9302V70.5735L22.204 71.0239L22.6558 71.2169H23.2367C23.5414 70.9916 23.7672 70.6765 23.8822 70.3162L23.6885 70.1232ZM25.4958 81.3812C25.5472 81.4567 25.57 81.5479 25.5604 81.6386L25.9477 82.0889H26.8513L27.4322 81.5099V80.6093L27.045 80.2233L26.7222 80.0946C26.5931 79.9659 26.3995 80.0303 26.2704 80.0946L25.754 80.4163C25.6249 80.6093 25.6249 80.8023 25.4313 80.9309C25.3928 81.0031 25.3783 81.0856 25.3899 81.1666C25.4015 81.2475 25.4386 81.3227 25.4958 81.3812ZM27.3031 76.9424L26.7868 76.685H25.9477L25.5604 77.1354V77.9073L25.8186 78.2933H26.0122L26.1413 78.422H26.8513L27.4322 77.843V77.1997C27.3677 77.1354 27.174 77.071 27.3031 76.9424ZM27.4322 74.1761V73.7258L26.8513 73.0825H26.0122L25.5604 73.5328V74.3048L26.2058 74.9481H26.5931C26.7868 74.8194 27.045 74.8194 27.174 74.6264L27.4322 74.1761ZM25.5604 62.9824V63.3041L26.1413 63.9474H26.8513L27.3031 63.4971V62.7894L26.6577 62.2104H26.3349C26.2704 62.4034 26.0122 62.4034 25.8831 62.5321C25.754 62.6608 25.754 62.9181 25.5604 62.9824ZM25.5604 66.5207V67.0353L26.2058 67.6786H26.6577L27.2386 67.2926V66.392L26.8513 65.9417H26.0122C25.754 66.0703 25.754 66.392 25.5604 66.5207ZM27.3031 59.7658V59.2512L26.8513 58.8652H26.0122L25.754 59.0582V59.9588L26.2058 60.3448H26.5931L27.045 60.1518V59.8945L27.3031 59.7658ZM26.9159 48.1862H26.1413L25.754 48.6365V48.9582L25.8831 49.1511V49.3441C26.1413 49.4085 26.3349 49.6015 26.7222 49.5371L27.1095 49.0868V48.5078L26.9159 48.1862ZM27.1095 45.3556V44.8409L26.8513 44.5836H26.1413L25.9477 44.8409V45.4843L26.1413 45.7416H26.6577L27.1095 45.3556ZM25.8831 38.0218L26.3349 38.4721H26.7222L26.9159 38.2148V37.7001L26.7222 37.5071H26.1413L25.8831 37.7001V38.0218ZM26.7868 27.0211L26.464 26.7638L26.1413 27.2141L26.3349 27.4071H26.7222C26.8513 27.3428 26.7222 27.1498 26.7868 27.0211ZM26.7868 30.3663H26.3349L26.0768 30.6237V30.9453L26.5286 31.1383L26.9159 30.7523C26.8513 30.6237 26.5931 30.5593 26.7868 30.3663ZM26.9159 34.1619L26.6577 33.9046H26.3349L25.9477 34.2906C25.9477 34.4192 26.1413 34.4836 26.0768 34.6122L26.5286 34.8696L26.9159 34.3549V34.1619ZM26.5931 41.0454H26.1413L25.8831 41.367V41.8174L26.3349 42.2033C26.464 42.2033 26.5286 42.2033 26.5931 42.0747H26.8513C26.8747 42.0486 26.8924 42.018 26.9035 41.9848C26.9146 41.9516 26.9188 41.9165 26.9159 41.8817L27.045 41.753C27.045 41.6887 27.1095 41.6244 27.1095 41.4957L26.5931 41.0454ZM26.9804 51.8531C26.8513 51.6601 26.5931 51.7244 26.5286 51.5314L26.3349 51.7244H26.0122L25.754 52.1747V52.6894L26.2704 53.0754H26.6577L27.1095 52.818V52.4964C27.174 52.4321 27.2386 52.3677 27.2386 52.3034C27.2386 52.2391 27.1095 51.9817 26.9804 51.8531ZM27.3031 55.8416L26.5931 55.0696C26.4302 55.0851 26.272 55.1329 26.1279 55.2102C25.9838 55.2876 25.8567 55.3929 25.754 55.52V56.2276L26.2058 56.6136H26.9159C26.9804 56.5493 27.045 56.5493 27.045 56.4849L27.2386 56.0346C27.3031 55.9703 27.3031 55.8416 27.3031 55.8416ZM27.2386 70.1232V69.8016L27.045 69.5442H26.6577L26.5286 69.3512C26.2704 69.3512 26.2058 69.6086 26.0122 69.5442L25.5604 69.9302V70.5735L25.8186 71.0239L26.2058 71.2169H26.8513C27.1165 70.9949 27.3171 70.7061 27.4322 70.3805C27.4968 70.2519 27.3031 70.1876 27.2386 70.1232ZM29.3041 70.6379C29.3041 70.6878 29.3158 70.7371 29.3382 70.7817C29.3606 70.8264 29.3931 70.8652 29.4332 70.8952C29.5623 71.0239 29.6268 71.1525 29.7559 71.2169H30.3368L30.7887 71.0239L31.0468 70.5735V69.9302C30.7916 69.6425 30.4535 69.4403 30.0786 69.3512L29.885 69.5442H29.5623L29.3041 69.8016V70.1232L29.175 70.2519C29.1104 70.4449 29.3041 70.5092 29.3041 70.6379ZM31.0468 67.0996V66.585C30.7887 66.392 30.8532 66.0703 30.595 65.9417H29.7559L29.3041 66.4563V67.2283C29.4332 67.357 29.4977 67.4856 29.6914 67.4856L29.9496 67.6786H30.4014C30.5831 67.4515 30.8012 67.2559 31.0468 67.0996ZM29.3041 52.3034L29.4977 52.4964V52.818L29.9496 53.0754H30.4659L30.8532 52.4964V52.1747L30.595 51.7244H30.2723L30.0786 51.5314C30.0141 51.7244 29.7559 51.6601 29.6268 51.8531C29.4977 52.0461 29.4977 52.2391 29.3041 52.3034ZM29.4977 45.3556L29.9496 45.7416H30.4014L30.6596 45.5486V44.8409L30.4014 44.5836H29.7559L29.4977 44.8409V45.3556ZM29.6914 42.0104H29.9496C29.9896 42.0554 30.0396 42.0905 30.0956 42.1128C30.1517 42.1351 30.2122 42.1441 30.2723 42.139L30.6596 41.6244V41.174L30.4014 40.981H29.885C29.7559 41.1097 29.5623 41.2384 29.4977 41.4314L29.6914 42.0104ZM30.0141 26.8281L29.8205 27.0854V27.3428C29.9495 27.5358 30.0786 27.4071 30.2723 27.4714L30.4659 27.1498L30.0141 26.8281ZM30.5305 30.5593L30.2723 30.3663H29.885L29.6914 30.7523L30.0786 31.1383L30.5305 30.9453V30.5593ZM30.2077 33.9689H29.885L29.6268 34.2906V34.5479L30.0786 34.9339L30.4659 34.7409L30.6596 34.3549L30.2077 33.9689ZM30.6596 37.7001L30.4014 37.4428H29.885L29.6914 37.7001V38.2148L29.885 38.4721H30.2723L30.6596 38.0218V37.7001ZM30.8532 48.5722L30.4014 48.1218H29.7559L29.4977 48.3792V49.0868L29.885 49.4085C30.2077 49.6658 30.3368 49.3441 30.595 49.2798C30.6581 49.1373 30.7455 49.0067 30.8532 48.8938V48.5722ZM30.8532 55.52C30.7433 55.3852 30.6059 55.2754 30.4501 55.1978C30.2942 55.1201 30.1236 55.0764 29.9496 55.0696L29.3041 55.7773C29.3914 56.0735 29.5219 56.3552 29.6914 56.6136H30.4014L30.8532 56.099V55.52ZM30.8532 59.1225L30.6596 58.8652C30.4889 58.8338 30.3139 58.8338 30.1432 58.8652C30.0141 58.8009 29.885 58.8652 29.7559 58.8652L29.3041 59.2512V59.7658L29.4977 59.9588V60.0875L29.9496 60.3448H30.4659L30.8532 59.8302V59.1225ZM30.9823 62.9824C30.8532 62.7894 30.8532 62.4678 30.595 62.4678C30.3368 62.4678 30.2077 62.1461 29.9496 62.2104C29.7509 62.4407 29.5351 62.6558 29.3041 62.8538V63.4971L29.8205 63.9474H30.4014L31.0468 63.2398C30.9823 63.2398 31.0468 63.0468 30.9823 62.9824ZM40.0188 67.0353L40.6643 67.6786H41.1161L41.697 67.2926V66.392L41.3098 65.9417H40.4706C40.2125 66.0703 40.277 66.392 40.0188 66.5207V67.0353ZM32.7251 74.1761L33.0478 74.6264C33.1123 74.7551 33.306 74.8194 33.4996 74.9481H34.016L34.5969 74.3048V73.5328L34.1451 73.0825H33.306L32.7251 73.7258V74.1761ZM33.306 71.2169H33.9514L34.3387 71.0239L34.5969 70.5735V69.9302C34.4033 69.8016 34.3387 69.6086 34.0805 69.5442L33.6933 69.3512L33.4996 69.5442H33.1123L32.9187 69.8016V70.1232L32.7251 70.3162C32.8145 70.6718 33.0186 70.9882 33.306 71.2169ZM33.306 56.6136H34.016L34.4033 56.1633V55.52C34.2742 55.2626 33.9514 55.327 33.8223 55.134H33.4996L32.9187 55.713V56.0346C33.1123 56.1633 32.9832 56.5493 33.306 56.6136ZM32.8541 52.3034L33.0478 52.4964V52.818L33.5642 53.0754H34.016L34.4033 52.6251V52.1747C34.3422 52.0117 34.255 51.8596 34.1451 51.7244H33.8223L33.6933 51.5957C33.5642 51.7244 33.3705 51.7244 33.1769 51.8531C32.9832 51.9817 33.1123 52.2391 32.8541 52.3034ZM33.7578 30.3663H33.4996L33.2414 30.7523L33.6287 31.1383L34.0805 30.9453V30.5593L33.7578 30.3663ZM33.8223 33.9046H33.4996L33.2414 34.1619V34.4836L33.6933 34.8696L34.0805 34.6766C34.016 34.4836 34.2096 34.4192 34.2096 34.2906L33.8223 33.9046ZM34.2742 37.7001L34.016 37.4428H33.4996L33.2414 37.7645V38.2148L33.5642 38.4721H33.8223C33.9891 38.339 34.1406 38.188 34.2742 38.0218V37.7001ZM34.2742 41.3027L34.016 41.0454H33.4996L33.0478 41.56L33.306 42.0104L33.8223 42.2677L34.2742 41.56V41.3027ZM34.2742 44.8409C34.1451 44.7766 34.0805 44.6479 34.016 44.5836H33.306L33.0478 44.8409V45.3556L33.4996 45.7416H34.016L34.2742 45.5486V44.8409ZM34.4033 48.5078L33.8869 48.1862H33.306L33.0478 48.3792V49.0868L33.4996 49.4728C33.6303 49.5009 33.7662 49.4916 33.8918 49.4461C34.0174 49.4006 34.1276 49.3206 34.2096 49.2155C34.2096 49.0868 34.4678 48.8938 34.4033 48.5078ZM34.4033 59.0582L34.1451 58.8652H33.306C33.1769 58.9295 33.1123 59.1225 32.9187 59.3799V59.7658L33.0478 59.8945C33.0381 59.9852 33.061 60.0764 33.1123 60.1518H33.306C33.3705 60.1518 33.4351 60.2805 33.4351 60.2805H34.016L34.4033 59.8945V59.0582ZM34.4678 62.8538C34.4033 62.7251 34.4033 62.4678 34.2096 62.4034C34.016 62.3391 33.7578 62.1461 33.4996 62.2104L32.9187 62.8538V63.4971L33.3705 63.9474H34.016C34.1728 63.7025 34.369 63.4852 34.5969 63.3041C34.6189 63.2244 34.6185 63.1403 34.5957 63.0609C34.5729 62.9815 34.5287 62.9098 34.4678 62.8538ZM34.5969 66.6493C34.509 66.379 34.3535 66.1355 34.1451 65.9417H33.306L32.9187 66.392V67.2283C32.9832 67.4856 33.306 67.4856 33.4996 67.6786H33.8869L34.5969 66.971V66.6493ZM36.2751 70.3162L36.5333 70.8952L36.9206 71.2169H37.566L37.9533 70.9595L38.147 70.5735V69.9302C37.9116 69.6504 37.5965 69.4485 37.2433 69.3512L37.0497 69.5442H36.7269L36.4688 69.8016C36.4688 69.9946 36.5333 70.1876 36.2751 70.3162ZM38.147 67.0353V66.585L37.7597 66.006H36.856L36.4688 66.4563V67.2283C36.5978 67.4856 36.9206 67.4213 37.0497 67.6786H37.566L38.147 67.0353ZM36.6624 59.9588V60.0875L37.1142 60.3448H37.566L38.0179 59.8945V59.1225L37.8242 58.8652H36.9206L36.4688 59.2512V59.7658L36.6624 59.9588ZM36.5979 56.1633C36.5979 56.3563 36.7269 56.4849 36.9206 56.6136H37.566L38.0179 56.2276V55.52C37.8888 55.2626 37.566 55.327 37.437 55.134H37.1142L36.4688 55.8416C36.4636 55.9016 36.4726 55.9619 36.4951 56.0177C36.5175 56.0735 36.5527 56.1234 36.5979 56.1633ZM36.6624 52.818L37.1142 53.0754H37.566L38.0179 52.6251V52.1747L37.7597 51.7244C37.6306 51.5957 37.3724 51.8531 37.3079 51.5957C37.2433 51.3384 36.856 51.6601 36.7269 51.8531C36.6659 52.0161 36.5787 52.1682 36.4688 52.3034C36.7269 52.4321 36.5979 52.6251 36.6624 52.818ZM37.6306 30.5593L37.3724 30.3663H37.0497L36.856 30.7523L37.2433 31.1383C37.3079 31.0097 37.5015 31.0097 37.6306 30.9453V30.5593ZM37.437 33.9046H37.0497L36.7915 34.1619V34.4836L37.2433 34.8696L37.6306 34.6766C37.6276 34.6417 37.6318 34.6066 37.6429 34.5734C37.654 34.5403 37.6718 34.5097 37.6951 34.4836L37.8242 34.2906L37.437 33.9046ZM37.8242 37.7001L37.566 37.4428H37.0497L36.856 37.7001V38.2148L37.0497 38.4721H37.3724L37.8242 38.0218V37.7001ZM37.8242 41.2384L37.566 41.0454H37.0497L36.6624 41.4314C36.5979 41.6244 36.7269 41.6887 36.7915 41.753C36.8334 41.8087 36.856 41.8764 36.856 41.946L37.3724 42.2033C37.566 42.139 37.6306 41.946 37.8242 41.8174V41.2384ZM37.8242 44.8409L37.566 44.5836H36.856L36.6624 44.8409V45.3556C36.784 45.5146 36.938 45.6462 37.1142 45.7416H37.566L37.8242 45.5486V44.8409ZM37.8242 48.3792C37.7597 48.3148 37.6306 48.2505 37.566 48.1218H36.856L36.6624 48.3792V49.0868L37.1142 49.4085C37.3079 49.6658 37.5015 49.3441 37.7597 49.2798C38.0179 49.2155 38.0824 48.8938 38.0179 48.6365C37.9533 48.3792 37.8888 48.4435 37.8242 48.3792ZM38.147 62.9824C37.9533 62.8538 38.0179 62.4678 37.6951 62.4034C37.3724 62.3391 37.3079 62.1461 37.1142 62.2104L36.4688 62.7894V63.4971L36.9206 63.9474H37.566L38.147 63.3041V62.9824ZM40.0834 63.4327L40.5997 63.8831H41.3098L41.7616 63.4971C41.7298 63.2838 41.7298 63.067 41.7616 62.8538C41.5337 62.6727 41.3374 62.4553 41.1807 62.2104C40.8579 62.0818 40.6643 62.4034 40.4706 62.4034C40.277 62.4034 40.2125 62.5964 40.2125 62.6608C40.2125 62.7251 39.8897 63.0468 40.0834 63.4327ZM41.7616 59.7015V59.2512L41.2452 58.8652H40.4706L40.2125 59.0582V59.9588L40.6643 60.3448H41.1161C41.2452 60.2805 41.3098 60.1518 41.5034 60.2162C41.5763 60.0384 41.6626 59.8663 41.7616 59.7015ZM40.4061 49.2798C40.6643 49.3441 40.7934 49.5371 41.1807 49.4728L41.5679 49.0868V48.3792L41.3098 48.1218H40.5997C40.4809 48.3375 40.3284 48.533 40.1479 48.7008C40.0834 48.8295 40.4061 49.0225 40.4061 49.2798ZM41.5679 45.3556V44.8409L41.3098 44.5836H40.6643L40.4061 44.8409V45.4843L40.5997 45.7416H41.1807L41.5679 45.3556ZM40.4061 38.0861L40.8579 38.4721H41.1807L41.3743 38.2148V37.7001L41.1807 37.4428H40.6643L40.4061 37.7001V38.0861ZM41.0516 33.9046H40.7934L40.4061 34.2906L40.6643 34.7409L40.987 34.8696C41.1466 34.7484 41.2786 34.5949 41.3743 34.4192C41.3804 34.3095 41.4021 34.2012 41.4388 34.0976L41.0516 33.9046ZM41.1807 41.0454H40.6643L40.4061 41.2384C40.3736 41.43 40.3736 41.6257 40.4061 41.8174L40.7934 42.2033C40.9225 42.2677 40.987 42.2033 41.1161 42.0747H41.3098L41.5679 41.6244C41.5679 41.3027 41.2452 41.2384 41.1807 41.0454ZM41.4388 51.8531L40.987 51.5314L40.7934 51.7244H40.4706L40.2125 52.1747V52.6894L40.6643 53.0754H41.1161L41.5679 52.818V52.4964L41.7616 52.3034C41.5679 52.2391 41.6325 51.9817 41.4388 51.8531ZM40.987 55.134H40.8579L40.277 55.3913C40.277 55.52 40.2125 55.52 40.2125 55.52V56.2276L40.6643 56.6136H41.3098C41.5679 56.5493 41.5034 56.2276 41.697 56.0346C41.7584 55.9393 41.7814 55.8245 41.7616 55.713L40.987 55.134ZM43.7625 59.9588L44.2789 60.3448H44.6662L45.118 60.1518C45.1153 60.0765 45.1316 60.0017 45.1654 59.9342C45.1992 59.8668 45.2495 59.8089 45.3116 59.7658V59.3155C45.2471 59.1225 44.9889 58.9939 44.9244 58.8652H44.0207L43.7625 59.0582V59.9588ZM44.9244 48.1862H44.2143C44.0983 48.3672 43.9441 48.5209 43.7625 48.6365V48.9582L43.9562 49.1511V49.3441C44.2143 49.4085 44.408 49.6015 44.7307 49.5371C44.8903 49.416 45.0223 49.2625 45.118 49.0868V48.5078L44.9244 48.1862ZM45.118 45.2269V44.8409L44.9244 44.5836H44.2143C44.0853 44.6479 44.0207 44.7766 43.9562 44.8409V45.5486L44.2143 45.7416H44.7307L45.118 45.2269ZM44.9889 37.7001L44.7307 37.4428H44.2143L43.9562 37.7001V38.0861L44.408 38.4721H44.7307L44.9889 38.2148V37.7001ZM44.7307 41.0454H44.2143L43.9562 41.2384V41.8174L44.4725 42.2033L44.9244 42.0104C44.9972 41.8325 45.0835 41.6605 45.1825 41.4957C45.118 41.3027 44.8598 41.2384 44.7307 41.0454ZM45.118 51.9817C45.1199 51.9233 45.1017 51.866 45.0665 51.8192C45.0313 51.7724 44.9812 51.739 44.9244 51.7244C44.7751 51.7122 44.6364 51.6431 44.5371 51.5314L44.408 51.7244H44.0207L43.8271 52.1747V52.6894L44.3434 53.0754H44.6662L45.118 52.818V52.4964L45.3116 52.3034C45.2497 52.2767 45.1976 52.2313 45.1629 52.1736C45.1282 52.1159 45.1125 52.0488 45.118 51.9817ZM45.3116 55.8416L44.6016 55.0696C44.2765 55.1136 43.9783 55.2736 43.7625 55.52V56.2276L44.2143 56.6136H44.9889C45.0535 56.5493 45.118 56.5493 45.118 56.4849L45.3116 56.0346C45.3762 55.9703 45.3116 55.8416 45.3116 55.8416ZM47.3771 52.3034C47.4417 52.3677 47.5062 52.4321 47.5062 52.4964V52.818L48.0226 53.0754H48.4744L48.8617 52.4964V52.1747L48.6681 51.7244H48.2808L48.1517 51.5314C48.0226 51.7244 47.7644 51.6601 47.6353 51.8531C47.5062 52.0461 47.5708 52.2391 47.3771 52.3034ZM48.7326 44.8409L48.4744 44.5836H47.7644L47.5708 44.7766C47.5062 44.9696 47.5708 45.0983 47.5062 45.2913L47.9581 45.7416H48.4744L48.7326 45.5486V44.8409ZM48.8617 48.5722L48.4744 48.1218H47.7644L47.5708 48.3792V49.0868L47.9581 49.4085C48.2162 49.6658 48.4099 49.3441 48.6681 49.2798C48.9262 49.2155 48.9262 48.8938 48.8617 48.5722Z" fill="#FF52D2"/>
<path d="M80.2632 41.2427C92.8517 41.2427 101.281 52.4364 99.4509 64.0712C98.009 73.3349 85.4206 88.7193 80.8733 90.2081L82.8142 92.7998C83.0203 93.0814 83.1434 93.4145 83.1697 93.7617C83.1961 94.109 83.1246 94.4567 82.9634 94.7658C82.8022 95.075 82.5576 95.3334 82.257 95.5121C81.9564 95.6907 81.6116 95.7826 81.2614 95.7774H79.2096C78.8641 95.7724 78.5267 95.6732 78.2341 95.4904C77.9415 95.3077 77.705 95.0485 77.5505 94.7413C77.396 94.434 77.3293 94.0904 77.3579 93.748C77.3864 93.4056 77.509 93.0776 77.7123 92.7998L79.5978 90.2081C75.1059 88.7193 62.5175 73.3349 61.0202 64.0712C59.1901 52.4364 67.6748 41.2427 80.2632 41.2427Z" fill="#FF52D2"/>
<path d="M99.0071 66.0564H98.7299C98.5635 66.0564 98.508 66.2218 98.3971 66.2769L98.1753 66.4975V66.8283C98.3971 66.9386 98.2862 67.2695 98.508 67.3246H98.6189C97.9623 69.0942 97.1649 70.809 96.2344 72.4527L95.9016 72.0668H95.6243C95.5134 72.2322 95.2916 72.2322 95.1807 72.3425C95.0698 72.4527 95.1252 72.6733 94.9589 72.7284V73.0042L95.458 73.5556H95.6243C94.7371 75.0995 93.7389 76.6986 92.6852 78.1874C92.3632 78.2638 92.0727 78.4371 91.8534 78.6837V79.2351H91.9088L90.1343 81.5511L89.9124 81.3305H89.1915C89.0355 81.4296 88.903 81.5613 88.8033 81.7165V82.4333L89.1361 82.7642L87.1951 84.9698V84.7493C87.0684 84.6134 86.9181 84.5013 86.7515 84.4184H86.1415L85.7533 84.5838V84.7493L85.6424 84.9147V85.4661L86.1415 85.9624H86.3078C85.6323 86.6885 84.9099 87.3701 84.1451 88.0026C84.0896 87.8372 83.9787 87.782 83.8678 87.6717L83.4796 87.4512H83.2023C83.0914 87.5615 82.9805 87.5615 82.8696 87.6166L82.5368 88.0026V88.7194L82.9805 89.1054C82.3311 89.5947 81.6233 90.0022 80.8732 90.3185L82.8141 92.9102C82.9714 93.1452 83.0842 93.4068 83.1469 93.6821C83.1047 93.7063 83.0569 93.7191 83.0082 93.7191C82.9595 93.7191 82.9117 93.7063 82.8696 93.6821L82.5368 94.1233C82.4814 94.2336 82.5368 94.399 82.4259 94.4541L82.5368 94.9504L82.7587 95.171C82.5869 95.4029 82.3606 95.5895 82.0996 95.7144C81.8386 95.8394 81.5508 95.8989 81.2614 95.8878H79.2095C78.9214 95.89 78.6367 95.8265 78.3772 95.7022C78.1176 95.578 77.8901 95.3962 77.7122 95.171L77.9895 94.8401C78.0449 94.8401 77.8786 94.6195 78.1559 94.5644L77.9895 94.3438V93.9579L77.6013 93.627H77.3795C77.4174 93.3275 77.532 93.0428 77.7122 92.7999L79.5977 90.2082C78.86 89.9014 78.1693 89.493 77.5458 88.9951L77.934 88.6091V87.8923L77.6013 87.5063L77.324 87.396H76.9913L76.6031 87.6166C76.4807 87.7211 76.3855 87.8535 76.3258 88.0026C75.6604 87.4512 74.9949 86.7343 74.2185 86.0175L74.5513 85.8521L74.7176 85.4661V84.8044L74.3849 84.4184H73.664L73.4976 84.5838H73.3867L73.2203 84.9147L71.3348 82.8193L71.6676 82.4333V81.7165L71.2794 81.3856H70.6139L70.3921 81.6062L68.5621 79.2351C68.6069 79.1505 68.6261 79.0547 68.6175 78.9594V78.7389C68.5066 78.5734 68.3402 78.4631 68.3402 78.408L67.8411 78.1874C66.7592 76.6795 65.7596 75.115 64.8465 73.5004H65.0684L65.4011 73.0593V72.6733L64.7911 72.0668C64.6247 72.0116 64.4583 72.2322 64.292 72.2873H64.1811C63.2932 70.657 62.533 68.9609 61.9074 67.2143H61.9628C62.1847 67.104 62.1292 66.8283 62.351 66.718V66.4423L61.7965 65.9461H61.4637C61.2974 65.2292 61.131 64.5675 61.0201 63.961C60.5392 60.8809 60.7667 57.7325 61.6856 54.7524H61.9628L62.1847 54.3664C62.1847 54.201 62.0738 54.1458 61.9628 54.0907C62.9183 51.3525 64.4885 48.8667 66.5544 46.8221C68.6203 44.7774 71.1276 43.2277 73.8858 42.2905C73.9412 42.2905 74.0522 42.2353 74.1076 42.2905L74.2185 42.1802C76.1711 41.5528 78.2112 41.2365 80.2632 41.2428C82.2736 41.2493 84.2725 41.5465 86.1969 42.125C86.2524 42.2905 86.4187 42.1802 86.5296 42.2353H86.5851C89.3374 43.1833 91.839 44.7368 93.9034 46.78C95.9678 48.8232 97.5418 51.3033 98.508 54.0355L98.2862 54.3113L98.508 54.7524L98.7853 54.8627C99.7042 57.8428 99.9317 60.9912 99.4508 64.0713C99.3443 64.7414 99.1961 65.4044 99.0071 66.0564ZM62.1847 57.1786L61.9628 56.958H61.3528L61.131 57.1786V57.7852L61.3528 57.9506H61.7965L62.1847 57.5646V57.1786ZM62.1847 60.2114L61.9628 60.046H61.3528L60.9646 60.4319C60.9092 60.6525 61.2419 60.7628 61.1865 61.0385H61.3528L61.5192 61.1488H61.7965L62.1847 60.8179V60.2114ZM62.0738 63.1339L61.6301 62.9133C61.5747 63.1339 61.3528 63.0236 61.2419 63.0787L61.0201 63.4647V63.8507L61.3528 64.2367H61.7965L62.1847 64.0161C62.2401 63.9058 62.0738 63.6853 62.2956 63.6301C62.2555 63.4517 62.1801 63.283 62.0738 63.1339ZM64.0702 70.1368C64.1969 70.2727 64.3472 70.3847 64.5138 70.4677H64.8465L65.2347 70.3022C65.2324 70.2376 65.2464 70.1735 65.2755 70.1157C65.3045 70.0579 65.3477 70.0083 65.4011 69.9714V69.5854C65.3456 69.42 65.1238 69.3097 65.0684 69.1994H64.292L64.0702 69.3648V70.1368ZM64.0702 60.5974L64.292 60.9834H64.4583L64.5693 61.0936H64.902L65.2347 60.7628V60.2114L65.0684 60.046H64.4029L64.0702 60.4319V60.5974ZM65.2347 57.6197V57.1786L65.0129 56.958H64.4583L64.2365 57.1786V57.7852L64.5138 57.9506H64.902L65.2347 57.6197ZM65.0684 51.0579L64.8465 50.8374H64.4583L64.2365 51.0579V51.3888L64.6247 51.7196H64.902L65.0684 51.499V51.0579ZM64.902 53.9253H64.4583L64.2365 54.0907V54.587L64.7356 54.9178L64.8465 54.8075H65.0684L65.2347 54.3664C65.1793 54.1458 65.0129 54.0355 64.902 53.9253ZM65.2347 63.2993C65.2347 63.2408 65.2114 63.1847 65.1698 63.1433C65.1282 63.102 65.0717 63.0787 65.0129 63.0787C64.9551 63.0835 64.8972 63.07 64.8475 63.0404C64.7978 63.0107 64.7586 62.9662 64.7356 62.9133L64.5693 63.0787H64.292L64.0702 63.4647V63.9058L64.5693 64.2367H64.8465L65.2347 64.0161V63.7404L65.4011 63.575C65.3478 63.5521 65.3031 63.5132 65.2733 63.4638C65.2435 63.4143 65.23 63.3568 65.2347 63.2993ZM65.4011 66.5526C65.2304 66.3552 65.045 66.1709 64.8465 66.0012C64.814 65.982 64.7779 65.9695 64.7404 65.9647C64.7029 65.9598 64.6648 65.9627 64.6285 65.973C64.5921 65.9833 64.5583 66.0009 64.529 66.0248C64.4998 66.0486 64.4757 66.0781 64.4583 66.1115C64.292 66.1115 64.2365 66.2218 64.0702 66.3321V66.9386L64.4583 67.2695H65.0129C65.2347 67.2143 65.2347 66.9386 65.3456 66.7732C65.3897 66.7085 65.4094 66.6304 65.4011 66.5526ZM67.0093 72.7284V73.0042L67.5084 73.5556H68.1184L68.4511 73.1696V72.563L67.952 72.0668H67.7302L67.4529 72.2322C67.2866 72.2322 67.2311 72.3425 67.1757 72.4527C67.1202 72.563 67.1202 72.6733 67.0093 72.7284ZM68.4511 69.9714V69.5854C68.3957 69.42 68.2293 69.3097 68.1184 69.1994H67.3975L67.1757 69.3648V70.1368L67.5639 70.4677H67.8966L68.2848 70.3022C68.3288 70.1866 68.3845 70.0758 68.4511 69.9714ZM67.1757 60.5974L67.342 60.9834H67.5084L67.6748 61.0936H67.952L68.3402 60.7628V60.2114L68.1184 60.046H67.5084C67.3713 60.1498 67.2579 60.2814 67.1757 60.4319V60.5974ZM68.3402 57.4543V57.1786L68.1184 56.958H67.5084L67.2866 57.1786V57.73L67.5084 57.9506H68.0075L68.3402 57.4543ZM68.1739 48.0251L67.8966 47.8046H67.6748L67.342 48.1354L67.5084 48.5214H67.6748L67.7857 48.6868L68.1739 48.3009V48.0251ZM68.1739 51.0579L67.952 50.8374H67.5084L67.2866 51.0579V51.3336L67.6748 51.7196H67.952L68.1739 51.499V51.0579ZM67.952 53.9253H67.5084L67.2866 54.0907V54.587L67.7857 54.9178L68.1184 54.7524C68.181 54.6 68.2552 54.4525 68.3402 54.3113L67.952 53.9253ZM68.3402 63.3544L68.2293 63.189C68.2035 63.1548 68.17 63.127 68.1315 63.1078C68.093 63.0887 68.0505 63.0787 68.0075 63.0787L67.7857 62.9133L67.6748 63.0787H67.3975L67.1757 63.4647V63.8507L67.6193 64.2367H67.8966L68.2848 64.0161C68.3957 63.9058 68.2293 63.6853 68.4511 63.6301C68.673 63.575 68.3402 63.4647 68.3402 63.3544ZM68.4511 66.4975L67.8966 66.0012H67.6748L67.1757 66.2769V66.9386L67.5084 67.2695H68.1184C68.1739 67.2143 68.2848 67.1592 68.2848 67.104C68.2848 67.0489 68.5621 66.7732 68.4511 66.4975ZM68.6175 75.8164C68.4511 75.6509 68.4511 75.3752 68.2293 75.2649H67.5084L67.1757 75.7061V76.3678L67.2866 76.4781L67.6748 76.7538H68.1184L68.6175 76.2024V75.8164ZM73.1649 82.323C73.3312 82.4333 73.2758 82.6539 73.3867 82.7642C73.4976 82.8744 73.7194 82.8193 73.8303 82.9847H74.2185L74.7731 82.4885V81.7716L74.3849 81.3856H73.664L73.1649 81.8819V82.323ZM70.6139 79.7865H71.113L71.5012 79.6211V79.4005L71.6121 79.2903V78.6837C71.5012 78.5734 71.3903 78.408 71.2794 78.3529C71.1685 78.2977 71.0576 78.1874 70.8912 78.1874L70.6694 78.3529H70.3921L70.1703 78.5734V78.8491L70.0039 79.0146C70.1173 79.331 70.3315 79.6021 70.6139 79.7865ZM70.2257 75.7061V76.3678C70.3366 76.4781 70.3921 76.5883 70.503 76.5883C70.6139 76.5883 70.6694 76.6986 70.7248 76.7538H71.1685C71.3056 76.5616 71.4743 76.3938 71.6676 76.2575V75.8164C71.5012 75.6509 71.5567 75.3752 71.3348 75.2649H70.5585L70.2257 75.7061ZM70.2257 69.9714L70.4475 70.3574C70.6139 70.3022 70.6694 70.4125 70.7248 70.4677H71.1685L71.5567 70.1368V69.3648L71.3348 69.1994H70.5585L70.2257 69.6405V69.9714ZM70.2257 63.575L70.3921 63.7404V64.0161L70.7803 64.2367H71.1685L71.5012 63.8507V63.4647L71.3348 63.0787H71.0021L70.8912 62.9684C70.7803 63.0787 70.6139 63.0787 70.4475 63.189C70.2812 63.2993 70.4475 63.5199 70.2257 63.575ZM71.2239 44.9372L71.0021 44.7167H70.7248L70.5585 45.1578L70.8912 45.4335L71.2239 45.2681V44.9372ZM71.0021 47.8046H70.7248L70.503 47.97V48.3009L70.8912 48.6317L71.2239 48.4663L71.3903 48.1354L71.0021 47.8046ZM71.3903 51.0579L71.1685 50.8374H70.7248L70.5585 51.0579V51.499L70.7248 51.7196H71.0021C71.1581 51.6205 71.2906 51.4888 71.3903 51.3336V51.0579ZM71.3903 54.1458L71.1685 53.9253H70.7248L70.3921 54.3664C70.4679 54.4854 70.524 54.6157 70.5585 54.7524L71.0021 54.9178C71.1685 54.8627 71.2239 54.6972 71.3903 54.5318V54.1458ZM70.3921 57.1786V57.6197L70.7248 57.9506H71.1685L71.3903 57.73V57.1786L71.1685 56.958H70.6139L70.3921 57.1786ZM71.113 60.046H70.5585L70.3921 60.2114C70.3366 60.2665 70.3921 60.4319 70.3921 60.5422C70.3921 60.6525 70.3921 60.7076 70.3921 60.8179L70.7248 61.1488H71.0021L71.3348 60.9834C71.4509 60.799 71.5265 60.5923 71.5567 60.3768L71.113 60.046ZM71.4457 66.2769C71.4457 66.2477 71.4341 66.2196 71.4133 66.1989C71.3925 66.1783 71.3642 66.1666 71.3348 66.1666L71.0021 66.0012H70.8357L70.2257 66.6078C70.2665 66.8691 70.4051 67.1055 70.6139 67.2695H71.1685L71.5567 66.8835V66.3872C71.5012 66.3321 71.5012 66.2769 71.4457 66.2769ZM71.5012 72.4527C71.5028 72.4027 71.4872 72.3535 71.4569 72.3134C71.4267 72.2733 71.3836 72.2447 71.3348 72.2322C71.113 72.2322 71.0021 71.9565 70.6694 72.1219L70.2257 72.563V73.1696L70.5585 73.5556H71.113L71.6676 73.0593C71.7785 72.7836 71.5567 72.6182 71.5012 72.4527ZM73.664 79.7865H74.1631L74.5513 79.6211C74.6067 79.5108 74.6067 79.3454 74.7731 79.2903V78.6837L74.4403 78.408L73.9967 78.1874L73.4976 78.3529L73.2758 78.5734V78.8491L73.1649 79.0146C73.1837 79.1725 73.2384 79.324 73.3249 79.4578C73.4114 79.5915 73.5273 79.704 73.664 79.7865ZM73.2758 75.6509V76.3678C73.3867 76.5883 73.664 76.5332 73.7749 76.7538H74.2185L74.7731 76.1472V75.8164L74.4403 75.2649H73.664C73.5643 75.4201 73.4318 75.5518 73.2758 75.6509ZM73.2758 69.9162C73.3702 70.0321 73.4451 70.1625 73.4976 70.3022L73.8303 70.4677H74.274L74.6067 70.0817V69.3648L74.3294 69.1994H73.664L73.2758 69.5303V69.9162ZM73.2758 63.575L73.4421 63.7404V64.0161L73.8303 64.2367H74.274C74.3617 64.0737 74.4739 63.9249 74.6067 63.7956V63.4647L74.3849 63.0787H74.1076L73.9412 62.9133C73.8858 63.0787 73.664 63.0236 73.5531 63.189C73.4421 63.3544 73.4976 63.5199 73.2758 63.575ZM73.4421 57.6197L73.8303 57.9506H74.274L74.4403 57.73V57.1786L74.274 56.958H73.664L73.4421 57.1786V57.6197ZM74.274 44.9372L74.1076 44.7167H73.8303L73.6085 45.1578L73.9967 45.4335L74.274 45.2681V44.9372ZM74.1076 47.8046H73.8303L73.6085 48.0251V48.3009L73.9967 48.6317L74.274 48.4663V48.3009L74.3849 48.1354L74.1076 47.8046ZM73.6085 51.0579V51.499L73.7749 51.7196H74.1076L74.4403 51.3336V51.0579L74.274 50.8374H73.8303L73.6085 51.0579ZM74.4403 54.1458L74.274 53.9253H73.7749L73.4421 54.3664L73.6085 54.7524L74.0522 54.9178C74.2193 54.8332 74.3552 54.6981 74.4403 54.5318V54.1458ZM74.6067 60.3768C74.492 60.2343 74.3618 60.1049 74.2185 59.9908H73.664L73.4421 60.2114V60.8179L73.8303 61.0936C74.0522 61.3142 74.2185 61.0385 74.4403 60.9834C74.6622 60.9282 74.6622 60.6525 74.6067 60.3768ZM74.6067 66.3321C74.5513 66.2769 74.4958 66.1666 74.4403 66.1666C74.3849 66.1666 74.0522 65.8909 73.8303 66.0012L73.2758 66.5526V66.718L73.6085 67.2695H74.274L74.6067 66.9386V66.3321ZM74.7176 72.7284C74.6067 72.563 74.6067 72.2873 74.4403 72.2873C74.274 72.2873 74.0522 72.0116 73.8303 72.0668L73.2758 72.6182V73.1696L73.7194 73.5556H74.2185L74.7731 72.949C74.7731 72.949 74.7731 72.7836 74.7176 72.7284ZM82.5368 85.5212L83.0359 86.0175H83.5905L83.7569 85.9072H83.9232L84.1451 85.4661V84.8044L83.646 84.4735H83.0359L82.7032 84.639L82.5368 85.025V85.5212ZM84.1451 82.4885V81.7716L83.7569 81.3856H83.0359L82.5368 81.937V82.323C82.7032 82.4333 82.6478 82.5987 82.7587 82.7642C82.8696 82.9296 83.0914 82.8193 83.1469 82.9847H83.5905L84.1451 82.4885ZM79.3204 94.6747C79.4313 94.785 79.3759 95.0055 79.5422 95.1158L79.9859 95.3364H80.5404L81.0395 94.8401V94.5644L81.2059 94.399L81.0395 94.2336V93.9579L80.7068 93.627H80.4295L80.2632 93.4616L80.0968 93.627H79.8195L79.3204 94.1233V94.6747ZM79.4868 90.8699C79.4313 90.9802 79.4313 91.1456 79.3204 91.2008V91.6419C79.3883 91.7183 79.4275 91.8157 79.4313 91.9176C79.4868 92.0279 79.5977 92.1382 79.6532 92.1382C79.711 92.1335 79.7688 92.1469 79.8186 92.1765C79.8683 92.2062 79.9074 92.2507 79.9304 92.3036H80.3186C80.6106 92.1986 80.8626 92.0059 81.0395 91.7522V91.0905L80.8732 90.7045H80.6514L80.5404 90.5391H79.8195L79.4868 90.8699ZM76.3813 85.5212L76.5476 85.8521L76.9358 86.0175H77.4349L77.9895 85.4661V84.9698L77.7677 84.639H77.6013L77.4349 84.4735H76.714L76.3813 84.8595V85.5212ZM76.3813 82.3782L76.9913 82.9847H77.2686L77.7122 82.709C77.817 82.57 77.9097 82.4224 77.9895 82.2679V81.9922L77.3795 81.3856H76.714L76.3813 81.8819V82.3782ZM77.4904 60.046H76.8804L76.4922 60.4319V60.7076L76.6586 60.8731V61.0385C76.8804 61.0936 77.0467 61.2591 77.324 61.2039C77.4611 61.1001 77.5745 60.9685 77.6568 60.8179V60.3217L77.4904 60.046ZM77.6568 57.5095V57.1786L77.4904 56.958H76.8804C76.8249 57.0683 76.714 57.1235 76.6586 57.1786V57.7852L76.8804 57.9506H77.324C77.4607 57.8246 77.5734 57.6752 77.6568 57.5095ZM77.3795 41.9045L77.2131 41.6839L76.8249 42.0147L77.0467 42.2905H77.324C77.4349 42.1802 77.3795 42.0147 77.3795 41.9045ZM77.324 44.7718H76.9913L76.8249 44.9372V45.2681L77.2131 45.4335L77.4904 45.1027L77.324 44.7718ZM77.5458 47.97L77.324 47.8046H77.0467L76.714 48.1906L76.8249 48.4663L77.2131 48.6317L77.5458 48.3009V47.97ZM77.5458 51.0579L77.324 50.8374H76.8804L76.6586 51.0579V51.3336L77.0467 51.7196H77.324L77.5458 51.499V51.0579ZM77.324 53.9253H76.8804L76.6586 54.1458V54.587L77.1577 54.9178L77.324 54.8075C77.324 54.7524 77.4349 54.7524 77.4904 54.7524L77.7122 54.3113C77.5972 54.1691 77.467 54.0397 77.324 53.9253ZM77.5458 63.1339L77.1577 62.9133C77.0467 63.1339 76.8804 63.0236 76.714 63.0787C76.5476 63.1339 76.7695 63.4096 76.4922 63.4096V63.8507L76.8804 64.2367H77.324C77.3795 64.1264 77.5458 64.0713 77.6568 64.0161C77.7677 63.961 77.6013 63.6853 77.8231 63.575C78.0449 63.4647 77.7122 63.2441 77.5458 63.1339ZM76.4922 69.3648V70.1368L76.8804 70.4677H77.324C77.3795 70.4125 77.4349 70.3022 77.6013 70.3574C77.6639 70.205 77.7381 70.0575 77.8231 69.9162V69.5303L77.324 69.1994H76.714L76.4922 69.3648ZM77.8231 66.4975L77.324 66.0012H77.1022C76.9358 66.1115 76.6586 66.1115 76.5476 66.3321V66.9386L76.9913 67.2695H77.4904C77.6568 67.1592 77.6568 66.9386 77.8231 66.7732V66.4975ZM77.8231 72.6182L77.2686 72.0668H76.9913C76.8804 72.177 76.6031 72.177 76.5476 72.3425C76.4922 72.5079 76.2704 72.7285 76.3813 72.949L76.9358 73.5004H77.4904L77.8231 73.0593V72.6182ZM76.3813 75.7612V76.2024L76.9358 76.6986H77.324L77.8231 76.4229V75.6509L77.4904 75.2649H76.7695C76.5476 75.3752 76.5476 75.6509 76.3813 75.7612ZM77.8231 78.8491V78.5734L77.6013 78.3529H77.324L77.1577 78.1874C77.0467 78.1323 76.9913 78.2977 76.8804 78.3529C76.8287 78.3485 76.7767 78.3562 76.7286 78.3753C76.6805 78.3945 76.6375 78.4246 76.6031 78.4631L76.3813 78.6837V79.2351L76.5476 79.6211L76.9358 79.7865H77.4349C77.6967 79.5935 77.8907 79.3234 77.9895 79.0146L77.8231 78.8491ZM79.3759 88.4989C79.42 88.5636 79.4396 88.6417 79.4313 88.7194L79.7641 89.1054H80.5404L81.0395 88.6091V87.8372L80.7068 87.5063L80.4295 87.396C80.3186 87.2858 80.1523 87.3409 80.0413 87.396L79.5977 87.6717C79.4868 87.8372 79.4868 88.0026 79.3204 88.1129C79.2874 88.1748 79.2749 88.2455 79.2849 88.3149C79.2949 88.3842 79.3267 88.4487 79.3759 88.4989ZM80.9286 84.6941L80.485 84.4735H79.7641L79.4313 84.8595V85.5212L79.6532 85.8521H79.8195L79.9304 85.9624H80.5404L81.0395 85.4661V84.9147C80.9841 84.8595 80.8177 84.8044 80.9286 84.6941ZM81.0395 82.323V81.937L80.5404 81.3856H79.8195L79.4313 81.7716V82.4333L79.9859 82.9847H80.3186C80.485 82.8744 80.7068 82.8744 80.8177 82.709L81.0395 82.323ZM79.4313 72.7284V73.0042L79.9304 73.5556H80.5404L80.9286 73.1696V72.563L80.3741 72.0668H80.0968C80.0413 72.2322 79.8195 72.2322 79.7086 72.3425C79.5977 72.4527 79.5977 72.6733 79.4313 72.7284ZM79.4313 75.7612V76.2024L79.9859 76.7538H80.3741L80.8732 76.4229V75.6509L80.5404 75.2649H79.8195C79.5977 75.3752 79.5977 75.6509 79.4313 75.7612ZM80.9286 69.9714V69.5303L80.5404 69.1994H79.8195L79.5977 69.3648V70.1368L79.9859 70.4677H80.3186L80.7068 70.3022V70.0817L80.9286 69.9714ZM80.5959 60.046H79.9304L79.5977 60.4319V60.7076L79.7086 60.8731V61.0385C79.9304 61.0936 80.0968 61.2591 80.4295 61.2039L80.7623 60.8179V60.3217L80.5959 60.046ZM80.7623 57.6197V57.1786L80.5404 56.958H79.9304L79.7641 57.1786V57.73L79.9304 57.9506H80.3741L80.7623 57.6197ZM79.7086 51.3336L80.0968 51.7196H80.4295L80.5959 51.499V51.0579L80.4295 50.8925H79.9304L79.7086 51.0579V51.3336ZM80.485 41.9045L80.2077 41.6839L79.9304 42.0699L80.0968 42.2353H80.4295C80.5404 42.1802 80.4295 42.0147 80.485 41.9045ZM80.485 44.7718H80.0968L79.875 44.9924V45.2681L80.2632 45.4335L80.5959 45.1027C80.5404 44.9924 80.3186 44.9372 80.485 44.7718ZM80.5959 48.0251L80.3741 47.8046H80.0968L79.7641 48.1354C79.7641 48.2457 79.9304 48.3009 79.875 48.4111L80.2632 48.6317L80.5959 48.1906V48.0251ZM80.3186 53.9253H79.9304L79.7086 54.201V54.587L80.0968 54.9178C80.2077 54.9178 80.2632 54.9178 80.3186 54.8075H80.5404C80.5605 54.7851 80.5758 54.7589 80.5853 54.7305C80.5948 54.7021 80.5984 54.672 80.5959 54.6421L80.7068 54.5318C80.7068 54.4767 80.7623 54.4215 80.7623 54.3113L80.3186 53.9253ZM80.6514 63.189C80.5404 63.0236 80.3186 63.0787 80.2632 62.9133L80.0968 63.0787H79.8195L79.5977 63.4647V63.9058L80.0413 64.2367H80.3741L80.7623 64.0161V63.7404C80.8177 63.6853 80.8732 63.6301 80.8732 63.575C80.8732 63.5199 80.7623 63.2993 80.6514 63.189ZM80.9286 66.6078L80.3186 65.9461C80.1786 65.9593 80.0427 66.0003 79.9189 66.0666C79.7951 66.1329 79.6859 66.2231 79.5977 66.3321V66.9386L79.9859 67.2695H80.5959C80.6514 67.2143 80.7068 67.2143 80.7068 67.1592L80.8732 66.7732C80.9286 66.718 80.9286 66.6078 80.9286 66.6078ZM80.8732 78.8491V78.5734L80.7068 78.3529H80.3741L80.2632 78.1874C80.0413 78.1874 79.9859 78.408 79.8195 78.3529L79.4313 78.6837V79.2351L79.6532 79.6211L79.9859 79.7865H80.5404C80.7683 79.5963 80.9406 79.3487 81.0395 79.0697C81.095 78.9594 80.9286 78.9043 80.8732 78.8491ZM82.6478 79.2903C82.6478 79.3331 82.6578 79.3753 82.677 79.4136C82.6963 79.4518 82.7242 79.4852 82.7587 79.5108C82.8696 79.6211 82.925 79.7314 83.0359 79.7865H83.535L83.9232 79.6211L84.1451 79.2351V78.6837C83.9258 78.4371 83.6353 78.2638 83.3132 78.1874L83.1469 78.3529H82.8696L82.6478 78.5734V78.8491L82.5368 78.9594C82.4814 79.1248 82.6478 79.18 82.6478 79.2903ZM84.1451 76.2575V75.8164C83.9232 75.6509 83.9787 75.3752 83.7569 75.2649H83.0359L82.6478 75.7061V76.3678C82.7587 76.4781 82.8141 76.5883 82.9805 76.5883L83.2023 76.7538H83.5905C83.7466 76.5591 83.934 76.3914 84.1451 76.2575ZM82.6478 63.575L82.8141 63.7404V64.0161L83.2023 64.2367H83.646L83.9787 63.7404V63.4647L83.7569 63.0787H83.4796L83.3132 62.9133C83.2578 63.0787 83.0359 63.0236 82.925 63.189C82.8141 63.3544 82.8141 63.5199 82.6478 63.575ZM82.8141 57.6197L83.2023 57.9506H83.5905L83.8123 57.7852V57.1786L83.5905 56.958H83.0359L82.8141 57.1786V57.6197ZM82.9805 54.7524H83.2023C83.2367 54.791 83.2797 54.821 83.3278 54.8402C83.376 54.8593 83.4279 54.867 83.4796 54.8627L83.8123 54.4215V54.0355L83.5905 53.8701H83.1469C83.0359 53.9804 82.8696 54.0907 82.8141 54.2561L82.9805 54.7524ZM83.2578 41.739L83.0914 41.9596V42.1802C83.2023 42.3456 83.3132 42.2353 83.4796 42.2905L83.646 42.0147L83.2578 41.739ZM83.7014 44.9372L83.4796 44.7718H83.1469L82.9805 45.1027L83.3132 45.4335L83.7014 45.2681V44.9372ZM83.4241 47.8597H83.1469L82.925 48.1354V48.356L83.3132 48.6868L83.646 48.5214L83.8123 48.1906L83.4241 47.8597ZM83.8123 51.0579L83.5905 50.8374H83.1469L82.9805 51.0579V51.499L83.1469 51.7196H83.4796L83.8123 51.3336V51.0579ZM83.9787 60.3768L83.5905 59.9908H83.0359L82.8141 60.2114V60.8179L83.1469 61.0936C83.4241 61.3142 83.535 61.0385 83.7569 60.9834C83.8111 60.8612 83.8861 60.7492 83.9787 60.6525V60.3768ZM83.9787 66.3321C83.8843 66.2166 83.7662 66.1224 83.6323 66.0559C83.4985 65.9893 83.3519 65.9519 83.2023 65.9461L82.6478 66.5526C82.7228 66.8065 82.8349 67.048 82.9805 67.2695H83.5905L83.9787 66.8283V66.3321ZM83.9787 69.42L83.8123 69.1994C83.6657 69.1724 83.5153 69.1724 83.3687 69.1994C83.2578 69.1443 83.1469 69.1994 83.0359 69.1994L82.6478 69.5303V69.9714L82.8141 70.1368V70.2471L83.2023 70.4677H83.646L83.9787 70.0265V69.42ZM84.0896 72.7284C83.9787 72.563 83.9787 72.2873 83.7569 72.2873C83.535 72.2873 83.4241 72.0116 83.2023 72.0668C83.0316 72.2641 82.8463 72.4485 82.6478 72.6182V73.1696L83.0914 73.5556H83.5905L84.1451 72.949C84.0896 72.949 84.1451 72.7836 84.0896 72.7284ZM91.8534 76.2024L92.4079 76.7538H92.7961L93.2952 76.4229V75.6509L92.9625 75.2649H92.2416C92.0197 75.3752 92.0752 75.6509 91.8534 75.7612V76.2024ZM85.5869 82.323L85.8642 82.709C85.9196 82.8193 86.086 82.8744 86.2524 82.9847H86.696L87.1951 82.4333V81.7716L86.8069 81.3856H86.086L85.5869 81.937V82.323ZM86.086 79.7865H86.6406L86.9733 79.6211L87.1951 79.2351V78.6837C87.0287 78.5734 86.9733 78.408 86.7515 78.3529L86.4187 78.1874L86.2524 78.3529H85.9196L85.7533 78.5734V78.8491L85.5869 79.0146C85.6637 79.3193 85.8391 79.5905 86.086 79.7865ZM86.086 67.2695H86.696L87.0287 66.8835V66.3321C86.9178 66.1115 86.6406 66.1666 86.5296 66.0012H86.2524L85.7533 66.4975V66.7732C85.9196 66.8835 85.8087 67.2143 86.086 67.2695ZM85.6978 63.575L85.8642 63.7404V64.0161L86.3078 64.2367H86.696L87.0287 63.8507V63.4647C86.9763 63.325 86.9014 63.1946 86.8069 63.0787H86.5296L86.4187 62.9684C86.3078 63.0787 86.1415 63.0787 85.9751 63.189C85.8087 63.2993 85.9196 63.5199 85.6978 63.575ZM86.4742 44.7718H86.2524L86.0305 45.1027L86.3633 45.4335L86.7515 45.2681V44.9372L86.4742 44.7718ZM86.5296 47.8046H86.2524L86.0305 48.0251V48.3009L86.4187 48.6317L86.7515 48.4663C86.696 48.3009 86.8624 48.2457 86.8624 48.1354L86.5296 47.8046ZM86.9178 51.0579L86.696 50.8374H86.2524L86.0305 51.1131V51.499L86.3078 51.7196H86.5296C86.6729 51.6055 86.8031 51.4761 86.9178 51.3336V51.0579ZM86.9178 54.1458L86.696 53.9253H86.2524L85.8642 54.3664L86.086 54.7524L86.5296 54.973L86.9178 54.3664V54.1458ZM86.9178 57.1786C86.8069 57.1235 86.7515 57.0132 86.696 56.958H86.086L85.8642 57.1786V57.6197L86.2524 57.9506H86.696L86.9178 57.7852V57.1786ZM87.0287 60.3217L86.5851 60.046H86.086L85.8642 60.2114V60.8179L86.2524 61.1488C86.3646 61.1728 86.4814 61.1649 86.5893 61.1259C86.6972 61.0868 86.7919 61.0183 86.8624 60.9282C86.8624 60.8179 87.0842 60.6525 87.0287 60.3217ZM87.0287 69.3648L86.8069 69.1994H86.086C85.9751 69.2545 85.9196 69.42 85.7533 69.6405V69.9714L85.8642 70.0817C85.8559 70.1594 85.8755 70.2375 85.9196 70.3022H86.086C86.1415 70.3022 86.1969 70.4125 86.1969 70.4125H86.696L87.0287 70.0817V69.3648ZM87.0842 72.6182C87.0287 72.5079 87.0287 72.2873 86.8624 72.2322C86.696 72.177 86.4742 72.0116 86.2524 72.0668L85.7533 72.6182V73.1696L86.1415 73.5556H86.696C86.8307 73.3457 86.9993 73.1594 87.1951 73.0042C87.214 72.9359 87.2137 72.8638 87.1941 72.7957C87.1745 72.7276 87.1365 72.6662 87.0842 72.6182ZM87.1951 75.8715C87.1196 75.6398 86.986 75.4311 86.8069 75.2649H86.086L85.7533 75.6509V76.3678C85.8087 76.5883 86.086 76.5883 86.2524 76.7538H86.5851L87.1951 76.1472V75.8715ZM88.637 79.0146L88.8588 79.5108L89.1915 79.7865H89.7461L90.0788 79.566L90.2452 79.2351V78.6837C90.0429 78.4439 89.7722 78.2708 89.4688 78.1874L89.3024 78.3529H89.0251L88.8033 78.5734C88.8033 78.7389 88.8588 78.9043 88.637 79.0146ZM90.2452 76.2024V75.8164L89.9124 75.3201H89.1361L88.8033 75.7061V76.3678C88.9142 76.5883 89.1915 76.5332 89.3024 76.7538H89.7461L90.2452 76.2024ZM88.9697 70.1368V70.2471L89.3579 70.4677H89.7461L90.1343 70.0817V69.42L89.9679 69.1994H89.1915L88.8033 69.5303V69.9714L88.9697 70.1368ZM88.9142 66.8835C88.9142 67.0489 89.0251 67.1592 89.1915 67.2695H89.7461L90.1343 66.9386V66.3321C90.0233 66.1115 89.7461 66.1666 89.6352 66.0012H89.3579L88.8033 66.6078C88.7989 66.6591 88.8067 66.7108 88.8259 66.7587C88.8452 66.8066 88.8754 66.8493 88.9142 66.8835ZM88.9697 64.0161L89.3579 64.2367H89.7461L90.1343 63.8507V63.4647L89.9124 63.0787C89.8015 62.9684 89.5797 63.189 89.5242 62.9684C89.4688 62.7479 89.1361 63.0236 89.0251 63.189C88.9727 63.3288 88.8978 63.4591 88.8033 63.575C89.0251 63.6853 88.9142 63.8507 88.9697 64.0161ZM89.8015 44.9372L89.5797 44.7718H89.3024L89.1361 45.1027L89.4688 45.4335C89.5242 45.3232 89.6906 45.3232 89.8015 45.2681V44.9372ZM89.6352 47.8046H89.3024L89.0806 48.0251V48.3009L89.4688 48.6317L89.8015 48.4663C89.799 48.4364 89.8026 48.4063 89.8121 48.3779C89.8216 48.3494 89.8369 48.3232 89.857 48.3009L89.9679 48.1354L89.6352 47.8046ZM89.9679 51.0579L89.7461 50.8374H89.3024L89.1361 51.0579V51.499L89.3024 51.7196H89.5797L89.9679 51.3336V51.0579ZM89.9679 54.0907L89.7461 53.9253H89.3024L88.9697 54.2561C88.9142 54.4215 89.0251 54.4767 89.0806 54.5318C89.1166 54.5795 89.1361 54.6376 89.1361 54.6972L89.5797 54.9178C89.7461 54.8627 89.8015 54.6972 89.9679 54.587V54.0907ZM89.9679 57.1786L89.7461 56.958H89.1361L88.9697 57.1786V57.6197C89.0741 57.756 89.2064 57.8688 89.3579 57.9506H89.7461L89.9679 57.7852V57.1786ZM89.9679 60.2114C89.9124 60.1562 89.8015 60.1011 89.7461 59.9908H89.1361L88.9697 60.2114V60.8179L89.3579 61.0936C89.5242 61.3142 89.6906 61.0385 89.9124 60.9834C90.1343 60.9282 90.1897 60.6525 90.1343 60.4319C90.0788 60.2114 90.0233 60.2665 89.9679 60.2114ZM90.2452 72.7284C90.0788 72.6182 90.1343 72.2873 89.857 72.2322C89.5797 72.177 89.5242 72.0116 89.3579 72.0668L88.8033 72.563V73.1696L89.1915 73.5556H89.7461L90.2452 73.0042V72.7284ZM91.9088 73.1144L92.3525 73.5004H92.9625L93.3507 73.1696C93.3233 72.9868 93.3233 72.801 93.3507 72.6182C93.1549 72.4629 92.9863 72.2766 92.8516 72.0668C92.5743 71.9565 92.4079 72.2322 92.2416 72.2322C92.0752 72.2322 92.0197 72.3976 92.0197 72.4527C92.0197 72.5079 91.7425 72.7836 91.9088 73.1144ZM93.3507 69.9162V69.5303L92.907 69.1994H92.2416L92.0197 69.3648V70.1368L92.4079 70.4677H92.7961C92.907 70.4125 92.9625 70.3022 93.1288 70.3574C93.1915 70.205 93.2656 70.0575 93.3507 69.9162ZM92.1861 60.9834C92.4079 61.0385 92.5188 61.2039 92.8516 61.1488L93.1843 60.8179V60.2114L92.9625 59.9908H92.3525C92.2504 60.1757 92.1194 60.3432 91.9643 60.4871C91.9088 60.5974 92.1861 60.7628 92.1861 60.9834ZM93.1843 57.6197V57.1786L92.9625 56.958H92.4079L92.1861 57.1786V57.73L92.3525 57.9506H92.8516L93.1843 57.6197ZM92.1861 51.3888L92.5743 51.7196H92.8516L93.0179 51.499V51.0579L92.8516 50.8374H92.4079L92.1861 51.0579V51.3888ZM92.7407 47.8046H92.5188L92.1861 48.1354L92.4079 48.5214L92.6852 48.6317C92.8223 48.5279 92.9357 48.3963 93.0179 48.2457C93.0232 48.1517 93.0418 48.0588 93.0734 47.97L92.7407 47.8046ZM92.8516 53.9253H92.4079L92.1861 54.0907C92.1582 54.2549 92.1582 54.4227 92.1861 54.587L92.5188 54.9178C92.6298 54.973 92.6852 54.9178 92.7961 54.8075H92.9625L93.1843 54.4215C93.1843 54.1458 92.907 54.0907 92.8516 53.9253ZM93.0734 63.189L92.6852 62.9133L92.5188 63.0787H92.2416L92.0197 63.4647V63.9058L92.4079 64.2367H92.7961L93.1843 64.0161V63.7404L93.3507 63.575C93.1843 63.5199 93.2398 63.2993 93.0734 63.189ZM92.6852 66.0012H92.5743L92.0752 66.2218C92.0752 66.3321 92.0197 66.3321 92.0197 66.3321V66.9386L92.4079 67.2695H92.9625C93.1843 67.2143 93.1288 66.9386 93.2952 66.7732C93.3479 66.6915 93.3677 66.593 93.3507 66.4975L92.6852 66.0012ZM95.0698 70.1368L95.5134 70.4677H95.8462L96.2344 70.3022C96.232 70.2376 96.246 70.1735 96.2751 70.1157C96.3042 70.0579 96.3474 70.0083 96.4007 69.9714V69.5854C96.3453 69.42 96.1234 69.3097 96.068 69.1994H95.2916L95.0698 69.3648V70.1368ZM96.068 60.046H95.458C95.3583 60.2011 95.2258 60.3328 95.0698 60.4319V60.7076L95.2362 60.8731V61.0385C95.458 61.0936 95.6243 61.2591 95.9016 61.2039C96.0387 61.1001 96.1521 60.9685 96.2344 60.8179V60.3217L96.068 60.046ZM96.2344 57.5095V57.1786L96.068 56.958H95.458C95.3471 57.0132 95.2916 57.1235 95.2362 57.1786V57.7852L95.458 57.9506H95.9016L96.2344 57.5095ZM96.1234 51.0579L95.9016 50.8374H95.458L95.2362 51.0579V51.3888L95.6243 51.7196H95.9016L96.1234 51.499V51.0579ZM95.9016 53.9253H95.458L95.2362 54.0907V54.587L95.6798 54.9178L96.068 54.7524C96.1306 54.6 96.2048 54.4525 96.2898 54.3113C96.2344 54.1458 96.0125 54.0907 95.9016 53.9253ZM96.2344 63.2993C96.236 63.2492 96.2203 63.2001 96.1901 63.16C96.1599 63.1199 96.1168 63.0912 96.068 63.0787C95.9398 63.0683 95.8206 63.009 95.7353 62.9133L95.6243 63.0787H95.2916L95.1252 63.4647V63.9058L95.5689 64.2367H95.8462L96.2344 64.0161V63.7404L96.4007 63.575C96.3475 63.5521 96.3028 63.5132 96.2729 63.4638C96.2431 63.4143 96.2296 63.3568 96.2344 63.2993ZM96.4007 66.6078L95.7907 65.9461C95.5113 65.9837 95.2552 66.1209 95.0698 66.3321V66.9386L95.458 67.2695H96.1234C96.1789 67.2143 96.2344 67.2143 96.2344 67.1592L96.4007 66.7732C96.4562 66.718 96.4007 66.6078 96.4007 66.6078ZM98.1753 63.575C98.2308 63.6301 98.2862 63.6853 98.2862 63.7404V64.0161L98.7299 64.2367H99.118L99.4508 63.7404V63.4647L99.2844 63.0787H98.9517L98.8408 62.9133C98.7299 63.0787 98.508 63.0236 98.3971 63.189C98.2862 63.3544 98.3417 63.5199 98.1753 63.575ZM99.3399 57.1786L99.118 56.958H98.508L98.3417 57.1235C98.2862 57.2889 98.3417 57.3992 98.2862 57.5646L98.6744 57.9506H99.118L99.3399 57.7852V57.1786ZM99.4508 60.3768L99.118 59.9908H98.508L98.3417 60.2114V60.8179L98.6744 61.0936C98.8962 61.3142 99.0626 61.0385 99.2844 60.9834C99.5062 60.9282 99.5062 60.6525 99.4508 60.3768Z" fill="#3241E0"/>
</svg>
